name,time,countryCode,ipAddress,level,producer,value
MinCPULoad,1645783546252000000,US,44.201.37.88,3,44.201.37.88,15.1
MinCPULoad,1645783576252000000,US,44.201.37.88,3,44.201.37.88,15.1
MinCPULoad,1645783606252000000,US,44.201.37.88,3,44.201.37.88,15.1
MinCPULoad,1645783636252000000,US,44.201.37.88,3,44.201.37.88,15.1
MinCPULoad,1645783666252000000,US,44.201.37.88,3,44.201.37.88,15.1
MinCPULoad,1645783696252000000,US,44.201.37.88,3,44.201.37.88,15.1
MinCPULoad,1645783726252000000,US,44.201.37.88,3,44.201.37.88,15.1
MinCPULoad,1645783756252000000,US,44.201.37.88,3,44.201.37.88,15.1
MinCPULoad,1645783786252000000,US,44.201.37.88,3,44.201.37.88,15.1
MinCPULoad,1645783816252000000,US,44.201.37.88,3,44.201.37.88,15.1
MinCPULoad,1645783846252000000,US,44.201.37.88,3,44.201.37.88,15.1
MinCPULoad,1645783876252000000,US,44.201.37.88,3,44.201.37.88,25.0
MinCPULoad,1645783906252000000,US,44.201.37.88,3,44.201.37.88,56.2
MinCPULoad,1645783936252000000,US,44.201.37.88,3,44.201.37.88,50.0
MinCPULoad,1645783966252000000,US,44.201.37.88,3,44.201.37.88,80.2
MinCPULoad,1645783996252000000,US,44.201.37.88,3,44.201.37.88,10.1
MinCPULoad,1645784026252000000,US,44.201.37.88,3,44.201.37.88,15.1
MinCPULoad,1645784056252000000,US,44.201.37.88,3,44.201.37.88,25.0
MinCPULoad,1645784086252000000,US,44.201.37.88,3,44.201.37.88,56.2
MinCPULoad,1645784116252000000,US,44.201.37.88,3,44.201.37.88,50.0
MinCPULoad,1645784146252000000,US,44.201.37.88,3,44.201.37.88,80.2
MinCPULoad,1645784176252000000,US,44.201.37.88,3,44.201.37.88,10.1
MinCPULoad,1645784206252000000,US,44.201.37.88,3,44.201.37.88,15.1
MinCPULoad,1645784236252000000,US,44.201.37.88,3,44.201.37.88,25.0
MinCPULoad,1645784266252000000,US,44.201.37.88,3,44.201.37.88,56.2
MinCPULoad,1645784296252000000,US,44.201.37.88,3,44.201.37.88,50.0
MinCPULoad,1645784326252000000,US,44.201.37.88,3,44.201.37.88,80.2
MinCPULoad,1645784356252000000,US,44.201.37.88,3,44.201.37.88,10.1
MinCPULoad,1645784386252000000,US,44.201.37.88,3,44.201.37.88,15.1
MinCPULoad,1645784416252000000,US,44.201.37.88,3,44.201.37.88,25.0
MinCPULoad,1645784446252000000,US,44.201.37.88,3,44.201.37.88,56.2
MinCPULoad,1645784476252000000,US,44.201.37.88,3,44.201.37.88,50.0
MinCPULoad,1645784506252000000,US,44.201.37.88,3,44.201.37.88,80.2
MinCPULoad,1645784536252000000,US,44.201.37.88,3,44.201.37.88,10.1
MinCPULoad,1645784566252000000,US,44.201.37.88,3,44.201.37.88,15.1
MinCPULoad,1645784596252000000,US,44.201.37.88,3,44.201.37.88,25.0
MinCPULoad,1645784626252000000,US,44.201.37.88,3,44.201.37.88,56.2
MinCPULoad,1645784656252000000,US,44.201.37.88,3,44.201.37.88,50.0
MinCPULoad,1645784686252000000,US,44.201.37.88,3,44.201.37.88,80.2
MinCPULoad,1645784716252000000,US,44.201.37.88,3,44.201.37.88,10.1
MinCPULoad,1645784746252000000,US,44.201.37.88,3,44.201.37.88,15.1
MinCPULoad,1645784776252000000,US,44.201.37.88,3,44.201.37.88,25.0
MinCPULoad,1645784806252000000,US,44.201.37.88,3,44.201.37.88,56.2
MinCPULoad,1645784836252000000,US,44.201.37.88,3,44.201.37.88,50.0
MinCPULoad,1645784866252000000,US,44.201.37.88,3,44.201.37.88,80.2
MinCPULoad,1645784896252000000,US,44.201.37.88,3,44.201.37.88,10.1
MinCPULoad,1645784926252000000,US,44.201.37.88,3,44.201.37.88,15.1
MinCPULoad,1645784956252000000,US,44.201.37.88,3,44.201.37.88,25.0
MinCPULoad,1645784986252000000,US,44.201.37.88,3,44.201.37.88,56.2
MinCPULoad,1645785016252000000,US,44.201.37.88,3,44.201.37.88,50.0
MinCPULoad,1645785046252000000,US,44.201.37.88,3,44.201.37.88,80.2
MinCPULoad,1645785076252000000,US,44.201.37.88,3,44.201.37.88,10.1
MinCPULoad,1645785106252000000,US,44.201.37.88,3,44.201.37.88,15.1
MinCPULoad,1645785136252000000,US,44.201.37.88,3,44.201.37.88,25.0
MinCPULoad,1645785166252000000,US,44.201.37.88,3,44.201.37.88,56.2
MinCPULoad,1645785196252000000,US,44.201.37.88,3,44.201.37.88,50.0
MinCPULoad,1645785226252000000,US,44.201.37.88,3,44.201.37.88,80.2
MinCPULoad,1645785256252000000,US,44.201.37.88,3,44.201.37.88,10.1
MinCPULoad,1645785286252000000,US,44.201.37.88,3,44.201.37.88,15.1
MinCPULoad,1645785316252000000,US,44.201.37.88,3,44.201.37.88,25.0
MinCPULoad,1645785346252000000,US,44.201.37.88,3,44.201.37.88,56.2
MinCPULoad,1645785376252000000,US,44.201.37.88,3,44.201.37.88,50.0
MinCPULoad,1645785406252000000,US,44.201.37.88,3,44.201.37.88,80.2
MinCPULoad,1645785436252000000,US,44.201.37.88,3,44.201.37.88,10.1
MinCPULoad,1645785466252000000,US,44.201.37.88,3,44.201.37.88,15.1
MinCPULoad,1645785496252000000,US,44.201.37.88,3,44.201.37.88,25.0
MinCPULoad,1645785526252000000,US,44.201.37.88,3,44.201.37.88,56.2
MinCPULoad,1645785556252000000,US,44.201.37.88,3,44.201.37.88,50.0
MinCPULoad,1645785586252000000,US,44.201.37.88,3,44.201.37.88,80.2
MinCPULoad,1645785616252000000,US,44.201.37.88,3,44.201.37.88,10.1
MinCPULoad,1645785646252000000,US,44.201.37.88,3,44.201.37.88,15.1
MinCPULoad,1645785676252000000,US,44.201.37.88,3,44.201.37.88,25.0
MinCPULoad,1645785706252000000,US,44.201.37.88,3,44.201.37.88,56.2
MinCPULoad,1645785736252000000,US,44.201.37.88,3,44.201.37.88,50.0
MinCPULoad,1645785766252000000,US,44.201.37.88,3,44.201.37.88,80.2
MinCPULoad,1645785796252000000,US,44.201.37.88,3,44.201.37.88,10.1
MinCPULoad,1645785826252000000,US,44.201.37.88,3,44.201.37.88,15.1
MinCPULoad,1645785856252000000,US,44.201.37.88,3,44.201.37.88,25.0
MinCPULoad,1645785886252000000,US,44.201.37.88,3,44.201.37.88,56.2
MinCPULoad,1645785916252000000,US,44.201.37.88,3,44.201.37.88,50.0
MinCPULoad,1645785946252000000,US,44.201.37.88,3,44.201.37.88,80.2
MinCPULoad,1645785976252000000,US,44.201.37.88,3,44.201.37.88,10.1
MinCPULoad,1645786006252000000,US,44.201.37.88,3,44.201.37.88,15.1
MinCPULoad,1645786036252000000,US,44.201.37.88,3,44.201.37.88,25.0
MinCPULoad,1645786066252000000,US,44.201.37.88,3,44.201.37.88,56.2
MinCPULoad,1645786096252000000,US,44.201.37.88,3,44.201.37.88,50.0
MinCPULoad,1645786126252000000,US,44.201.37.88,3,44.201.37.88,80.2
MinCPULoad,1645786156252000000,US,44.201.37.88,3,44.201.37.88,10.1
MinCPULoad,1645786186252000000,US,44.201.37.88,3,44.201.37.88,15.1
MinCPULoad,1645786216252000000,US,44.201.37.88,3,44.201.37.88,25.0
MinCPULoad,1645786246252000000,US,44.201.37.88,3,44.201.37.88,56.2
MinCPULoad,1645786276252000000,US,44.201.37.88,3,44.201.37.88,50.0
MinCPULoad,1645786306252000000,US,44.201.37.88,3,44.201.37.88,80.2
MinCPULoad,1645786336252000000,US,44.201.37.88,3,44.201.37.88,10.1
MinCPULoad,1645786366252000000,US,44.201.37.88,3,44.201.37.88,15.1
MinCPULoad,1645786396252000000,US,44.201.37.88,3,44.201.37.88,25.0
MinCPULoad,1645786426252000000,US,44.201.37.88,3,44.201.37.88,56.2
MinCPULoad,1645786456252000000,US,44.201.37.88,3,44.201.37.88,50.0
MinCPULoad,1645786486252000000,US,44.201.37.88,3,44.201.37.88,80.2
MinCPULoad,1645786516252000000,US,44.201.37.88,3,44.201.37.88,10.1
MinCPULoad,1645786546252000000,US,44.201.37.88,3,44.201.37.88,15.1
MinCPULoad,1645786576252000000,US,44.201.37.88,3,44.201.37.88,25.0
MinCPULoad,1645786606252000000,US,44.201.37.88,3,44.201.37.88,56.2
MinCPULoad,1645786636252000000,US,44.201.37.88,3,44.201.37.88,50.0
MinCPULoad,1645786666252000000,US,44.201.37.88,3,44.201.37.88,80.2
MinCPULoad,1645786696252000000,US,44.201.37.88,3,44.201.37.88,10.1
MinCPULoad,1645786726252000000,US,44.201.37.88,3,44.201.37.88,15.1
MinCPULoad,1645786756252000000,US,44.201.37.88,3,44.201.37.88,25.0
MinCPULoad,1645786786252000000,US,44.201.37.88,3,44.201.37.88,56.2
MinCPULoad,1645786816252000000,US,44.201.37.88,3,44.201.37.88,50.0
MinCPULoad,1645786846252000000,US,44.201.37.88,3,44.201.37.88,80.2
MinCPULoad,1645786876252000000,US,44.201.37.88,3,44.201.37.88,10.1
MinCPULoad,1645786906252000000,US,44.201.37.88,3,44.201.37.88,15.1
MinCPULoad,1645786936252000000,US,44.201.37.88,3,44.201.37.88,25.0
MinCPULoad,1645786966252000000,US,44.201.37.88,3,44.201.37.88,56.2
MinCPULoad,1645786996252000000,US,44.201.37.88,3,44.201.37.88,50.0
MinCPULoad,1645787026252000000,US,44.201.37.88,3,44.201.37.88,80.2
MinCPULoad,1645787056252000000,US,44.201.37.88,3,44.201.37.88,10.1
MinCPULoad,1645787086252000000,US,44.201.37.88,3,44.201.37.88,15.1
MinCPULoad,1645787116252000000,US,44.201.37.88,3,44.201.37.88,25.0
MinCPULoad,1645787146252000000,US,44.201.37.88,3,44.201.37.88,56.2
MinCPULoad,1645787176252000000,US,44.201.37.88,3,44.201.37.88,50.0
MinCPULoad,1645787206252000000,US,44.201.37.88,3,44.201.37.88,80.2
MinCPULoad,1645787236252000000,US,44.201.37.88,3,44.201.37.88,10.1
MinCPULoad,1645787266252000000,US,44.201.37.88,3,44.201.37.88,15.1
MinCPULoad,1645787296252000000,US,44.201.37.88,3,44.201.37.88,25.0
MinCPULoad,1645787326252000000,US,44.201.37.88,3,44.201.37.88,56.2
MinCPULoad,1645787356252000000,US,44.201.37.88,3,44.201.37.88,50.0
MinCPULoad,1645787386252000000,US,44.201.37.88,3,44.201.37.88,80.2
MinCPULoad,1645787416252000000,US,44.201.37.88,3,44.201.37.88,10.1
MinCPULoad,1645787446252000000,US,44.201.37.88,3,44.201.37.88,15.1
MinCPULoad,1645787476252000000,US,44.201.37.88,3,44.201.37.88,25.0
MinCPULoad,1645787506252000000,US,44.201.37.88,3,44.201.37.88,56.2
MinCPULoad,1645787536252000000,US,44.201.37.88,3,44.201.37.88,50.0
MinCPULoad,1645787566252000000,US,44.201.37.88,3,44.201.37.88,80.2
MinCPULoad,1645787596252000000,US,44.201.37.88,3,44.201.37.88,10.1
MinCPULoad,1645787626252000000,US,44.201.37.88,3,44.201.37.88,15.1
MinCPULoad,1645787656252000000,US,44.201.37.88,3,44.201.37.88,25.0
MinCPULoad,1645787686252000000,US,44.201.37.88,3,44.201.37.88,56.2
MinCPULoad,1645787716252000000,US,44.201.37.88,3,44.201.37.88,50.0
MinCPULoad,1645787746252000000,US,44.201.37.88,3,44.201.37.88,80.2
MinCPULoad,1645787776252000000,US,44.201.37.88,3,44.201.37.88,10.1
MinCPULoad,1645787806252000000,US,44.201.37.88,3,44.201.37.88,15.1
MinCPULoad,1645787836252000000,US,44.201.37.88,3,44.201.37.88,25.0
MinCPULoad,1645787866252000000,US,44.201.37.88,3,44.201.37.88,56.2
MinCPULoad,1645787896252000000,US,44.201.37.88,3,44.201.37.88,50.0
MinCPULoad,1645787926252000000,US,44.201.37.88,3,44.201.37.88,80.2
MinCPULoad,1645787956252000000,US,44.201.37.88,3,44.201.37.88,10.1
MinCPULoad,1645787986252000000,US,44.201.37.88,3,44.201.37.88,15.1
MinCPULoad,1645788016252000000,US,44.201.37.88,3,44.201.37.88,25.0
MinCPULoad,1645788046252000000,US,44.201.37.88,3,44.201.37.88,56.2
MinCPULoad,1645788076252000000,US,44.201.37.88,3,44.201.37.88,50.0
MinCPULoad,1645788106252000000,US,44.201.37.88,3,44.201.37.88,80.2
MinCPULoad,1645788136252000000,US,44.201.37.88,3,44.201.37.88,10.1
MinCPULoad,1645788166252000000,US,44.201.37.88,3,44.201.37.88,15.1
MinCPULoad,1645788196252000000,US,44.201.37.88,3,44.201.37.88,25.0
MinCPULoad,1645788226252000000,US,44.201.37.88,3,44.201.37.88,56.2
MinCPULoad,1645788256252000000,US,44.201.37.88,3,44.201.37.88,50.0
MinCPULoad,1645788286252000000,US,44.201.37.88,3,44.201.37.88,80.2
MinCPULoad,1645788316252000000,US,44.201.37.88,3,44.201.37.88,10.1
MinCPULoad,1645788346252000000,US,44.201.37.88,3,44.201.37.88,15.1
MinCPULoad,1645788376252000000,US,44.201.37.88,3,44.201.37.88,25.0
MinCPULoad,1645788406252000000,US,44.201.37.88,3,44.201.37.88,56.2
MinCPULoad,1645788436252000000,US,44.201.37.88,3,44.201.37.88,50.0
MinCPULoad,1645788466252000000,US,44.201.37.88,3,44.201.37.88,80.2
MinCPULoad,1645788496252000000,US,44.201.37.88,3,44.201.37.88,10.1
MinCPULoad,1645788526252000000,US,44.201.37.88,3,44.201.37.88,15.1
MinCPULoad,1645788556252000000,US,44.201.37.88,3,44.201.37.88,25.0
MinCPULoad,1645788586252000000,US,44.201.37.88,3,44.201.37.88,56.2
MinCPULoad,1645788616252000000,US,44.201.37.88,3,44.201.37.88,50.0
MinCPULoad,1645788646252000000,US,44.201.37.88,3,44.201.37.88,80.2
MinCPULoad,1645788676252000000,US,44.201.37.88,3,44.201.37.88,10.1
MinCPULoad,1645788706252000000,US,44.201.37.88,3,44.201.37.88,15.1
MinCPULoad,1645788736252000000,US,44.201.37.88,3,44.201.37.88,25.0
MinCPULoad,1645788766252000000,US,44.201.37.88,3,44.201.37.88,56.2
MinCPULoad,1645788796252000000,US,44.201.37.88,3,44.201.37.88,50.0
MinCPULoad,1645788826252000000,US,44.201.37.88,3,44.201.37.88,80.2
MinCPULoad,1645788856252000000,US,44.201.37.88,3,44.201.37.88,10.1
MinCPULoad,1645788886252000000,US,44.201.37.88,3,44.201.37.88,15.1
MinCPULoad,1645788916252000000,US,44.201.37.88,3,44.201.37.88,25.0
MinCPULoad,1645788946252000000,US,44.201.37.88,3,44.201.37.88,56.2
MinCPULoad,1645788976252000000,US,44.201.37.88,3,44.201.37.88,50.0
MinCPULoad,1645789006252000000,US,44.201.37.88,3,44.201.37.88,80.2
MinCPULoad,1645789036252000000,US,44.201.37.88,3,44.201.37.88,10.1
MinCPULoad,1645789066252000000,US,44.201.37.88,3,44.201.37.88,15.1
MinCPULoad,1645789096252000000,US,44.201.37.88,3,44.201.37.88,25.0
MinCPULoad,1645789126252000000,US,44.201.37.88,3,44.201.37.88,56.2
MinCPULoad,1645789156252000000,US,44.201.37.88,3,44.201.37.88,50.0
MinCPULoad,1645789186252000000,US,44.201.37.88,3,44.201.37.88,80.2
MinCPULoad,1645789216252000000,US,44.201.37.88,3,44.201.37.88,10.1
MinCPULoad,1645789246252000000,US,44.201.37.88,3,44.201.37.88,15.1
MinCPULoad,1645789276252000000,US,44.201.37.88,3,44.201.37.88,25.0
MinCPULoad,1645789306252000000,US,44.201.37.88,3,44.201.37.88,56.2
MinCPULoad,1645789336252000000,US,44.201.37.88,3,44.201.37.88,50.0
MinCPULoad,1645789366252000000,US,44.201.37.88,3,44.201.37.88,80.2
MinCPULoad,1645789396252000000,US,44.201.37.88,3,44.201.37.88,10.1
MinCPULoad,1645789426252000000,US,44.201.37.88,3,44.201.37.88,15.1
MinCPULoad,1645789456252000000,US,44.201.37.88,3,44.201.37.88,25.0
MinCPULoad,1645789486252000000,US,44.201.37.88,3,44.201.37.88,56.2
MinCPULoad,1645789516252000000,US,44.201.37.88,3,44.201.37.88,50.0
MinCPULoad,1645789546252000000,US,44.201.37.88,3,44.201.37.88,80.2
MinCPULoad,1645789576252000000,US,44.201.37.88,3,44.201.37.88,10.1
MinCPULoad,1645789606252000000,US,44.201.37.88,3,44.201.37.88,15.1
MinCPULoad,1645789636252000000,US,44.201.37.88,3,44.201.37.88,25.0
MinCPULoad,1645789666252000000,US,44.201.37.88,3,44.201.37.88,56.2
MinCPULoad,1645789696252000000,US,44.201.37.88,3,44.201.37.88,50.0
MinCPULoad,1645789726252000000,US,44.201.37.88,3,44.201.37.88,80.2
MinCPULoad,1645789756252000000,US,44.201.37.88,3,44.201.37.88,10.1
MinCPULoad,1645789786252000000,US,44.201.37.88,3,44.201.37.88,15.1
MinCPULoad,1645789816252000000,US,44.201.37.88,3,44.201.37.88,25.0
MinCPULoad,1645789846252000000,US,44.201.37.88,3,44.201.37.88,56.2
MinCPULoad,1645789876252000000,US,44.201.37.88,3,44.201.37.88,50.0
MinCPULoad,1645789906252000000,US,44.201.37.88,3,44.201.37.88,80.2
MinCPULoad,1645789936252000000,US,44.201.37.88,3,44.201.37.88,10.1
MinCPULoad,1645789966252000000,US,44.201.37.88,3,44.201.37.88,15.1
MinCPULoad,1645789996252000000,US,44.201.37.88,3,44.201.37.88,25.0
MinCPULoad,1645790026252000000,US,44.201.37.88,3,44.201.37.88,56.2
MinCPULoad,1645790056252000000,US,44.201.37.88,3,44.201.37.88,50.0
MinCPULoad,1645790086252000000,US,44.201.37.88,3,44.201.37.88,80.2
MinCPULoad,1645790116252000000,US,44.201.37.88,3,44.201.37.88,10.1
MinCPULoad,1645790146252000000,US,44.201.37.88,3,44.201.37.88,15.1
MinCPULoad,1645790176252000000,US,44.201.37.88,3,44.201.37.88,25.0
MinCPULoad,1645790206252000000,US,44.201.37.88,3,44.201.37.88,56.2
MinCPULoad,1645790236252000000,US,44.201.37.88,3,44.201.37.88,50.0
MinCPULoad,1645790266252000000,US,44.201.37.88,3,44.201.37.88,80.2
MinCPULoad,1645790296252000000,US,44.201.37.88,3,44.201.37.88,10.1
MinCPULoad,1645790326252000000,US,44.201.37.88,3,44.201.37.88,15.1
MinCPULoad,1645790356252000000,US,44.201.37.88,3,44.201.37.88,25.0
MinCPULoad,1645790386252000000,US,44.201.37.88,3,44.201.37.88,56.2
MinCPULoad,1645790416252000000,US,44.201.37.88,3,44.201.37.88,50.0
MinCPULoad,1645790446252000000,US,44.201.37.88,3,44.201.37.88,80.2
MinCPULoad,1645790476252000000,US,44.201.37.88,3,44.201.37.88,10.1
MinCPULoad,1645790506252000000,US,44.201.37.88,3,44.201.37.88,15.1
MinCPULoad,1645790536252000000,US,44.201.37.88,3,44.201.37.88,25.0
MinCPULoad,1645790566252000000,US,44.201.37.88,3,44.201.37.88,56.2
MinCPULoad,1645790596252000000,US,44.201.37.88,3,44.201.37.88,50.0
MinCPULoad,1645790626252000000,US,44.201.37.88,3,44.201.37.88,80.2
MinCPULoad,1645790656252000000,US,44.201.37.88,3,44.201.37.88,10.1
MinCPULoad,1645790686252000000,US,44.201.37.88,3,44.201.37.88,15.1
MinCPULoad,1645790716252000000,US,44.201.37.88,3,44.201.37.88,25.0
MinCPULoad,1645790746252000000,US,44.201.37.88,3,44.201.37.88,56.2
MinCPULoad,1645790776252000000,US,44.201.37.88,3,44.201.37.88,50.0
MinCPULoad,1645790806252000000,US,44.201.37.88,3,44.201.37.88,80.2
MinCPULoad,1645790836252000000,US,44.201.37.88,3,44.201.37.88,10.1
MinCPULoad,1645790866252000000,US,44.201.37.88,3,44.201.37.88,15.1
MinCPULoad,1645790896252000000,US,44.201.37.88,3,44.201.37.88,25.0
MinCPULoad,1645790926252000000,US,44.201.37.88,3,44.201.37.88,56.2
MinCPULoad,1645790956252000000,US,44.201.37.88,3,44.201.37.88,50.0
MinCPULoad,1645790986252000000,US,44.201.37.88,3,44.201.37.88,80.2
MinCPULoad,1645791016252000000,US,44.201.37.88,3,44.201.37.88,10.1
MinCPULoad,1645791046252000000,US,44.201.37.88,3,44.201.37.88,15.1
MinCPULoad,1645791076252000000,US,44.201.37.88,3,44.201.37.88,25.0
MinCPULoad,1645791106252000000,US,44.201.37.88,3,44.201.37.88,56.2
MinCPULoad,1645791136252000000,US,44.201.37.88,3,44.201.37.88,50.0
MinCPULoad,1645791166252000000,US,44.201.37.88,3,44.201.37.88,80.2
MinCPULoad,1645791196252000000,US,44.201.37.88,3,44.201.37.88,10.1
MinCPULoad,1645791226252000000,US,44.201.37.88,3,44.201.37.88,15.1
MinCPULoad,1645791256252000000,US,44.201.37.88,3,44.201.37.88,25.0
MinCPULoad,1645791286252000000,US,44.201.37.88,3,44.201.37.88,56.2
MinCPULoad,1645791316252000000,US,44.201.37.88,3,44.201.37.88,50.0
MinCPULoad,1645791346252000000,US,44.201.37.88,3,44.201.37.88,80.2
MinCPULoad,1645791376252000000,US,44.201.37.88,3,44.201.37.88,10.1
MinCPULoad,1645791406252000000,US,44.201.37.88,3,44.201.37.88,15.1
MinCPULoad,1645791436252000000,US,44.201.37.88,3,44.201.37.88,25.0
MinCPULoad,1645791466252000000,US,44.201.37.88,3,44.201.37.88,56.2
MinCPULoad,1645791496252000000,US,44.201.37.88,3,44.201.37.88,50.0
MinCPULoad,1645791526252000000,US,44.201.37.88,3,44.201.37.88,80.2
MinCPULoad,1645791556252000000,US,44.201.37.88,3,44.201.37.88,10.1
MinCPULoad,1645791586252000000,US,44.201.37.88,3,44.201.37.88,15.1
MinCPULoad,1645791616252000000,US,44.201.37.88,3,44.201.37.88,25.0
MinCPULoad,1645791646252000000,US,44.201.37.88,3,44.201.37.88,56.2
MinCPULoad,1645791676252000000,US,44.201.37.88,3,44.201.37.88,50.0
MinCPULoad,1645791706252000000,US,44.201.37.88,3,44.201.37.88,80.2
MinCPULoad,1645791736252000000,US,44.201.37.88,3,44.201.37.88,10.1
MinCPULoad,1645791766252000000,US,44.201.37.88,3,44.201.37.88,15.1
MinCPULoad,1645791796252000000,US,44.201.37.88,3,44.201.37.88,25.0
MinCPULoad,1645791826252000000,US,44.201.37.88,3,44.201.37.88,56.2
MinCPULoad,1645791856252000000,US,44.201.37.88,3,44.201.37.88,50.0
MinCPULoad,1645791886252000000,US,44.201.37.88,3,44.201.37.88,80.2
MinCPULoad,1645791916252000000,US,44.201.37.88,3,44.201.37.88,10.1
MinCPULoad,1645791946252000000,US,44.201.37.88,3,44.201.37.88,15.1
MinCPULoad,1645791976252000000,US,44.201.37.88,3,44.201.37.88,25.0
MinCPULoad,1645792006252000000,US,44.201.37.88,3,44.201.37.88,56.2
MinCPULoad,1645792036252000000,US,44.201.37.88,3,44.201.37.88,50.0
MinCPULoad,1645792066252000000,US,44.201.37.88,3,44.201.37.88,80.2
MinCPULoad,1645792096252000000,US,44.201.37.88,3,44.201.37.88,10.1
MinCPULoad,1645792126252000000,US,44.201.37.88,3,44.201.37.88,15.1
MinCPULoad,1645792156252000000,US,44.201.37.88,3,44.201.37.88,25.0
MinCPULoad,1645792186252000000,US,44.201.37.88,3,44.201.37.88,56.2
MinCPULoad,1645792216252000000,US,44.201.37.88,3,44.201.37.88,50.0
MinCPULoad,1645792246252000000,US,44.201.37.88,3,44.201.37.88,80.2
MinCPULoad,1645792276252000000,US,44.201.37.88,3,44.201.37.88,10.1
MinCPULoad,1645792306252000000,US,44.201.37.88,3,44.201.37.88,15.1
MinCPULoad,1645792336252000000,US,44.201.37.88,3,44.201.37.88,25.0
MinCPULoad,1645792366252000000,US,44.201.37.88,3,44.201.37.88,56.2
MinCPULoad,1645792396252000000,US,44.201.37.88,3,44.201.37.88,50.0
MinCPULoad,1645792426252000000,US,44.201.37.88,3,44.201.37.88,80.2
MinCPULoad,1645792456252000000,US,44.201.37.88,3,44.201.37.88,10.1
MinCPULoad,1645792486252000000,US,44.201.37.88,3,44.201.37.88,15.1
MinCPULoad,1645792516252000000,US,44.201.37.88,3,44.201.37.88,25.0
MinCPULoad,1645792546252000000,US,44.201.37.88,3,44.201.37.88,56.2
MinCPULoad,1645792576252000000,US,44.201.37.88,3,44.201.37.88,50.0
MinCPULoad,1645792606252000000,US,44.201.37.88,3,44.201.37.88,80.2
MinCPULoad,1645792636252000000,US,44.201.37.88,3,44.201.37.88,10.1
MinCPULoad,1645792666252000000,US,44.201.37.88,3,44.201.37.88,15.1
MinCPULoad,1645792696252000000,US,44.201.37.88,3,44.201.37.88,25.0
MinCPULoad,1645792726252000000,US,44.201.37.88,3,44.201.37.88,56.2
MinCPULoad,1645792756252000000,US,44.201.37.88,3,44.201.37.88,50.0
MinCPULoad,1645792786252000000,US,44.201.37.88,3,44.201.37.88,80.2
MinCPULoad,1645792816252000000,US,44.201.37.88,3,44.201.37.88,10.1
MinCPULoad,1645792846252000000,US,44.201.37.88,3,44.201.37.88,15.1
MinCPULoad,1645792876252000000,US,44.201.37.88,3,44.201.37.88,25.0
MinCPULoad,1645792906252000000,US,44.201.37.88,3,44.201.37.88,56.2
MinCPULoad,1645792936252000000,US,44.201.37.88,3,44.201.37.88,50.0
MinCPULoad,1645792966252000000,US,44.201.37.88,3,44.201.37.88,80.2
MinCPULoad,1645792996252000000,US,44.201.37.88,3,44.201.37.88,10.1
MinCPULoad,1645793026252000000,US,44.201.37.88,3,44.201.37.88,15.1
MinCPULoad,1645793056252000000,US,44.201.37.88,3,44.201.37.88,25.0
MinCPULoad,1645793086252000000,US,44.201.37.88,3,44.201.37.88,56.2
MinCPULoad,1645793116252000000,US,44.201.37.88,3,44.201.37.88,50.0
MinCPULoad,1645793146252000000,US,44.201.37.88,3,44.201.37.88,80.2
MinCPULoad,1645793176252000000,US,44.201.37.88,3,44.201.37.88,10.1
MinCPULoad,1645793206252000000,US,44.201.37.88,3,44.201.37.88,15.1
MinCPULoad,1645793236252000000,US,44.201.37.88,3,44.201.37.88,25.0
MinCPULoad,1645793266252000000,US,44.201.37.88,3,44.201.37.88,56.2
MinCPULoad,1645793296252000000,US,44.201.37.88,3,44.201.37.88,50.0
MinCPULoad,1645793326252000000,US,44.201.37.88,3,44.201.37.88,80.2
MinCPULoad,1645793356252000000,US,44.201.37.88,3,44.201.37.88,10.1
MinCPULoad,1645793386252000000,US,44.201.37.88,3,44.201.37.88,15.1
MinCPULoad,1645793416252000000,US,44.201.37.88,3,44.201.37.88,25.0
MinCPULoad,1645793446252000000,US,44.201.37.88,3,44.201.37.88,56.2
MinCPULoad,1645793476252000000,US,44.201.37.88,3,44.201.37.88,50.0
MinCPULoad,1645793506252000000,US,44.201.37.88,3,44.201.37.88,80.2
MinCPULoad,1645793536252000000,US,44.201.37.88,3,44.201.37.88,10.1
MinCPULoad,1645793566252000000,US,44.201.37.88,3,44.201.37.88,15.1
MinCPULoad,1645793596252000000,US,44.201.37.88,3,44.201.37.88,25.0
MinCPULoad,1645793626252000000,US,44.201.37.88,3,44.201.37.88,56.2
MinCPULoad,1645793656252000000,US,44.201.37.88,3,44.201.37.88,50.0
MinCPULoad,1645793686252000000,US,44.201.37.88,3,44.201.37.88,80.2
MinCPULoad,1645793716252000000,US,44.201.37.88,3,44.201.37.88,10.1
MinCPULoad,1645793746252000000,US,44.201.37.88,3,44.201.37.88,15.1
MinCPULoad,1645793776252000000,US,44.201.37.88,3,44.201.37.88,25.0
MinCPULoad,1645793806252000000,US,44.201.37.88,3,44.201.37.88,56.2
MinCPULoad,1645793836252000000,US,44.201.37.88,3,44.201.37.88,50.0
MinCPULoad,1645793866252000000,US,44.201.37.88,3,44.201.37.88,80.2
MinCPULoad,1645793896252000000,US,44.201.37.88,3,44.201.37.88,10.1
MinCPULoad,1645793926252000000,US,44.201.37.88,3,44.201.37.88,15.1
MinCPULoad,1645793956252000000,US,44.201.37.88,3,44.201.37.88,25.0
MinCPULoad,1645793986252000000,US,44.201.37.88,3,44.201.37.88,56.2
MinCPULoad,1645794016252000000,US,44.201.37.88,3,44.201.37.88,50.0
MinCPULoad,1645794046252000000,US,44.201.37.88,3,44.201.37.88,80.2
MinCPULoad,1645794076252000000,US,44.201.37.88,3,44.201.37.88,10.1
MinCPULoad,1645794106252000000,US,44.201.37.88,3,44.201.37.88,15.1
MinCPULoad,1645794136252000000,US,44.201.37.88,3,44.201.37.88,25.0
MinCPULoad,1645794166252000000,US,44.201.37.88,3,44.201.37.88,56.2
MinCPULoad,1645794196252000000,US,44.201.37.88,3,44.201.37.88,50.0
MinCPULoad,1645794226252000000,US,44.201.37.88,3,44.201.37.88,80.2
MinCPULoad,1645794256252000000,US,44.201.37.88,3,44.201.37.88,10.1
MinCPULoad,1645794286252000000,US,44.201.37.88,3,44.201.37.88,15.1
MinCPULoad,1645794316252000000,US,44.201.37.88,3,44.201.37.88,25.0
MinCPULoad,1645794346252000000,US,44.201.37.88,3,44.201.37.88,56.2
MinCPULoad,1645794376252000000,US,44.201.37.88,3,44.201.37.88,50.0
MinCPULoad,1645794406252000000,US,44.201.37.88,3,44.201.37.88,80.2
MinCPULoad,1645794436252000000,US,44.201.37.88,3,44.201.37.88,10.1
MinCPULoad,1645794466252000000,US,44.201.37.88,3,44.201.37.88,15.1
MinCPULoad,1645794496252000000,US,44.201.37.88,3,44.201.37.88,25.0
MinCPULoad,1645794526252000000,US,44.201.37.88,3,44.201.37.88,56.2
MinCPULoad,1645794556252000000,US,44.201.37.88,3,44.201.37.88,50.0
MinCPULoad,1645794586252000000,US,44.201.37.88,3,44.201.37.88,80.2
MinCPULoad,1645794616252000000,US,44.201.37.88,3,44.201.37.88,10.1
MinCPULoad,1645794646252000000,US,44.201.37.88,3,44.201.37.88,15.1
MinCPULoad,1645794676252000000,US,44.201.37.88,3,44.201.37.88,25.0
MinCPULoad,1645794706252000000,US,44.201.37.88,3,44.201.37.88,56.2
MinCPULoad,1645794736252000000,US,44.201.37.88,3,44.201.37.88,50.0
MinCPULoad,1645794766252000000,US,44.201.37.88,3,44.201.37.88,80.2
MinCPULoad,1645794796252000000,US,44.201.37.88,3,44.201.37.88,10.1
MinCPULoad,1645794826252000000,US,44.201.37.88,3,44.201.37.88,15.1
MinCPULoad,1645794856252000000,US,44.201.37.88,3,44.201.37.88,25.0
MinCPULoad,1645794886252000000,US,44.201.37.88,3,44.201.37.88,56.2
MinCPULoad,1645794916252000000,US,44.201.37.88,3,44.201.37.88,50.0
MinCPULoad,1645794946252000000,US,44.201.37.88,3,44.201.37.88,80.2
MinCPULoad,1645794976252000000,US,44.201.37.88,3,44.201.37.88,10.1
MinCPULoad,1645795006252000000,US,44.201.37.88,3,44.201.37.88,15.1
MinCPULoad,1645795036252000000,US,44.201.37.88,3,44.201.37.88,25.0
MinCPULoad,1645795066252000000,US,44.201.37.88,3,44.201.37.88,56.2
MinCPULoad,1645795096252000000,US,44.201.37.88,3,44.201.37.88,50.0
MinCPULoad,1645795126252000000,US,44.201.37.88,3,44.201.37.88,80.2
MinCPULoad,1645795156252000000,US,44.201.37.88,3,44.201.37.88,10.1
MinCPULoad,1645795186252000000,US,44.201.37.88,3,44.201.37.88,15.1
MinCPULoad,1645795216252000000,US,44.201.37.88,3,44.201.37.88,25.0
MinCPULoad,1645795246252000000,US,44.201.37.88,3,44.201.37.88,56.2
MinCPULoad,1645795276252000000,US,44.201.37.88,3,44.201.37.88,50.0
MinCPULoad,1645795306252000000,US,44.201.37.88,3,44.201.37.88,80.2
MinCPULoad,1645795336252000000,US,44.201.37.88,3,44.201.37.88,10.1
MinCPULoad,1645795366252000000,US,44.201.37.88,3,44.201.37.88,15.1
MinCPULoad,1645795396252000000,US,44.201.37.88,3,44.201.37.88,25.0
MinCPULoad,1645795426252000000,US,44.201.37.88,3,44.201.37.88,56.2
MinCPULoad,1645795456252000000,US,44.201.37.88,3,44.201.37.88,50.0
MinCPULoad,1645795486252000000,US,44.201.37.88,3,44.201.37.88,80.2
MinCPULoad,1645795516252000000,US,44.201.37.88,3,44.201.37.88,10.1
MinCPULoad,1645795546252000000,US,44.201.37.88,3,44.201.37.88,15.1
MinCPULoad,1645795576252000000,US,44.201.37.88,3,44.201.37.88,25.0
MinCPULoad,1645795606252000000,US,44.201.37.88,3,44.201.37.88,56.2
MinCPULoad,1645795636252000000,US,44.201.37.88,3,44.201.37.88,50.0
MinCPULoad,1645795666252000000,US,44.201.37.88,3,44.201.37.88,80.2
MinCPULoad,1645795696252000000,US,44.201.37.88,3,44.201.37.88,10.1
MinCPULoad,1645795726252000000,US,44.201.37.88,3,44.201.37.88,15.1
MinCPULoad,1645795756252000000,US,44.201.37.88,3,44.201.37.88,25.0
MinCPULoad,1645795786252000000,US,44.201.37.88,3,44.201.37.88,56.2
MinCPULoad,1645795816252000000,US,44.201.37.88,3,44.201.37.88,50.0
MinCPULoad,1645795846252000000,US,44.201.37.88,3,44.201.37.88,80.2
MinCPULoad,1645795876252000000,US,44.201.37.88,3,44.201.37.88,10.1
MinCPULoad,1645795906252000000,US,44.201.37.88,3,44.201.37.88,15.1
MinCPULoad,1645795936252000000,US,44.201.37.88,3,44.201.37.88,25.0
MinCPULoad,1645795966252000000,US,44.201.37.88,3,44.201.37.88,56.2
MinCPULoad,1645795996252000000,US,44.201.37.88,3,44.201.37.88,50.0
MinCPULoad,1645796026252000000,US,44.201.37.88,3,44.201.37.88,80.2
MinCPULoad,1645796056252000000,US,44.201.37.88,3,44.201.37.88,10.1
MinCPULoad,1645796086252000000,US,44.201.37.88,3,44.201.37.88,15.1
MinCPULoad,1645796116252000000,US,44.201.37.88,3,44.201.37.88,25.0
MinCPULoad,1645796146252000000,US,44.201.37.88,3,44.201.37.88,56.2
MinCPULoad,1645796176252000000,US,44.201.37.88,3,44.201.37.88,50.0
MinCPULoad,1645796206252000000,US,44.201.37.88,3,44.201.37.88,80.2
MinCPULoad,1645796236252000000,US,44.201.37.88,3,44.201.37.88,10.1
MinCPULoad,1645796266252000000,US,44.201.37.88,3,44.201.37.88,15.1
MinCPULoad,1645796296252000000,US,44.201.37.88,3,44.201.37.88,25.0
MinCPULoad,1645796326252000000,US,44.201.37.88,3,44.201.37.88,56.2
MinCPULoad,1645796356252000000,US,44.201.37.88,3,44.201.37.88,50.0
MinCPULoad,1645796386252000000,US,44.201.37.88,3,44.201.37.88,80.2
MinCPULoad,1645796416252000000,US,44.201.37.88,3,44.201.37.88,10.1
MinCPULoad,1645796446252000000,US,44.201.37.88,3,44.201.37.88,15.1
MinCPULoad,1645796476252000000,US,44.201.37.88,3,44.201.37.88,25.0
MinCPULoad,1645796506252000000,US,44.201.37.88,3,44.201.37.88,56.2
MinCPULoad,1645796536252000000,US,44.201.37.88,3,44.201.37.88,50.0
MinCPULoad,1645796566252000000,US,44.201.37.88,3,44.201.37.88,80.2
MinCPULoad,1645796596252000000,US,44.201.37.88,3,44.201.37.88,10.1
MinCPULoad,1645796626252000000,US,44.201.37.88,3,44.201.37.88,15.1
MinCPULoad,1645796656252000000,US,44.201.37.88,3,44.201.37.88,25.0
MinCPULoad,1645796686252000000,US,44.201.37.88,3,44.201.37.88,56.2
MinCPULoad,1645796716252000000,US,44.201.37.88,3,44.201.37.88,50.0
MinCPULoad,1645796746252000000,US,44.201.37.88,3,44.201.37.88,80.2
MinCPULoad,1645796776252000000,US,44.201.37.88,3,44.201.37.88,10.1
MinCPULoad,1645796806252000000,US,44.201.37.88,3,44.201.37.88,15.1
MinCPULoad,1645796836252000000,US,44.201.37.88,3,44.201.37.88,25.0
MinCPULoad,1645796866252000000,US,44.201.37.88,3,44.201.37.88,56.2
MinCPULoad,1645796896252000000,US,44.201.37.88,3,44.201.37.88,50.0
MinCPULoad,1645796926252000000,US,44.201.37.88,3,44.201.37.88,80.2
MinCPULoad,1645796956252000000,US,44.201.37.88,3,44.201.37.88,10.1
MinCPULoad,1645796986252000000,US,44.201.37.88,3,44.201.37.88,15.1
MinCPULoad,1645797016252000000,US,44.201.37.88,3,44.201.37.88,25.0
MinCPULoad,1645797046252000000,US,44.201.37.88,3,44.201.37.88,56.2
MinCPULoad,1645797076252000000,US,44.201.37.88,3,44.201.37.88,50.0
MinCPULoad,1645797106252000000,US,44.201.37.88,3,44.201.37.88,80.2
MinCPULoad,1645797136252000000,US,44.201.37.88,3,44.201.37.88,10.1
MinCPULoad,1645797166252000000,US,44.201.37.88,3,44.201.37.88,15.1
MinCPULoad,1645797196252000000,US,44.201.37.88,3,44.201.37.88,25.0
MinCPULoad,1645797226252000000,US,44.201.37.88,3,44.201.37.88,56.2
MinCPULoad,1645797256252000000,US,44.201.37.88,3,44.201.37.88,50.0
MinCPULoad,1645797286252000000,US,44.201.37.88,3,44.201.37.88,80.2
MinCPULoad,1645797316252000000,US,44.201.37.88,3,44.201.37.88,10.1
MinCPULoad,1645797346252000000,US,44.201.37.88,3,44.201.37.88,15.1
MinCPULoad,1645797376252000000,US,44.201.37.88,3,44.201.37.88,25.0
MinCPULoad,1645797406252000000,US,44.201.37.88,3,44.201.37.88,56.2
MinCPULoad,1645797436252000000,US,44.201.37.88,3,44.201.37.88,50.0
MinCPULoad,1645797466252000000,US,44.201.37.88,3,44.201.37.88,80.2
MinCPULoad,1645797496252000000,US,44.201.37.88,3,44.201.37.88,10.1
MinCPULoad,1645797526252000000,US,44.201.37.88,3,44.201.37.88,15.1
MinCPULoad,1645797556252000000,US,44.201.37.88,3,44.201.37.88,25.0
MinCPULoad,1645797586252000000,US,44.201.37.88,3,44.201.37.88,56.2
MinCPULoad,1645797616252000000,US,44.201.37.88,3,44.201.37.88,50.0
MinCPULoad,1645797646252000000,US,44.201.37.88,3,44.201.37.88,80.2
MinCPULoad,1645797676252000000,US,44.201.37.88,3,44.201.37.88,10.1
MinCPULoad,1645797706252000000,US,44.201.37.88,3,44.201.37.88,15.1
MinCPULoad,1645797736252000000,US,44.201.37.88,3,44.201.37.88,25.0
MinCPULoad,1645797766252000000,US,44.201.37.88,3,44.201.37.88,56.2
MinCPULoad,1645797796252000000,US,44.201.37.88,3,44.201.37.88,50.0
MinCPULoad,1645797826252000000,US,44.201.37.88,3,44.201.37.88,80.2
MinCPULoad,1645797856252000000,US,44.201.37.88,3,44.201.37.88,10.1
MinCPULoad,1645797886252000000,US,44.201.37.88,3,44.201.37.88,15.1
MinCPULoad,1645797916252000000,US,44.201.37.88,3,44.201.37.88,25.0
MinCPULoad,1645797946252000000,US,44.201.37.88,3,44.201.37.88,56.2
MinCPULoad,1645797976252000000,US,44.201.37.88,3,44.201.37.88,50.0
MinCPULoad,1645798006252000000,US,44.201.37.88,3,44.201.37.88,80.2
MinCPULoad,1645798036252000000,US,44.201.37.88,3,44.201.37.88,10.1
MinCPULoad,1645798066252000000,US,44.201.37.88,3,44.201.37.88,15.1
MinCPULoad,1645798096252000000,US,44.201.37.88,3,44.201.37.88,25.0
MinCPULoad,1645798126252000000,US,44.201.37.88,3,44.201.37.88,56.2
MinCPULoad,1645798156252000000,US,44.201.37.88,3,44.201.37.88,50.0
MinCPULoad,1645798186252000000,US,44.201.37.88,3,44.201.37.88,80.2
MinCPULoad,1645798216252000000,US,44.201.37.88,3,44.201.37.88,10.1
MinCPULoad,1645798246252000000,US,44.201.37.88,3,44.201.37.88,15.1
MinCPULoad,1645798276252000000,US,44.201.37.88,3,44.201.37.88,25.0
MinCPULoad,1645798306252000000,US,44.201.37.88,3,44.201.37.88,56.2
MinCPULoad,1645798336252000000,US,44.201.37.88,3,44.201.37.88,50.0
MinCPULoad,1645798366252000000,US,44.201.37.88,3,44.201.37.88,80.2
MinCPULoad,1645798396252000000,US,44.201.37.88,3,44.201.37.88,10.1
MinCPULoad,1645798426252000000,US,44.201.37.88,3,44.201.37.88,15.1
MinCPULoad,1645798456252000000,US,44.201.37.88,3,44.201.37.88,25.0
MinCPULoad,1645798486252000000,US,44.201.37.88,3,44.201.37.88,56.2
MinCPULoad,1645798516252000000,US,44.201.37.88,3,44.201.37.88,50.0
MinCPULoad,1645798546252000000,US,44.201.37.88,3,44.201.37.88,80.2
MinCPULoad,1645798576252000000,US,44.201.37.88,3,44.201.37.88,10.1
MinCPULoad,1645798606252000000,US,44.201.37.88,3,44.201.37.88,15.1
MinCPULoad,1645798636252000000,US,44.201.37.88,3,44.201.37.88,25.0
MinCPULoad,1645798666252000000,US,44.201.37.88,3,44.201.37.88,56.2
MinCPULoad,1645798696252000000,US,44.201.37.88,3,44.201.37.88,50.0
MinCPULoad,1645798726252000000,US,44.201.37.88,3,44.201.37.88,80.2
