name,time,countryCode,ipAddress,level,producer,value
MinCPULoad,1000000030000000000,US,44.201.37.88,3,44.201.37.88,15.1
MinCPULoad,1000000060000000000,US,44.201.37.88,3,44.201.37.88,15.1
MinCPULoad,1000000090000000000,US,44.201.37.88,3,44.201.37.88,15.1
MinCPULoad,1000000120000000000,US,44.201.37.88,3,44.201.37.88,15.1
MinCPULoad,1000000150000000000,US,44.201.37.88,3,44.201.37.88,15.1
MinCPULoad,1000000180000000000,US,44.201.37.88,3,44.201.37.88,15.1
MinCPULoad,1000000210000000000,US,44.201.37.88,3,44.201.37.88,15.1
MinCPULoad,1000000240000000000,US,44.201.37.88,3,44.201.37.88,15.1
MinCPULoad,1000000270000000000,US,44.201.37.88,3,44.201.37.88,15.1
MinCPULoad,1000000300000000000,US,44.201.37.88,3,44.201.37.88,15.1
MinCPULoad,1000000330000000000,US,44.201.37.88,3,44.201.37.88,15.1
MinCPULoad,1000000360000000000,US,44.201.37.88,3,44.201.37.88,25.0
MinCPULoad,1000000390000000000,US,44.201.37.88,3,44.201.37.88,56.2
MinCPULoad,1000000420000000000,US,44.201.37.88,3,44.201.37.88,50.0
MinCPULoad,1000000450000000000,US,44.201.37.88,3,44.201.37.88,80.2
MinCPULoad,1000000480000000000,US,44.201.37.88,3,44.201.37.88,10.1
MinCPULoad,1000000510000000000,US,44.201.37.88,3,44.201.37.88,15.1
MinCPULoad,1000000540000000000,US,44.201.37.88,3,44.201.37.88,25.0
MinCPULoad,1000000570000000000,US,44.201.37.88,3,44.201.37.88,56.2
MinCPULoad,1000000600000000000,US,44.201.37.88,3,44.201.37.88,50.0
MinCPULoad,1000000630000000000,US,44.201.37.88,3,44.201.37.88,80.2
MinCPULoad,1000000660000000000,US,44.201.37.88,3,44.201.37.88,10.1
MinCPULoad,1000000690000000000,US,44.201.37.88,3,44.201.37.88,15.1
MinCPULoad,1000000720000000000,US,44.201.37.88,3,44.201.37.88,25.0
MinCPULoad,1000000750000000000,US,44.201.37.88,3,44.201.37.88,56.2
MinCPULoad,1000000780000000000,US,44.201.37.88,3,44.201.37.88,50.0
MinCPULoad,1000000810000000000,US,44.201.37.88,3,44.201.37.88,80.2
MinCPULoad,1000000840000000000,US,44.201.37.88,3,44.201.37.88,10.1
MinCPULoad,1000000870000000000,US,44.201.37.88,3,44.201.37.88,15.1
MinCPULoad,1000000900000000000,US,44.201.37.88,3,44.201.37.88,25.0
MinCPULoad,1000000930000000000,US,44.201.37.88,3,44.201.37.88,56.2
MinCPULoad,1000000960000000000,US,44.201.37.88,3,44.201.37.88,50.0
MinCPULoad,1000000990000000000,US,44.201.37.88,3,44.201.37.88,80.2
MinCPULoad,1000001020000000000,US,44.201.37.88,3,44.201.37.88,10.1
MinCPULoad,1000001050000000000,US,44.201.37.88,3,44.201.37.88,15.1
MinCPULoad,1000001080000000000,US,44.201.37.88,3,44.201.37.88,25.0
MinCPULoad,1000001110000000000,US,44.201.37.88,3,44.201.37.88,56.2
MinCPULoad,1000001140000000000,US,44.201.37.88,3,44.201.37.88,50.0
MinCPULoad,1000001170000000000,US,44.201.37.88,3,44.201.37.88,80.2
MinCPULoad,1000001200000000000,US,44.201.37.88,3,44.201.37.88,10.1
MinCPULoad,1000001230000000000,US,44.201.37.88,3,44.201.37.88,15.1
MinCPULoad,1000001260000000000,US,44.201.37.88,3,44.201.37.88,25.0
MinCPULoad,1000001290000000000,US,44.201.37.88,3,44.201.37.88,56.2
MinCPULoad,1000001320000000000,US,44.201.37.88,3,44.201.37.88,50.0
MinCPULoad,1000001350000000000,US,44.201.37.88,3,44.201.37.88,80.2
MinCPULoad,1000001380000000000,US,44.201.37.88,3,44.201.37.88,10.1
MinCPULoad,1000001410000000000,US,44.201.37.88,3,44.201.37.88,15.1
MinCPULoad,1000001440000000000,US,44.201.37.88,3,44.201.37.88,25.0
MinCPULoad,1000001470000000000,US,44.201.37.88,3,44.201.37.88,56.2
MinCPULoad,1000001500000000000,US,44.201.37.88,3,44.201.37.88,50.0
MinCPULoad,1000001530000000000,US,44.201.37.88,3,44.201.37.88,80.2
MinCPULoad,1000001560000000000,US,44.201.37.88,3,44.201.37.88,10.1
MinCPULoad,1000001590000000000,US,44.201.37.88,3,44.201.37.88,15.1
MinCPULoad,1000001620000000000,US,44.201.37.88,3,44.201.37.88,25.0
MinCPULoad,1000001650000000000,US,44.201.37.88,3,44.201.37.88,56.2
MinCPULoad,1000001680000000000,US,44.201.37.88,3,44.201.37.88,50.0
MinCPULoad,1000001710000000000,US,44.201.37.88,3,44.201.37.88,80.2
MinCPULoad,1000001740000000000,US,44.201.37.88,3,44.201.37.88,10.1
MinCPULoad,1000001770000000000,US,44.201.37.88,3,44.201.37.88,15.1
MinCPULoad,1000001800000000000,US,44.201.37.88,3,44.201.37.88,25.0
MinCPULoad,1000001830000000000,US,44.201.37.88,3,44.201.37.88,56.2
MinCPULoad,1000001860000000000,US,44.201.37.88,3,44.201.37.88,50.0
MinCPULoad,1000001890000000000,US,44.201.37.88,3,44.201.37.88,80.2
MinCPULoad,1000001920000000000,US,44.201.37.88,3,44.201.37.88,10.1
MinCPULoad,1000001950000000000,US,44.201.37.88,3,44.201.37.88,15.1
MinCPULoad,1000001980000000000,US,44.201.37.88,3,44.201.37.88,25.0
MinCPULoad,1000002010000000000,US,44.201.37.88,3,44.201.37.88,56.2
MinCPULoad,1000002040000000000,US,44.201.37.88,3,44.201.37.88,50.0
MinCPULoad,1000002070000000000,US,44.201.37.88,3,44.201.37.88,80.2
MinCPULoad,1000002100000000000,US,44.201.37.88,3,44.201.37.88,10.1
MinCPULoad,1000002130000000000,US,44.201.37.88,3,44.201.37.88,15.1
MinCPULoad,1000002160000000000,US,44.201.37.88,3,44.201.37.88,25.0
MinCPULoad,1000002190000000000,US,44.201.37.88,3,44.201.37.88,56.2
MinCPULoad,1000002220000000000,US,44.201.37.88,3,44.201.37.88,50.0
MinCPULoad,1000002250000000000,US,44.201.37.88,3,44.201.37.88,80.2
MinCPULoad,1000002280000000000,US,44.201.37.88,3,44.201.37.88,10.1
MinCPULoad,1000002310000000000,US,44.201.37.88,3,44.201.37.88,15.1
MinCPULoad,1000002340000000000,US,44.201.37.88,3,44.201.37.88,25.0
MinCPULoad,1000002370000000000,US,44.201.37.88,3,44.201.37.88,56.2
MinCPULoad,1000002400000000000,US,44.201.37.88,3,44.201.37.88,50.0
MinCPULoad,1000002430000000000,US,44.201.37.88,3,44.201.37.88,80.2
MinCPULoad,1000002460000000000,US,44.201.37.88,3,44.201.37.88,10.1
MinCPULoad,1000002490000000000,US,44.201.37.88,3,44.201.37.88,15.1
MinCPULoad,1000002520000000000,US,44.201.37.88,3,44.201.37.88,25.0
MinCPULoad,1000002550000000000,US,44.201.37.88,3,44.201.37.88,56.2
MinCPULoad,1000002580000000000,US,44.201.37.88,3,44.201.37.88,50.0
MinCPULoad,1000002610000000000,US,44.201.37.88,3,44.201.37.88,80.2
MinCPULoad,1000002640000000000,US,44.201.37.88,3,44.201.37.88,10.1
MinCPULoad,1000002670000000000,US,44.201.37.88,3,44.201.37.88,15.1
MinCPULoad,1000002700000000000,US,44.201.37.88,3,44.201.37.88,25.0
MinCPULoad,1000002730000000000,US,44.201.37.88,3,44.201.37.88,56.2
MinCPULoad,1000002760000000000,US,44.201.37.88,3,44.201.37.88,50.0
MinCPULoad,1000002790000000000,US,44.201.37.88,3,44.201.37.88,80.2
MinCPULoad,1000002820000000000,US,44.201.37.88,3,44.201.37.88,10.1
MinCPULoad,1000002850000000000,US,44.201.37.88,3,44.201.37.88,15.1
MinCPULoad,1000002880000000000,US,44.201.37.88,3,44.201.37.88,25.0
MinCPULoad,1000002910000000000,US,44.201.37.88,3,44.201.37.88,56.2
MinCPULoad,1000002940000000000,US,44.201.37.88,3,44.201.37.88,50.0
MinCPULoad,1000002970000000000,US,44.201.37.88,3,44.201.37.88,80.2
MinCPULoad,1000003000000000000,US,44.201.37.88,3,44.201.37.88,10.1
MinCPULoad,1000003030000000000,US,44.201.37.88,3,44.201.37.88,15.1
MinCPULoad,1000003060000000000,US,44.201.37.88,3,44.201.37.88,25.0
MinCPULoad,1000003090000000000,US,44.201.37.88,3,44.201.37.88,56.2
MinCPULoad,1000003120000000000,US,44.201.37.88,3,44.201.37.88,50.0
MinCPULoad,1000003150000000000,US,44.201.37.88,3,44.201.37.88,80.2
MinCPULoad,1000003180000000000,US,44.201.37.88,3,44.201.37.88,10.1
MinCPULoad,1000003210000000000,US,44.201.37.88,3,44.201.37.88,15.1
MinCPULoad,1000003240000000000,US,44.201.37.88,3,44.201.37.88,25.0
MinCPULoad,1000003270000000000,US,44.201.37.88,3,44.201.37.88,56.2
MinCPULoad,1000003300000000000,US,44.201.37.88,3,44.201.37.88,50.0
MinCPULoad,1000003330000000000,US,44.201.37.88,3,44.201.37.88,80.2
MinCPULoad,1000003360000000000,US,44.201.37.88,3,44.201.37.88,10.1
MinCPULoad,1000003390000000000,US,44.201.37.88,3,44.201.37.88,15.1
MinCPULoad,1000003420000000000,US,44.201.37.88,3,44.201.37.88,25.0
MinCPULoad,1000003450000000000,US,44.201.37.88,3,44.201.37.88,56.2
MinCPULoad,1000003480000000000,US,44.201.37.88,3,44.201.37.88,50.0
MinCPULoad,1000003510000000000,US,44.201.37.88,3,44.201.37.88,80.2
MinCPULoad,1000003540000000000,US,44.201.37.88,3,44.201.37.88,10.1
MinCPULoad,1000003570000000000,US,44.201.37.88,3,44.201.37.88,15.1
MinCPULoad,1000003600000000000,US,44.201.37.88,3,44.201.37.88,25.0
MinCPULoad,1000003630000000000,US,44.201.37.88,3,44.201.37.88,56.2
MinCPULoad,1000003660000000000,US,44.201.37.88,3,44.201.37.88,50.0
MinCPULoad,1000003690000000000,US,44.201.37.88,3,44.201.37.88,80.2
MinCPULoad,1000003720000000000,US,44.201.37.88,3,44.201.37.88,10.1
MinCPULoad,1000003750000000000,US,44.201.37.88,3,44.201.37.88,15.1
MinCPULoad,1000003780000000000,US,44.201.37.88,3,44.201.37.88,25.0
MinCPULoad,1000003810000000000,US,44.201.37.88,3,44.201.37.88,56.2
MinCPULoad,1000003840000000000,US,44.201.37.88,3,44.201.37.88,50.0
MinCPULoad,1000003870000000000,US,44.201.37.88,3,44.201.37.88,80.2
MinCPULoad,1000003900000000000,US,44.201.37.88,3,44.201.37.88,10.1
MinCPULoad,1000003930000000000,US,44.201.37.88,3,44.201.37.88,15.1
MinCPULoad,1000003960000000000,US,44.201.37.88,3,44.201.37.88,25.0
MinCPULoad,1000003990000000000,US,44.201.37.88,3,44.201.37.88,56.2
MinCPULoad,1000004020000000000,US,44.201.37.88,3,44.201.37.88,50.0
MinCPULoad,1000004050000000000,US,44.201.37.88,3,44.201.37.88,80.2
MinCPULoad,1000004080000000000,US,44.201.37.88,3,44.201.37.88,10.1
MinCPULoad,1000004110000000000,US,44.201.37.88,3,44.201.37.88,15.1
MinCPULoad,1000004140000000000,US,44.201.37.88,3,44.201.37.88,25.0
MinCPULoad,1000004170000000000,US,44.201.37.88,3,44.201.37.88,56.2
MinCPULoad,1000004200000000000,US,44.201.37.88,3,44.201.37.88,50.0
MinCPULoad,1000004230000000000,US,44.201.37.88,3,44.201.37.88,80.2
MinCPULoad,1000004260000000000,US,44.201.37.88,3,44.201.37.88,10.1
MinCPULoad,1000004290000000000,US,44.201.37.88,3,44.201.37.88,15.1
MinCPULoad,1000004320000000000,US,44.201.37.88,3,44.201.37.88,25.0
MinCPULoad,1000004350000000000,US,44.201.37.88,3,44.201.37.88,56.2
MinCPULoad,1000004380000000000,US,44.201.37.88,3,44.201.37.88,50.0
MinCPULoad,1000004410000000000,US,44.201.37.88,3,44.201.37.88,80.2
MinCPULoad,1000004440000000000,US,44.201.37.88,3,44.201.37.88,10.1
MinCPULoad,1000004470000000000,US,44.201.37.88,3,44.201.37.88,15.1
MinCPULoad,1000004500000000000,US,44.201.37.88,3,44.201.37.88,25.0
MinCPULoad,2000000030000000000,US,44.201.37.88,3,44.201.37.88,56.2
MinCPULoad,2000000060000000000,US,44.201.37.88,3,44.201.37.88,50.0
MinCPULoad,2000000090000000000,US,44.201.37.88,3,44.201.37.88,80.2
MinCPULoad,2000000120000000000,US,44.201.37.88,3,44.201.37.88,10.1
MinCPULoad,2000000150000000000,US,44.201.37.88,3,44.201.37.88,15.1
MinCPULoad,2000000180000000000,US,44.201.37.88,3,44.201.37.88,25.0
MinCPULoad,2000000210000000000,US,44.201.37.88,3,44.201.37.88,56.2
MinCPULoad,2000000240000000000,US,44.201.37.88,3,44.201.37.88,50.0
MinCPULoad,2000000270000000000,US,44.201.37.88,3,44.201.37.88,80.2
MinCPULoad,2000000300000000000,US,44.201.37.88,3,44.201.37.88,10.1
MinCPULoad,2000000330000000000,US,44.201.37.88,3,44.201.37.88,15.1
MinCPULoad,2000000360000000000,US,44.201.37.88,3,44.201.37.88,25.0
MinCPULoad,2000000390000000000,US,44.201.37.88,3,44.201.37.88,56.2
MinCPULoad,2000000420000000000,US,44.201.37.88,3,44.201.37.88,50.0
MinCPULoad,2000000450000000000,US,44.201.37.88,3,44.201.37.88,80.2
MinCPULoad,2000000480000000000,US,44.201.37.88,3,44.201.37.88,10.1
MinCPULoad,2000000510000000000,US,44.201.37.88,3,44.201.37.88,15.1
MinCPULoad,2000000540000000000,US,44.201.37.88,3,44.201.37.88,25.0
MinCPULoad,2000000570000000000,US,44.201.37.88,3,44.201.37.88,56.2
MinCPULoad,2000000600000000000,US,44.201.37.88,3,44.201.37.88,50.0
MinCPULoad,2000000630000000000,US,44.201.37.88,3,44.201.37.88,80.2
MinCPULoad,2000000660000000000,US,44.201.37.88,3,44.201.37.88,10.1
MinCPULoad,2000000690000000000,US,44.201.37.88,3,44.201.37.88,15.1
MinCPULoad,2000000720000000000,US,44.201.37.88,3,44.201.37.88,25.0
MinCPULoad,2000000750000000000,US,44.201.37.88,3,44.201.37.88,56.2
MinCPULoad,2000000780000000000,US,44.201.37.88,3,44.201.37.88,50.0
MinCPULoad,2000000810000000000,US,44.201.37.88,3,44.201.37.88,80.2
MinCPULoad,2000000840000000000,US,44.201.37.88,3,44.201.37.88,10.1
MinCPULoad,2000000870000000000,US,44.201.37.88,3,44.201.37.88,15.1
MinCPULoad,2000000900000000000,US,44.201.37.88,3,44.201.37.88,25.0
MinCPULoad,2000000930000000000,US,44.201.37.88,3,44.201.37.88,56.2
MinCPULoad,2000000960000000000,US,44.201.37.88,3,44.201.37.88,50.0
MinCPULoad,2000000990000000000,US,44.201.37.88,3,44.201.37.88,80.2
MinCPULoad,2000001020000000000,US,44.201.37.88,3,44.201.37.88,10.1
MinCPULoad,2000001050000000000,US,44.201.37.88,3,44.201.37.88,15.1
MinCPULoad,2000001080000000000,US,44.201.37.88,3,44.201.37.88,25.0
MinCPULoad,2000001110000000000,US,44.201.37.88,3,44.201.37.88,56.2
MinCPULoad,2000001140000000000,US,44.201.37.88,3,44.201.37.88,50.0
MinCPULoad,2000001170000000000,US,44.201.37.88,3,44.201.37.88,80.2
MinCPULoad,2000001200000000000,US,44.201.37.88,3,44.201.37.88,10.1
MinCPULoad,2000001230000000000,US,44.201.37.88,3,44.201.37.88,15.1
MinCPULoad,2000001260000000000,US,44.201.37.88,3,44.201.37.88,25.0
MinCPULoad,2000001290000000000,US,44.201.37.88,3,44.201.37.88,56.2
MinCPULoad,2000001320000000000,US,44.201.37.88,3,44.201.37.88,50.0
MinCPULoad,2000001350000000000,US,44.201.37.88,3,44.201.37.88,80.2
MinCPULoad,2000001380000000000,US,44.201.37.88,3,44.201.37.88,10.1
MinCPULoad,2000001410000000000,US,44.201.37.88,3,44.201.37.88,15.1
MinCPULoad,2000001440000000000,US,44.201.37.88,3,44.201.37.88,25.0
MinCPULoad,2000001470000000000,US,44.201.37.88,3,44.201.37.88,56.2
MinCPULoad,2000001500000000000,US,44.201.37.88,3,44.201.37.88,50.0
MinCPULoad,2000001530000000000,US,44.201.37.88,3,44.201.37.88,80.2
MinCPULoad,2000001560000000000,US,44.201.37.88,3,44.201.37.88,10.1
MinCPULoad,2000001590000000000,US,44.201.37.88,3,44.201.37.88,15.1
MinCPULoad,2000001620000000000,US,44.201.37.88,3,44.201.37.88,25.0
MinCPULoad,2000001650000000000,US,44.201.37.88,3,44.201.37.88,56.2
MinCPULoad,2000001680000000000,US,44.201.37.88,3,44.201.37.88,50.0
MinCPULoad,2000001710000000000,US,44.201.37.88,3,44.201.37.88,80.2
MinCPULoad,2000001740000000000,US,44.201.37.88,3,44.201.37.88,10.1
MinCPULoad,2000001770000000000,US,44.201.37.88,3,44.201.37.88,15.1
MinCPULoad,2000001800000000000,US,44.201.37.88,3,44.201.37.88,25.0
MinCPULoad,2000001830000000000,US,44.201.37.88,3,44.201.37.88,56.2
MinCPULoad,2000001860000000000,US,44.201.37.88,3,44.201.37.88,50.0
MinCPULoad,2000001890000000000,US,44.201.37.88,3,44.201.37.88,80.2
MinCPULoad,2000001920000000000,US,44.201.37.88,3,44.201.37.88,10.1
MinCPULoad,2000001950000000000,US,44.201.37.88,3,44.201.37.88,15.1
MinCPULoad,2000001980000000000,US,44.201.37.88,3,44.201.37.88,25.0
MinCPULoad,2000002010000000000,US,44.201.37.88,3,44.201.37.88,56.2
MinCPULoad,2000002040000000000,US,44.201.37.88,3,44.201.37.88,50.0
MinCPULoad,2000002070000000000,US,44.201.37.88,3,44.201.37.88,80.2
MinCPULoad,2000002100000000000,US,44.201.37.88,3,44.201.37.88,10.1
MinCPULoad,2000002130000000000,US,44.201.37.88,3,44.201.37.88,15.1
MinCPULoad,2000002160000000000,US,44.201.37.88,3,44.201.37.88,25.0
MinCPULoad,2000002190000000000,US,44.201.37.88,3,44.201.37.88,56.2
MinCPULoad,2000002220000000000,US,44.201.37.88,3,44.201.37.88,50.0
MinCPULoad,2000002250000000000,US,44.201.37.88,3,44.201.37.88,80.2
MinCPULoad,2000002280000000000,US,44.201.37.88,3,44.201.37.88,10.1
MinCPULoad,2000002310000000000,US,44.201.37.88,3,44.201.37.88,15.1
MinCPULoad,2000002340000000000,US,44.201.37.88,3,44.201.37.88,25.0
MinCPULoad,2000002370000000000,US,44.201.37.88,3,44.201.37.88,56.2
MinCPULoad,2000002400000000000,US,44.201.37.88,3,44.201.37.88,50.0
MinCPULoad,2000002430000000000,US,44.201.37.88,3,44.201.37.88,80.2
MinCPULoad,2000002460000000000,US,44.201.37.88,3,44.201.37.88,10.1
MinCPULoad,2000002490000000000,US,44.201.37.88,3,44.201.37.88,15.1
MinCPULoad,2000002520000000000,US,44.201.37.88,3,44.201.37.88,25.0
MinCPULoad,2000002550000000000,US,44.201.37.88,3,44.201.37.88,56.2
MinCPULoad,2000002580000000000,US,44.201.37.88,3,44.201.37.88,50.0
MinCPULoad,2000002610000000000,US,44.201.37.88,3,44.201.37.88,80.2
MinCPULoad,2000002640000000000,US,44.201.37.88,3,44.201.37.88,10.1
MinCPULoad,2000002670000000000,US,44.201.37.88,3,44.201.37.88,15.1
MinCPULoad,2000002700000000000,US,44.201.37.88,3,44.201.37.88,25.0
MinCPULoad,2000002730000000000,US,44.201.37.88,3,44.201.37.88,56.2
MinCPULoad,2000002760000000000,US,44.201.37.88,3,44.201.37.88,50.0
MinCPULoad,2000002790000000000,US,44.201.37.88,3,44.201.37.88,80.2
MinCPULoad,2000002820000000000,US,44.201.37.88,3,44.201.37.88,10.1
MinCPULoad,2000002850000000000,US,44.201.37.88,3,44.201.37.88,15.1
MinCPULoad,2000002880000000000,US,44.201.37.88,3,44.201.37.88,25.0
MinCPULoad,2000002910000000000,US,44.201.37.88,3,44.201.37.88,56.2
MinCPULoad,2000002940000000000,US,44.201.37.88,3,44.201.37.88,50.0
MinCPULoad,2000002970000000000,US,44.201.37.88,3,44.201.37.88,80.2
MinCPULoad,2000003000000000000,US,44.201.37.88,3,44.201.37.88,10.1
MinCPULoad,2000003030000000000,US,44.201.37.88,3,44.201.37.88,15.1
MinCPULoad,2000003060000000000,US,44.201.37.88,3,44.201.37.88,25.0
MinCPULoad,2000003090000000000,US,44.201.37.88,3,44.201.37.88,56.2
MinCPULoad,2000003120000000000,US,44.201.37.88,3,44.201.37.88,50.0
MinCPULoad,2000003150000000000,US,44.201.37.88,3,44.201.37.88,80.2
MinCPULoad,2000003180000000000,US,44.201.37.88,3,44.201.37.88,10.1
MinCPULoad,2000003210000000000,US,44.201.37.88,3,44.201.37.88,15.1
MinCPULoad,2000003240000000000,US,44.201.37.88,3,44.201.37.88,25.0
MinCPULoad,2000003270000000000,US,44.201.37.88,3,44.201.37.88,56.2
MinCPULoad,2000003300000000000,US,44.201.37.88,3,44.201.37.88,50.0
MinCPULoad,2000003330000000000,US,44.201.37.88,3,44.201.37.88,80.2
MinCPULoad,2000003360000000000,US,44.201.37.88,3,44.201.37.88,10.1
MinCPULoad,2000003390000000000,US,44.201.37.88,3,44.201.37.88,15.1
MinCPULoad,2000003420000000000,US,44.201.37.88,3,44.201.37.88,25.0
MinCPULoad,2000003450000000000,US,44.201.37.88,3,44.201.37.88,56.2
MinCPULoad,2000003480000000000,US,44.201.37.88,3,44.201.37.88,50.0
MinCPULoad,2000003510000000000,US,44.201.37.88,3,44.201.37.88,80.2
MinCPULoad,2000003540000000000,US,44.201.37.88,3,44.201.37.88,10.1
MinCPULoad,2000003570000000000,US,44.201.37.88,3,44.201.37.88,15.1
MinCPULoad,2000003600000000000,US,44.201.37.88,3,44.201.37.88,25.0
MinCPULoad,2000003630000000000,US,44.201.37.88,3,44.201.37.88,56.2
MinCPULoad,2000003660000000000,US,44.201.37.88,3,44.201.37.88,50.0
MinCPULoad,2000003690000000000,US,44.201.37.88,3,44.201.37.88,80.2
MinCPULoad,2000003720000000000,US,44.201.37.88,3,44.201.37.88,10.1
MinCPULoad,2000003750000000000,US,44.201.37.88,3,44.201.37.88,15.1
MinCPULoad,2000003780000000000,US,44.201.37.88,3,44.201.37.88,25.0
MinCPULoad,2000003810000000000,US,44.201.37.88,3,44.201.37.88,56.2
MinCPULoad,2000003840000000000,US,44.201.37.88,3,44.201.37.88,50.0
MinCPULoad,2000003870000000000,US,44.201.37.88,3,44.201.37.88,80.2
MinCPULoad,2000003900000000000,US,44.201.37.88,3,44.201.37.88,10.1
MinCPULoad,2000003930000000000,US,44.201.37.88,3,44.201.37.88,15.1
MinCPULoad,2000003960000000000,US,44.201.37.88,3,44.201.37.88,25.0
MinCPULoad,2000003990000000000,US,44.201.37.88,3,44.201.37.88,56.2
MinCPULoad,2000004020000000000,US,44.201.37.88,3,44.201.37.88,50.0
MinCPULoad,2000004050000000000,US,44.201.37.88,3,44.201.37.88,80.2
MinCPULoad,2000004080000000000,US,44.201.37.88,3,44.201.37.88,10.1
MinCPULoad,2000004110000000000,US,44.201.37.88,3,44.201.37.88,15.1
MinCPULoad,2000004140000000000,US,44.201.37.88,3,44.201.37.88,25.0
MinCPULoad,2000004170000000000,US,44.201.37.88,3,44.201.37.88,56.2
MinCPULoad,2000004200000000000,US,44.201.37.88,3,44.201.37.88,50.0
MinCPULoad,2000004230000000000,US,44.201.37.88,3,44.201.37.88,80.2
MinCPULoad,2000004260000000000,US,44.201.37.88,3,44.201.37.88,10.1
MinCPULoad,2000004290000000000,US,44.201.37.88,3,44.201.37.88,15.1
MinCPULoad,2000004320000000000,US,44.201.37.88,3,44.201.37.88,25.0
MinCPULoad,2000004350000000000,US,44.201.37.88,3,44.201.37.88,56.2
MinCPULoad,2000004380000000000,US,44.201.37.88,3,44.201.37.88,50.0
MinCPULoad,2000004410000000000,US,44.201.37.88,3,44.201.37.88,80.2
MinCPULoad,2000004440000000000,US,44.201.37.88,3,44.201.37.88,10.1
MinCPULoad,2000004470000000000,US,44.201.37.88,3,44.201.37.88,15.1
MinCPULoad,2000004500000000000,US,44.201.37.88,3,44.201.37.88,25.0
MinCPULoad,3000000030000000000,US,44.201.37.88,3,44.201.37.88,56.2
MinCPULoad,3000000060000000000,US,44.201.37.88,3,44.201.37.88,50.0
MinCPULoad,3000000090000000000,US,44.201.37.88,3,44.201.37.88,80.2
MinCPULoad,3000000120000000000,US,44.201.37.88,3,44.201.37.88,10.1
MinCPULoad,3000000150000000000,US,44.201.37.88,3,44.201.37.88,15.1
MinCPULoad,3000000180000000000,US,44.201.37.88,3,44.201.37.88,25.0
MinCPULoad,3000000210000000000,US,44.201.37.88,3,44.201.37.88,56.2
MinCPULoad,3000000240000000000,US,44.201.37.88,3,44.201.37.88,50.0
MinCPULoad,3000000270000000000,US,44.201.37.88,3,44.201.37.88,80.2
MinCPULoad,3000000300000000000,US,44.201.37.88,3,44.201.37.88,10.1
MinCPULoad,3000000330000000000,US,44.201.37.88,3,44.201.37.88,15.1
MinCPULoad,3000000360000000000,US,44.201.37.88,3,44.201.37.88,25.0
MinCPULoad,3000000390000000000,US,44.201.37.88,3,44.201.37.88,56.2
MinCPULoad,3000000420000000000,US,44.201.37.88,3,44.201.37.88,50.0
MinCPULoad,3000000450000000000,US,44.201.37.88,3,44.201.37.88,80.2
MinCPULoad,3000000480000000000,US,44.201.37.88,3,44.201.37.88,10.1
MinCPULoad,3000000510000000000,US,44.201.37.88,3,44.201.37.88,15.1
MinCPULoad,3000000540000000000,US,44.201.37.88,3,44.201.37.88,25.0
MinCPULoad,3000000570000000000,US,44.201.37.88,3,44.201.37.88,56.2
MinCPULoad,3000000600000000000,US,44.201.37.88,3,44.201.37.88,50.0
MinCPULoad,3000000630000000000,US,44.201.37.88,3,44.201.37.88,80.2
MinCPULoad,3000000660000000000,US,44.201.37.88,3,44.201.37.88,10.1
MinCPULoad,3000000690000000000,US,44.201.37.88,3,44.201.37.88,15.1
MinCPULoad,3000000720000000000,US,44.201.37.88,3,44.201.37.88,25.0
MinCPULoad,3000000750000000000,US,44.201.37.88,3,44.201.37.88,56.2
MinCPULoad,3000000780000000000,US,44.201.37.88,3,44.201.37.88,50.0
MinCPULoad,3000000810000000000,US,44.201.37.88,3,44.201.37.88,80.2
MinCPULoad,3000000840000000000,US,44.201.37.88,3,44.201.37.88,10.1
MinCPULoad,3000000870000000000,US,44.201.37.88,3,44.201.37.88,15.1
MinCPULoad,3000000900000000000,US,44.201.37.88,3,44.201.37.88,25.0
MinCPULoad,3000000930000000000,US,44.201.37.88,3,44.201.37.88,56.2
MinCPULoad,3000000960000000000,US,44.201.37.88,3,44.201.37.88,50.0
MinCPULoad,3000000990000000000,US,44.201.37.88,3,44.201.37.88,80.2
MinCPULoad,3000001020000000000,US,44.201.37.88,3,44.201.37.88,10.1
MinCPULoad,3000001050000000000,US,44.201.37.88,3,44.201.37.88,15.1
MinCPULoad,3000001080000000000,US,44.201.37.88,3,44.201.37.88,25.0
MinCPULoad,3000001110000000000,US,44.201.37.88,3,44.201.37.88,56.2
MinCPULoad,3000001140000000000,US,44.201.37.88,3,44.201.37.88,50.0
MinCPULoad,3000001170000000000,US,44.201.37.88,3,44.201.37.88,80.2
MinCPULoad,3000001200000000000,US,44.201.37.88,3,44.201.37.88,10.1
MinCPULoad,3000001230000000000,US,44.201.37.88,3,44.201.37.88,15.1
MinCPULoad,3000001260000000000,US,44.201.37.88,3,44.201.37.88,25.0
MinCPULoad,3000001290000000000,US,44.201.37.88,3,44.201.37.88,56.2
MinCPULoad,3000001320000000000,US,44.201.37.88,3,44.201.37.88,50.0
MinCPULoad,3000001350000000000,US,44.201.37.88,3,44.201.37.88,80.2
MinCPULoad,3000001380000000000,US,44.201.37.88,3,44.201.37.88,10.1
MinCPULoad,3000001410000000000,US,44.201.37.88,3,44.201.37.88,15.1
MinCPULoad,3000001440000000000,US,44.201.37.88,3,44.201.37.88,25.0
MinCPULoad,3000001470000000000,US,44.201.37.88,3,44.201.37.88,56.2
MinCPULoad,3000001500000000000,US,44.201.37.88,3,44.201.37.88,50.0
MinCPULoad,3000001530000000000,US,44.201.37.88,3,44.201.37.88,80.2
MinCPULoad,3000001560000000000,US,44.201.37.88,3,44.201.37.88,10.1
MinCPULoad,3000001590000000000,US,44.201.37.88,3,44.201.37.88,15.1
MinCPULoad,3000001620000000000,US,44.201.37.88,3,44.201.37.88,25.0
MinCPULoad,3000001650000000000,US,44.201.37.88,3,44.201.37.88,56.2
MinCPULoad,3000001680000000000,US,44.201.37.88,3,44.201.37.88,50.0
MinCPULoad,3000001710000000000,US,44.201.37.88,3,44.201.37.88,80.2
MinCPULoad,3000001740000000000,US,44.201.37.88,3,44.201.37.88,10.1
MinCPULoad,3000001770000000000,US,44.201.37.88,3,44.201.37.88,15.1
MinCPULoad,3000001800000000000,US,44.201.37.88,3,44.201.37.88,25.0
MinCPULoad,3000001830000000000,US,44.201.37.88,3,44.201.37.88,56.2
MinCPULoad,3000001860000000000,US,44.201.37.88,3,44.201.37.88,50.0
MinCPULoad,3000001890000000000,US,44.201.37.88,3,44.201.37.88,80.2
MinCPULoad,3000001920000000000,US,44.201.37.88,3,44.201.37.88,10.1
MinCPULoad,3000001950000000000,US,44.201.37.88,3,44.201.37.88,15.1
MinCPULoad,3000001980000000000,US,44.201.37.88,3,44.201.37.88,25.0
MinCPULoad,3000002010000000000,US,44.201.37.88,3,44.201.37.88,56.2
MinCPULoad,3000002040000000000,US,44.201.37.88,3,44.201.37.88,50.0
MinCPULoad,3000002070000000000,US,44.201.37.88,3,44.201.37.88,80.2
MinCPULoad,3000002100000000000,US,44.201.37.88,3,44.201.37.88,10.1
MinCPULoad,3000002130000000000,US,44.201.37.88,3,44.201.37.88,15.1
MinCPULoad,3000002160000000000,US,44.201.37.88,3,44.201.37.88,25.0
MinCPULoad,3000002190000000000,US,44.201.37.88,3,44.201.37.88,56.2
MinCPULoad,3000002220000000000,US,44.201.37.88,3,44.201.37.88,50.0
MinCPULoad,3000002250000000000,US,44.201.37.88,3,44.201.37.88,80.2
MinCPULoad,3000002280000000000,US,44.201.37.88,3,44.201.37.88,10.1
MinCPULoad,3000002310000000000,US,44.201.37.88,3,44.201.37.88,15.1
MinCPULoad,3000002340000000000,US,44.201.37.88,3,44.201.37.88,25.0
MinCPULoad,3000002370000000000,US,44.201.37.88,3,44.201.37.88,56.2
MinCPULoad,3000002400000000000,US,44.201.37.88,3,44.201.37.88,50.0
MinCPULoad,3000002430000000000,US,44.201.37.88,3,44.201.37.88,80.2
MinCPULoad,3000002460000000000,US,44.201.37.88,3,44.201.37.88,10.1
MinCPULoad,3000002490000000000,US,44.201.37.88,3,44.201.37.88,15.1
MinCPULoad,3000002520000000000,US,44.201.37.88,3,44.201.37.88,25.0
MinCPULoad,3000002550000000000,US,44.201.37.88,3,44.201.37.88,56.2
MinCPULoad,3000002580000000000,US,44.201.37.88,3,44.201.37.88,50.0
MinCPULoad,3000002610000000000,US,44.201.37.88,3,44.201.37.88,80.2
MinCPULoad,3000002640000000000,US,44.201.37.88,3,44.201.37.88,10.1
MinCPULoad,3000002670000000000,US,44.201.37.88,3,44.201.37.88,15.1
MinCPULoad,3000002700000000000,US,44.201.37.88,3,44.201.37.88,25.0
MinCPULoad,3000002730000000000,US,44.201.37.88,3,44.201.37.88,56.2
MinCPULoad,3000002760000000000,US,44.201.37.88,3,44.201.37.88,50.0
MinCPULoad,3000002790000000000,US,44.201.37.88,3,44.201.37.88,80.2
MinCPULoad,3000002820000000000,US,44.201.37.88,3,44.201.37.88,10.1
MinCPULoad,3000002850000000000,US,44.201.37.88,3,44.201.37.88,15.1
MinCPULoad,3000002880000000000,US,44.201.37.88,3,44.201.37.88,25.0
MinCPULoad,3000002910000000000,US,44.201.37.88,3,44.201.37.88,56.2
MinCPULoad,3000002940000000000,US,44.201.37.88,3,44.201.37.88,50.0
MinCPULoad,3000002970000000000,US,44.201.37.88,3,44.201.37.88,80.2
MinCPULoad,3000003000000000000,US,44.201.37.88,3,44.201.37.88,10.1
MinCPULoad,3000003030000000000,US,44.201.37.88,3,44.201.37.88,15.1
MinCPULoad,3000003060000000000,US,44.201.37.88,3,44.201.37.88,25.0
MinCPULoad,3000003090000000000,US,44.201.37.88,3,44.201.37.88,56.2
MinCPULoad,3000003120000000000,US,44.201.37.88,3,44.201.37.88,50.0
MinCPULoad,3000003150000000000,US,44.201.37.88,3,44.201.37.88,80.2
MinCPULoad,3000003180000000000,US,44.201.37.88,3,44.201.37.88,10.1
MinCPULoad,3000003210000000000,US,44.201.37.88,3,44.201.37.88,15.1
MinCPULoad,3000003240000000000,US,44.201.37.88,3,44.201.37.88,25.0
MinCPULoad,3000003270000000000,US,44.201.37.88,3,44.201.37.88,56.2
MinCPULoad,3000003300000000000,US,44.201.37.88,3,44.201.37.88,50.0
MinCPULoad,3000003330000000000,US,44.201.37.88,3,44.201.37.88,80.2
MinCPULoad,3000003360000000000,US,44.201.37.88,3,44.201.37.88,10.1
MinCPULoad,3000003390000000000,US,44.201.37.88,3,44.201.37.88,15.1
MinCPULoad,3000003420000000000,US,44.201.37.88,3,44.201.37.88,25.0
MinCPULoad,3000003450000000000,US,44.201.37.88,3,44.201.37.88,56.2
MinCPULoad,3000003480000000000,US,44.201.37.88,3,44.201.37.88,50.0
MinCPULoad,3000003510000000000,US,44.201.37.88,3,44.201.37.88,80.2
MinCPULoad,3000003540000000000,US,44.201.37.88,3,44.201.37.88,10.1
MinCPULoad,3000003570000000000,US,44.201.37.88,3,44.201.37.88,15.1
MinCPULoad,3000003600000000000,US,44.201.37.88,3,44.201.37.88,25.0
MinCPULoad,3000003630000000000,US,44.201.37.88,3,44.201.37.88,56.2
MinCPULoad,3000003660000000000,US,44.201.37.88,3,44.201.37.88,50.0
MinCPULoad,3000003690000000000,US,44.201.37.88,3,44.201.37.88,80.2
MinCPULoad,3000003720000000000,US,44.201.37.88,3,44.201.37.88,10.1
MinCPULoad,3000003750000000000,US,44.201.37.88,3,44.201.37.88,15.1
MinCPULoad,3000003780000000000,US,44.201.37.88,3,44.201.37.88,25.0
MinCPULoad,3000003810000000000,US,44.201.37.88,3,44.201.37.88,56.2
MinCPULoad,3000003840000000000,US,44.201.37.88,3,44.201.37.88,50.0
MinCPULoad,3000003870000000000,US,44.201.37.88,3,44.201.37.88,80.2
MinCPULoad,3000003900000000000,US,44.201.37.88,3,44.201.37.88,10.1
MinCPULoad,3000003930000000000,US,44.201.37.88,3,44.201.37.88,15.1
MinCPULoad,3000003960000000000,US,44.201.37.88,3,44.201.37.88,25.0
MinCPULoad,3000003990000000000,US,44.201.37.88,3,44.201.37.88,56.2
MinCPULoad,3000004020000000000,US,44.201.37.88,3,44.201.37.88,50.0
MinCPULoad,3000004050000000000,US,44.201.37.88,3,44.201.37.88,80.2
MinCPULoad,3000004080000000000,US,44.201.37.88,3,44.201.37.88,10.1
MinCPULoad,3000004110000000000,US,44.201.37.88,3,44.201.37.88,15.1
MinCPULoad,3000004140000000000,US,44.201.37.88,3,44.201.37.88,25.0
MinCPULoad,3000004170000000000,US,44.201.37.88,3,44.201.37.88,56.2
MinCPULoad,3000004200000000000,US,44.201.37.88,3,44.201.37.88,50.0
MinCPULoad,3000004230000000000,US,44.201.37.88,3,44.201.37.88,80.2
MinCPULoad,3000004260000000000,US,44.201.37.88,3,44.201.37.88,10.1
MinCPULoad,3000004290000000000,US,44.201.37.88,3,44.201.37.88,15.1
MinCPULoad,3000004320000000000,US,44.201.37.88,3,44.201.37.88,25.0
MinCPULoad,3000004350000000000,US,44.201.37.88,3,44.201.37.88,56.2
MinCPULoad,3000004380000000000,US,44.201.37.88,3,44.201.37.88,50.0
MinCPULoad,3000004410000000000,US,44.201.37.88,3,44.201.37.88,80.2
MinCPULoad,3000004440000000000,US,44.201.37.88,3,44.201.37.88,10.1
MinCPULoad,3000004470000000000,US,44.201.37.88,3,44.201.37.88,15.1
MinCPULoad,3000004500000000000,US,44.201.37.88,3,44.201.37.88,25.0
MinCPULoad,4000000030000000000,US,44.201.37.88,3,44.201.37.88,56.2
MinCPULoad,4000000060000000000,US,44.201.37.88,3,44.201.37.88,50.0
MinCPULoad,4000000090000000000,US,44.201.37.88,3,44.201.37.88,80.2
MinCPULoad,4000000120000000000,US,44.201.37.88,3,44.201.37.88,10.1
MinCPULoad,4000000150000000000,US,44.201.37.88,3,44.201.37.88,15.1
MinCPULoad,4000000180000000000,US,44.201.37.88,3,44.201.37.88,25.0
MinCPULoad,4000000210000000000,US,44.201.37.88,3,44.201.37.88,56.2
MinCPULoad,4000000240000000000,US,44.201.37.88,3,44.201.37.88,50.0
MinCPULoad,4000000270000000000,US,44.201.37.88,3,44.201.37.88,80.2
MinCPULoad,4000000300000000000,US,44.201.37.88,3,44.201.37.88,10.1
MinCPULoad,4000000330000000000,US,44.201.37.88,3,44.201.37.88,15.1
MinCPULoad,4000000360000000000,US,44.201.37.88,3,44.201.37.88,25.0
MinCPULoad,4000000390000000000,US,44.201.37.88,3,44.201.37.88,56.2
MinCPULoad,4000000420000000000,US,44.201.37.88,3,44.201.37.88,50.0
MinCPULoad,4000000450000000000,US,44.201.37.88,3,44.201.37.88,80.2
MinCPULoad,4000000480000000000,US,44.201.37.88,3,44.201.37.88,10.1
MinCPULoad,4000000510000000000,US,44.201.37.88,3,44.201.37.88,15.1
MinCPULoad,4000000540000000000,US,44.201.37.88,3,44.201.37.88,25.0
MinCPULoad,4000000570000000000,US,44.201.37.88,3,44.201.37.88,56.2
MinCPULoad,4000000600000000000,US,44.201.37.88,3,44.201.37.88,50.0
MinCPULoad,4000000630000000000,US,44.201.37.88,3,44.201.37.88,80.2
MinCPULoad,4000000660000000000,US,44.201.37.88,3,44.201.37.88,10.1
MinCPULoad,4000000690000000000,US,44.201.37.88,3,44.201.37.88,15.1
MinCPULoad,4000000720000000000,US,44.201.37.88,3,44.201.37.88,25.0
MinCPULoad,4000000750000000000,US,44.201.37.88,3,44.201.37.88,56.2
MinCPULoad,4000000780000000000,US,44.201.37.88,3,44.201.37.88,50.0
MinCPULoad,4000000810000000000,US,44.201.37.88,3,44.201.37.88,80.2
MinCPULoad,4000000840000000000,US,44.201.37.88,3,44.201.37.88,10.1
MinCPULoad,4000000870000000000,US,44.201.37.88,3,44.201.37.88,15.1
MinCPULoad,4000000900000000000,US,44.201.37.88,3,44.201.37.88,25.0
MinCPULoad,4000000930000000000,US,44.201.37.88,3,44.201.37.88,56.2
MinCPULoad,4000000960000000000,US,44.201.37.88,3,44.201.37.88,50.0
MinCPULoad,4000000990000000000,US,44.201.37.88,3,44.201.37.88,80.2
MinCPULoad,4000001020000000000,US,44.201.37.88,3,44.201.37.88,10.1
MinCPULoad,4000001050000000000,US,44.201.37.88,3,44.201.37.88,15.1
MinCPULoad,4000001080000000000,US,44.201.37.88,3,44.201.37.88,25.0
MinCPULoad,4000001110000000000,US,44.201.37.88,3,44.201.37.88,56.2
MinCPULoad,4000001140000000000,US,44.201.37.88,3,44.201.37.88,50.0
MinCPULoad,4000001170000000000,US,44.201.37.88,3,44.201.37.88,80.2
MinCPULoad,4000001200000000000,US,44.201.37.88,3,44.201.37.88,10.1
MinCPULoad,4000001230000000000,US,44.201.37.88,3,44.201.37.88,15.1
MinCPULoad,4000001260000000000,US,44.201.37.88,3,44.201.37.88,25.0
MinCPULoad,4000001290000000000,US,44.201.37.88,3,44.201.37.88,56.2
MinCPULoad,4000001320000000000,US,44.201.37.88,3,44.201.37.88,50.0
MinCPULoad,4000001350000000000,US,44.201.37.88,3,44.201.37.88,80.2
MinCPULoad,4000001380000000000,US,44.201.37.88,3,44.201.37.88,10.1
MinCPULoad,4000001410000000000,US,44.201.37.88,3,44.201.37.88,15.1
MinCPULoad,4000001440000000000,US,44.201.37.88,3,44.201.37.88,25.0
MinCPULoad,4000001470000000000,US,44.201.37.88,3,44.201.37.88,56.2
MinCPULoad,4000001500000000000,US,44.201.37.88,3,44.201.37.88,50.0
MinCPULoad,4000001530000000000,US,44.201.37.88,3,44.201.37.88,80.2
MinCPULoad,4000001560000000000,US,44.201.37.88,3,44.201.37.88,10.1
MinCPULoad,4000001590000000000,US,44.201.37.88,3,44.201.37.88,15.1
MinCPULoad,4000001620000000000,US,44.201.37.88,3,44.201.37.88,25.0
MinCPULoad,4000001650000000000,US,44.201.37.88,3,44.201.37.88,56.2
MinCPULoad,4000001680000000000,US,44.201.37.88,3,44.201.37.88,50.0
MinCPULoad,4000001710000000000,US,44.201.37.88,3,44.201.37.88,80.2
MinCPULoad,4000001740000000000,US,44.201.37.88,3,44.201.37.88,10.1
MinCPULoad,4000001770000000000,US,44.201.37.88,3,44.201.37.88,15.1
MinCPULoad,4000001800000000000,US,44.201.37.88,3,44.201.37.88,25.0
MinCPULoad,4000001830000000000,US,44.201.37.88,3,44.201.37.88,56.2
MinCPULoad,4000001860000000000,US,44.201.37.88,3,44.201.37.88,50.0
MinCPULoad,4000001890000000000,US,44.201.37.88,3,44.201.37.88,80.2
MinCPULoad,4000001920000000000,US,44.201.37.88,3,44.201.37.88,10.1
MinCPULoad,4000001950000000000,US,44.201.37.88,3,44.201.37.88,15.1
MinCPULoad,4000001980000000000,US,44.201.37.88,3,44.201.37.88,25.0
MinCPULoad,4000002010000000000,US,44.201.37.88,3,44.201.37.88,56.2
MinCPULoad,4000002040000000000,US,44.201.37.88,3,44.201.37.88,50.0
MinCPULoad,4000002070000000000,US,44.201.37.88,3,44.201.37.88,80.2
MinCPULoad,4000002100000000000,US,44.201.37.88,3,44.201.37.88,10.1
MinCPULoad,4000002130000000000,US,44.201.37.88,3,44.201.37.88,15.1
MinCPULoad,4000002160000000000,US,44.201.37.88,3,44.201.37.88,25.0
MinCPULoad,4000002190000000000,US,44.201.37.88,3,44.201.37.88,56.2
MinCPULoad,4000002220000000000,US,44.201.37.88,3,44.201.37.88,50.0
MinCPULoad,4000002250000000000,US,44.201.37.88,3,44.201.37.88,80.2
MinCPULoad,4000002280000000000,US,44.201.37.88,3,44.201.37.88,10.1
MinCPULoad,4000002310000000000,US,44.201.37.88,3,44.201.37.88,15.1
MinCPULoad,4000002340000000000,US,44.201.37.88,3,44.201.37.88,25.0
MinCPULoad,4000002370000000000,US,44.201.37.88,3,44.201.37.88,56.2
MinCPULoad,4000002400000000000,US,44.201.37.88,3,44.201.37.88,50.0
MinCPULoad,4000002430000000000,US,44.201.37.88,3,44.201.37.88,80.2
MinCPULoad,4000002460000000000,US,44.201.37.88,3,44.201.37.88,10.1
MinCPULoad,4000002490000000000,US,44.201.37.88,3,44.201.37.88,15.1
MinCPULoad,4000002520000000000,US,44.201.37.88,3,44.201.37.88,25.0
MinCPULoad,4000002550000000000,US,44.201.37.88,3,44.201.37.88,56.2
MinCPULoad,4000002580000000000,US,44.201.37.88,3,44.201.37.88,50.0
MinCPULoad,4000002610000000000,US,44.201.37.88,3,44.201.37.88,80.2
MinCPULoad,4000002640000000000,US,44.201.37.88,3,44.201.37.88,10.1
MinCPULoad,4000002670000000000,US,44.201.37.88,3,44.201.37.88,15.1
MinCPULoad,4000002700000000000,US,44.201.37.88,3,44.201.37.88,25.0
MinCPULoad,4000002730000000000,US,44.201.37.88,3,44.201.37.88,56.2
MinCPULoad,4000002760000000000,US,44.201.37.88,3,44.201.37.88,50.0
MinCPULoad,4000002790000000000,US,44.201.37.88,3,44.201.37.88,80.2
MinCPULoad,4000002820000000000,US,44.201.37.88,3,44.201.37.88,10.1
MinCPULoad,4000002850000000000,US,44.201.37.88,3,44.201.37.88,15.1
MinCPULoad,4000002880000000000,US,44.201.37.88,3,44.201.37.88,25.0
MinCPULoad,4000002910000000000,US,44.201.37.88,3,44.201.37.88,56.2
MinCPULoad,4000002940000000000,US,44.201.37.88,3,44.201.37.88,50.0
MinCPULoad,4000002970000000000,US,44.201.37.88,3,44.201.37.88,80.2
MinCPULoad,4000003000000000000,US,44.201.37.88,3,44.201.37.88,10.1
MinCPULoad,4000003030000000000,US,44.201.37.88,3,44.201.37.88,15.1
MinCPULoad,4000003060000000000,US,44.201.37.88,3,44.201.37.88,25.0
MinCPULoad,4000003090000000000,US,44.201.37.88,3,44.201.37.88,56.2
MinCPULoad,4000003120000000000,US,44.201.37.88,3,44.201.37.88,50.0
MinCPULoad,4000003150000000000,US,44.201.37.88,3,44.201.37.88,80.2
MinCPULoad,4000003180000000000,US,44.201.37.88,3,44.201.37.88,10.1
MinCPULoad,4000003210000000000,US,44.201.37.88,3,44.201.37.88,15.1
MinCPULoad,4000003240000000000,US,44.201.37.88,3,44.201.37.88,25.0
MinCPULoad,4000003270000000000,US,44.201.37.88,3,44.201.37.88,56.2
MinCPULoad,4000003300000000000,US,44.201.37.88,3,44.201.37.88,50.0
MinCPULoad,4000003330000000000,US,44.201.37.88,3,44.201.37.88,80.2
MinCPULoad,4000003360000000000,US,44.201.37.88,3,44.201.37.88,10.1
MinCPULoad,4000003390000000000,US,44.201.37.88,3,44.201.37.88,15.1
MinCPULoad,4000003420000000000,US,44.201.37.88,3,44.201.37.88,25.0
MinCPULoad,4000003450000000000,US,44.201.37.88,3,44.201.37.88,56.2
MinCPULoad,4000003480000000000,US,44.201.37.88,3,44.201.37.88,50.0
MinCPULoad,4000003510000000000,US,44.201.37.88,3,44.201.37.88,80.2
MinCPULoad,4000003540000000000,US,44.201.37.88,3,44.201.37.88,10.1
MinCPULoad,4000003570000000000,US,44.201.37.88,3,44.201.37.88,15.1
MinCPULoad,4000003600000000000,US,44.201.37.88,3,44.201.37.88,25.0
MinCPULoad,4000003630000000000,US,44.201.37.88,3,44.201.37.88,56.2
MinCPULoad,4000003660000000000,US,44.201.37.88,3,44.201.37.88,50.0
MinCPULoad,4000003690000000000,US,44.201.37.88,3,44.201.37.88,80.2
MinCPULoad,4000003720000000000,US,44.201.37.88,3,44.201.37.88,10.1
MinCPULoad,4000003750000000000,US,44.201.37.88,3,44.201.37.88,15.1
MinCPULoad,4000003780000000000,US,44.201.37.88,3,44.201.37.88,25.0
MinCPULoad,4000003810000000000,US,44.201.37.88,3,44.201.37.88,56.2
MinCPULoad,4000003840000000000,US,44.201.37.88,3,44.201.37.88,50.0
MinCPULoad,4000003870000000000,US,44.201.37.88,3,44.201.37.88,80.2
MinCPULoad,4000003900000000000,US,44.201.37.88,3,44.201.37.88,10.1
MinCPULoad,4000003930000000000,US,44.201.37.88,3,44.201.37.88,15.1
MinCPULoad,4000003960000000000,US,44.201.37.88,3,44.201.37.88,25.0
MinCPULoad,4000003990000000000,US,44.201.37.88,3,44.201.37.88,56.2
MinCPULoad,4000004020000000000,US,44.201.37.88,3,44.201.37.88,50.0
MinCPULoad,4000004050000000000,US,44.201.37.88,3,44.201.37.88,80.2
MinCPULoad,4000004080000000000,US,44.201.37.88,3,44.201.37.88,10.1
MinCPULoad,4000004110000000000,US,44.201.37.88,3,44.201.37.88,15.1
MinCPULoad,4000004140000000000,US,44.201.37.88,3,44.201.37.88,25.0
MinCPULoad,4000004170000000000,US,44.201.37.88,3,44.201.37.88,56.2
MinCPULoad,4000004200000000000,US,44.201.37.88,3,44.201.37.88,50.0
MinCPULoad,4000004230000000000,US,44.201.37.88,3,44.201.37.88,80.2
MinCPULoad,4000004260000000000,US,44.201.37.88,3,44.201.37.88,10.1
MinCPULoad,4000004290000000000,US,44.201.37.88,3,44.201.37.88,15.1
MinCPULoad,4000004320000000000,US,44.201.37.88,3,44.201.37.88,25.0
MinCPULoad,4000004350000000000,US,44.201.37.88,3,44.201.37.88,56.2
MinCPULoad,4000004380000000000,US,44.201.37.88,3,44.201.37.88,50.0
MinCPULoad,4000004410000000000,US,44.201.37.88,3,44.201.37.88,80.2
MinCPULoad,4000004440000000000,US,44.201.37.88,3,44.201.37.88,10.1
MinCPULoad,4000004470000000000,US,44.201.37.88,3,44.201.37.88,15.1
MinCPULoad,4000004500000000000,US,44.201.37.88,3,44.201.37.88,25.0
MinCPULoad,5000000030000000000,US,44.201.37.88,3,44.201.37.88,56.2
MinCPULoad,5000000060000000000,US,44.201.37.88,3,44.201.37.88,50.0
MinCPULoad,5000000090000000000,US,44.201.37.88,3,44.201.37.88,80.2
MinCPULoad,5000000120000000000,US,44.201.37.88,3,44.201.37.88,10.1
MinCPULoad,5000000150000000000,US,44.201.37.88,3,44.201.37.88,15.1
MinCPULoad,5000000180000000000,US,44.201.37.88,3,44.201.37.88,25.0
MinCPULoad,5000000210000000000,US,44.201.37.88,3,44.201.37.88,56.2
MinCPULoad,5000000240000000000,US,44.201.37.88,3,44.201.37.88,50.0
MinCPULoad,5000000270000000000,US,44.201.37.88,3,44.201.37.88,80.2
MinCPULoad,5000000300000000000,US,44.201.37.88,3,44.201.37.88,10.1
MinCPULoad,5000000330000000000,US,44.201.37.88,3,44.201.37.88,15.1
MinCPULoad,5000000360000000000,US,44.201.37.88,3,44.201.37.88,25.0
MinCPULoad,5000000390000000000,US,44.201.37.88,3,44.201.37.88,56.2
MinCPULoad,5000000420000000000,US,44.201.37.88,3,44.201.37.88,50.0
MinCPULoad,5000000450000000000,US,44.201.37.88,3,44.201.37.88,80.2
MinCPULoad,5000000480000000000,US,44.201.37.88,3,44.201.37.88,10.1
MinCPULoad,5000000510000000000,US,44.201.37.88,3,44.201.37.88,15.1
MinCPULoad,5000000540000000000,US,44.201.37.88,3,44.201.37.88,25.0
MinCPULoad,5000000570000000000,US,44.201.37.88,3,44.201.37.88,56.2
MinCPULoad,5000000600000000000,US,44.201.37.88,3,44.201.37.88,50.0
MinCPULoad,5000000630000000000,US,44.201.37.88,3,44.201.37.88,80.2
MinCPULoad,5000000660000000000,US,44.201.37.88,3,44.201.37.88,10.1
MinCPULoad,5000000690000000000,US,44.201.37.88,3,44.201.37.88,15.1
MinCPULoad,5000000720000000000,US,44.201.37.88,3,44.201.37.88,25.0
MinCPULoad,5000000750000000000,US,44.201.37.88,3,44.201.37.88,56.2
MinCPULoad,5000000780000000000,US,44.201.37.88,3,44.201.37.88,50.0
MinCPULoad,5000000810000000000,US,44.201.37.88,3,44.201.37.88,80.2
MinCPULoad,5000000840000000000,US,44.201.37.88,3,44.201.37.88,10.1
MinCPULoad,5000000870000000000,US,44.201.37.88,3,44.201.37.88,15.1
MinCPULoad,5000000900000000000,US,44.201.37.88,3,44.201.37.88,25.0
MinCPULoad,5000000930000000000,US,44.201.37.88,3,44.201.37.88,56.2
MinCPULoad,5000000960000000000,US,44.201.37.88,3,44.201.37.88,50.0
MinCPULoad,5000000990000000000,US,44.201.37.88,3,44.201.37.88,80.2
MinCPULoad,5000001020000000000,US,44.201.37.88,3,44.201.37.88,10.1
MinCPULoad,5000001050000000000,US,44.201.37.88,3,44.201.37.88,15.1
MinCPULoad,5000001080000000000,US,44.201.37.88,3,44.201.37.88,25.0
MinCPULoad,5000001110000000000,US,44.201.37.88,3,44.201.37.88,56.2
MinCPULoad,5000001140000000000,US,44.201.37.88,3,44.201.37.88,50.0
MinCPULoad,5000001170000000000,US,44.201.37.88,3,44.201.37.88,80.2
MinCPULoad,5000001200000000000,US,44.201.37.88,3,44.201.37.88,10.1
MinCPULoad,5000001230000000000,US,44.201.37.88,3,44.201.37.88,15.1
MinCPULoad,5000001260000000000,US,44.201.37.88,3,44.201.37.88,25.0
MinCPULoad,5000001290000000000,US,44.201.37.88,3,44.201.37.88,56.2
MinCPULoad,5000001320000000000,US,44.201.37.88,3,44.201.37.88,50.0
MinCPULoad,5000001350000000000,US,44.201.37.88,3,44.201.37.88,80.2
MinCPULoad,5000001380000000000,US,44.201.37.88,3,44.201.37.88,10.1
MinCPULoad,5000001410000000000,US,44.201.37.88,3,44.201.37.88,15.1
MinCPULoad,5000001440000000000,US,44.201.37.88,3,44.201.37.88,25.0
MinCPULoad,5000001470000000000,US,44.201.37.88,3,44.201.37.88,56.2
MinCPULoad,5000001500000000000,US,44.201.37.88,3,44.201.37.88,50.0
MinCPULoad,5000001530000000000,US,44.201.37.88,3,44.201.37.88,80.2
MinCPULoad,5000001560000000000,US,44.201.37.88,3,44.201.37.88,10.1
MinCPULoad,5000001590000000000,US,44.201.37.88,3,44.201.37.88,15.1
MinCPULoad,5000001620000000000,US,44.201.37.88,3,44.201.37.88,25.0
MinCPULoad,5000001650000000000,US,44.201.37.88,3,44.201.37.88,56.2
MinCPULoad,5000001680000000000,US,44.201.37.88,3,44.201.37.88,50.0
MinCPULoad,5000001710000000000,US,44.201.37.88,3,44.201.37.88,80.2
MinCPULoad,5000001740000000000,US,44.201.37.88,3,44.201.37.88,10.1
MinCPULoad,5000001770000000000,US,44.201.37.88,3,44.201.37.88,15.1
MinCPULoad,5000001800000000000,US,44.201.37.88,3,44.201.37.88,25.0
MinCPULoad,5000001830000000000,US,44.201.37.88,3,44.201.37.88,56.2
MinCPULoad,5000001860000000000,US,44.201.37.88,3,44.201.37.88,50.0
MinCPULoad,5000001890000000000,US,44.201.37.88,3,44.201.37.88,80.2
MinCPULoad,5000001920000000000,US,44.201.37.88,3,44.201.37.88,10.1
MinCPULoad,5000001950000000000,US,44.201.37.88,3,44.201.37.88,15.1
MinCPULoad,5000001980000000000,US,44.201.37.88,3,44.201.37.88,25.0
MinCPULoad,5000002010000000000,US,44.201.37.88,3,44.201.37.88,56.2
MinCPULoad,5000002040000000000,US,44.201.37.88,3,44.201.37.88,50.0
MinCPULoad,5000002070000000000,US,44.201.37.88,3,44.201.37.88,80.2
MinCPULoad,5000002100000000000,US,44.201.37.88,3,44.201.37.88,10.1
MinCPULoad,5000002130000000000,US,44.201.37.88,3,44.201.37.88,15.1
MinCPULoad,5000002160000000000,US,44.201.37.88,3,44.201.37.88,25.0
MinCPULoad,5000002190000000000,US,44.201.37.88,3,44.201.37.88,56.2
MinCPULoad,5000002220000000000,US,44.201.37.88,3,44.201.37.88,50.0
MinCPULoad,5000002250000000000,US,44.201.37.88,3,44.201.37.88,80.2
MinCPULoad,5000002280000000000,US,44.201.37.88,3,44.201.37.88,10.1
MinCPULoad,5000002310000000000,US,44.201.37.88,3,44.201.37.88,15.1
MinCPULoad,5000002340000000000,US,44.201.37.88,3,44.201.37.88,25.0
MinCPULoad,5000002370000000000,US,44.201.37.88,3,44.201.37.88,56.2
MinCPULoad,5000002400000000000,US,44.201.37.88,3,44.201.37.88,50.0
MinCPULoad,5000002430000000000,US,44.201.37.88,3,44.201.37.88,80.2
MinCPULoad,5000002460000000000,US,44.201.37.88,3,44.201.37.88,10.1
MinCPULoad,5000002490000000000,US,44.201.37.88,3,44.201.37.88,15.1
MinCPULoad,5000002520000000000,US,44.201.37.88,3,44.201.37.88,25.0
MinCPULoad,5000002550000000000,US,44.201.37.88,3,44.201.37.88,56.2
MinCPULoad,5000002580000000000,US,44.201.37.88,3,44.201.37.88,50.0
MinCPULoad,5000002610000000000,US,44.201.37.88,3,44.201.37.88,80.2
MinCPULoad,5000002640000000000,US,44.201.37.88,3,44.201.37.88,10.1
MinCPULoad,5000002670000000000,US,44.201.37.88,3,44.201.37.88,15.1
MinCPULoad,5000002700000000000,US,44.201.37.88,3,44.201.37.88,25.0
MinCPULoad,5000002730000000000,US,44.201.37.88,3,44.201.37.88,56.2
MinCPULoad,5000002760000000000,US,44.201.37.88,3,44.201.37.88,50.0
MinCPULoad,5000002790000000000,US,44.201.37.88,3,44.201.37.88,80.2
MinCPULoad,5000002820000000000,US,44.201.37.88,3,44.201.37.88,10.1
MinCPULoad,5000002850000000000,US,44.201.37.88,3,44.201.37.88,15.1
MinCPULoad,5000002880000000000,US,44.201.37.88,3,44.201.37.88,25.0
MinCPULoad,5000002910000000000,US,44.201.37.88,3,44.201.37.88,56.2
MinCPULoad,5000002940000000000,US,44.201.37.88,3,44.201.37.88,50.0
MinCPULoad,5000002970000000000,US,44.201.37.88,3,44.201.37.88,80.2
MinCPULoad,5000003000000000000,US,44.201.37.88,3,44.201.37.88,10.1
MinCPULoad,5000003030000000000,US,44.201.37.88,3,44.201.37.88,15.1
MinCPULoad,5000003060000000000,US,44.201.37.88,3,44.201.37.88,25.0
MinCPULoad,5000003090000000000,US,44.201.37.88,3,44.201.37.88,56.2
MinCPULoad,5000003120000000000,US,44.201.37.88,3,44.201.37.88,50.0
MinCPULoad,5000003150000000000,US,44.201.37.88,3,44.201.37.88,80.2
MinCPULoad,5000003180000000000,US,44.201.37.88,3,44.201.37.88,10.1
MinCPULoad,5000003210000000000,US,44.201.37.88,3,44.201.37.88,15.1
MinCPULoad,5000003240000000000,US,44.201.37.88,3,44.201.37.88,25.0
MinCPULoad,5000003270000000000,US,44.201.37.88,3,44.201.37.88,56.2
MinCPULoad,5000003300000000000,US,44.201.37.88,3,44.201.37.88,50.0
MinCPULoad,5000003330000000000,US,44.201.37.88,3,44.201.37.88,80.2
MinCPULoad,5000003360000000000,US,44.201.37.88,3,44.201.37.88,10.1
MinCPULoad,5000003390000000000,US,44.201.37.88,3,44.201.37.88,15.1
MinCPULoad,5000003420000000000,US,44.201.37.88,3,44.201.37.88,25.0
MinCPULoad,5000003450000000000,US,44.201.37.88,3,44.201.37.88,56.2
MinCPULoad,5000003480000000000,US,44.201.37.88,3,44.201.37.88,50.0
MinCPULoad,5000003510000000000,US,44.201.37.88,3,44.201.37.88,80.2
MinCPULoad,5000003540000000000,US,44.201.37.88,3,44.201.37.88,10.1
MinCPULoad,5000003570000000000,US,44.201.37.88,3,44.201.37.88,15.1
MinCPULoad,5000003600000000000,US,44.201.37.88,3,44.201.37.88,25.0
MinCPULoad,5000003630000000000,US,44.201.37.88,3,44.201.37.88,56.2
MinCPULoad,5000003660000000000,US,44.201.37.88,3,44.201.37.88,50.0
MinCPULoad,5000003690000000000,US,44.201.37.88,3,44.201.37.88,80.2
MinCPULoad,5000003720000000000,US,44.201.37.88,3,44.201.37.88,10.1
MinCPULoad,5000003750000000000,US,44.201.37.88,3,44.201.37.88,15.1
MinCPULoad,5000003780000000000,US,44.201.37.88,3,44.201.37.88,25.0
MinCPULoad,5000003810000000000,US,44.201.37.88,3,44.201.37.88,56.2
MinCPULoad,5000003840000000000,US,44.201.37.88,3,44.201.37.88,50.0
MinCPULoad,5000003870000000000,US,44.201.37.88,3,44.201.37.88,80.2
MinCPULoad,5000003900000000000,US,44.201.37.88,3,44.201.37.88,10.1
MinCPULoad,5000003930000000000,US,44.201.37.88,3,44.201.37.88,15.1
MinCPULoad,5000003960000000000,US,44.201.37.88,3,44.201.37.88,25.0
MinCPULoad,5000003990000000000,US,44.201.37.88,3,44.201.37.88,56.2
MinCPULoad,5000004020000000000,US,44.201.37.88,3,44.201.37.88,50.0
MinCPULoad,5000004050000000000,US,44.201.37.88,3,44.201.37.88,80.2
MinCPULoad,5000004080000000000,US,44.201.37.88,3,44.201.37.88,10.1
MinCPULoad,5000004110000000000,US,44.201.37.88,3,44.201.37.88,15.1
MinCPULoad,5000004140000000000,US,44.201.37.88,3,44.201.37.88,25.0
MinCPULoad,5000004170000000000,US,44.201.37.88,3,44.201.37.88,56.2
MinCPULoad,5000004200000000000,US,44.201.37.88,3,44.201.37.88,50.0
MinCPULoad,5000004230000000000,US,44.201.37.88,3,44.201.37.88,80.2
MinCPULoad,5000004260000000000,US,44.201.37.88,3,44.201.37.88,10.1
MinCPULoad,5000004290000000000,US,44.201.37.88,3,44.201.37.88,15.1
MinCPULoad,5000004320000000000,US,44.201.37.88,3,44.201.37.88,25.0
MinCPULoad,5000004350000000000,US,44.201.37.88,3,44.201.37.88,56.2
MinCPULoad,5000004380000000000,US,44.201.37.88,3,44.201.37.88,50.0
MinCPULoad,5000004410000000000,US,44.201.37.88,3,44.201.37.88,80.2
MinCPULoad,5000004440000000000,US,44.201.37.88,3,44.201.37.88,10.1
MinCPULoad,5000004470000000000,US,44.201.37.88,3,44.201.37.88,15.1
MinCPULoad,5000004500000000000,US,44.201.37.88,3,44.201.37.88,25.0
MinCPULoad,6000000030000000000,US,44.201.37.88,3,44.201.37.88,56.2
MinCPULoad,6000000060000000000,US,44.201.37.88,3,44.201.37.88,50.0
MinCPULoad,6000000090000000000,US,44.201.37.88,3,44.201.37.88,80.2
MinCPULoad,6000000120000000000,US,44.201.37.88,3,44.201.37.88,10.1
MinCPULoad,6000000150000000000,US,44.201.37.88,3,44.201.37.88,15.1
MinCPULoad,6000000180000000000,US,44.201.37.88,3,44.201.37.88,25.0
MinCPULoad,6000000210000000000,US,44.201.37.88,3,44.201.37.88,56.2
MinCPULoad,6000000240000000000,US,44.201.37.88,3,44.201.37.88,50.0
MinCPULoad,6000000270000000000,US,44.201.37.88,3,44.201.37.88,80.2
MinCPULoad,6000000300000000000,US,44.201.37.88,3,44.201.37.88,10.1
MinCPULoad,6000000330000000000,US,44.201.37.88,3,44.201.37.88,15.1
MinCPULoad,6000000360000000000,US,44.201.37.88,3,44.201.37.88,25.0
MinCPULoad,6000000390000000000,US,44.201.37.88,3,44.201.37.88,56.2
MinCPULoad,6000000420000000000,US,44.201.37.88,3,44.201.37.88,50.0
MinCPULoad,6000000450000000000,US,44.201.37.88,3,44.201.37.88,80.2
MinCPULoad,6000000480000000000,US,44.201.37.88,3,44.201.37.88,10.1
MinCPULoad,6000000510000000000,US,44.201.37.88,3,44.201.37.88,15.1
MinCPULoad,6000000540000000000,US,44.201.37.88,3,44.201.37.88,25.0
MinCPULoad,6000000570000000000,US,44.201.37.88,3,44.201.37.88,56.2
MinCPULoad,6000000600000000000,US,44.201.37.88,3,44.201.37.88,50.0
MinCPULoad,6000000630000000000,US,44.201.37.88,3,44.201.37.88,80.2
MinCPULoad,6000000660000000000,US,44.201.37.88,3,44.201.37.88,10.1
MinCPULoad,6000000690000000000,US,44.201.37.88,3,44.201.37.88,15.1
MinCPULoad,6000000720000000000,US,44.201.37.88,3,44.201.37.88,25.0
MinCPULoad,6000000750000000000,US,44.201.37.88,3,44.201.37.88,56.2
MinCPULoad,6000000780000000000,US,44.201.37.88,3,44.201.37.88,50.0
MinCPULoad,6000000810000000000,US,44.201.37.88,3,44.201.37.88,80.2
MinCPULoad,6000000840000000000,US,44.201.37.88,3,44.201.37.88,10.1
MinCPULoad,6000000870000000000,US,44.201.37.88,3,44.201.37.88,15.1
MinCPULoad,6000000900000000000,US,44.201.37.88,3,44.201.37.88,25.0
MinCPULoad,6000000930000000000,US,44.201.37.88,3,44.201.37.88,56.2
MinCPULoad,6000000960000000000,US,44.201.37.88,3,44.201.37.88,50.0
MinCPULoad,6000000990000000000,US,44.201.37.88,3,44.201.37.88,80.2
MinCPULoad,6000001020000000000,US,44.201.37.88,3,44.201.37.88,10.1
MinCPULoad,6000001050000000000,US,44.201.37.88,3,44.201.37.88,15.1
MinCPULoad,6000001080000000000,US,44.201.37.88,3,44.201.37.88,25.0
MinCPULoad,6000001110000000000,US,44.201.37.88,3,44.201.37.88,56.2
MinCPULoad,6000001140000000000,US,44.201.37.88,3,44.201.37.88,50.0
MinCPULoad,6000001170000000000,US,44.201.37.88,3,44.201.37.88,80.2
MinCPULoad,6000001200000000000,US,44.201.37.88,3,44.201.37.88,10.1
MinCPULoad,6000001230000000000,US,44.201.37.88,3,44.201.37.88,15.1
MinCPULoad,6000001260000000000,US,44.201.37.88,3,44.201.37.88,25.0
MinCPULoad,6000001290000000000,US,44.201.37.88,3,44.201.37.88,56.2
MinCPULoad,6000001320000000000,US,44.201.37.88,3,44.201.37.88,50.0
MinCPULoad,6000001350000000000,US,44.201.37.88,3,44.201.37.88,80.2
MinCPULoad,6000001380000000000,US,44.201.37.88,3,44.201.37.88,10.1
MinCPULoad,6000001410000000000,US,44.201.37.88,3,44.201.37.88,15.1
MinCPULoad,6000001440000000000,US,44.201.37.88,3,44.201.37.88,25.0
MinCPULoad,6000001470000000000,US,44.201.37.88,3,44.201.37.88,56.2
MinCPULoad,6000001500000000000,US,44.201.37.88,3,44.201.37.88,50.0
MinCPULoad,6000001530000000000,US,44.201.37.88,3,44.201.37.88,80.2
MinCPULoad,6000001560000000000,US,44.201.37.88,3,44.201.37.88,10.1
MinCPULoad,6000001590000000000,US,44.201.37.88,3,44.201.37.88,15.1
MinCPULoad,6000001620000000000,US,44.201.37.88,3,44.201.37.88,25.0
MinCPULoad,6000001650000000000,US,44.201.37.88,3,44.201.37.88,56.2
MinCPULoad,6000001680000000000,US,44.201.37.88,3,44.201.37.88,50.0
MinCPULoad,6000001710000000000,US,44.201.37.88,3,44.201.37.88,80.2
MinCPULoad,6000001740000000000,US,44.201.37.88,3,44.201.37.88,10.1
MinCPULoad,6000001770000000000,US,44.201.37.88,3,44.201.37.88,15.1
MinCPULoad,6000001800000000000,US,44.201.37.88,3,44.201.37.88,25.0
MinCPULoad,6000001830000000000,US,44.201.37.88,3,44.201.37.88,56.2
MinCPULoad,6000001860000000000,US,44.201.37.88,3,44.201.37.88,50.0
MinCPULoad,6000001890000000000,US,44.201.37.88,3,44.201.37.88,80.2
MinCPULoad,6000001920000000000,US,44.201.37.88,3,44.201.37.88,10.1
MinCPULoad,6000001950000000000,US,44.201.37.88,3,44.201.37.88,15.1
MinCPULoad,6000001980000000000,US,44.201.37.88,3,44.201.37.88,25.0
MinCPULoad,6000002010000000000,US,44.201.37.88,3,44.201.37.88,56.2
MinCPULoad,6000002040000000000,US,44.201.37.88,3,44.201.37.88,50.0
MinCPULoad,6000002070000000000,US,44.201.37.88,3,44.201.37.88,80.2
MinCPULoad,6000002100000000000,US,44.201.37.88,3,44.201.37.88,10.1
MinCPULoad,6000002130000000000,US,44.201.37.88,3,44.201.37.88,15.1
MinCPULoad,6000002160000000000,US,44.201.37.88,3,44.201.37.88,25.0
MinCPULoad,6000002190000000000,US,44.201.37.88,3,44.201.37.88,56.2
MinCPULoad,6000002220000000000,US,44.201.37.88,3,44.201.37.88,50.0
MinCPULoad,6000002250000000000,US,44.201.37.88,3,44.201.37.88,80.2
MinCPULoad,6000002280000000000,US,44.201.37.88,3,44.201.37.88,10.1
MinCPULoad,6000002310000000000,US,44.201.37.88,3,44.201.37.88,15.1
MinCPULoad,6000002340000000000,US,44.201.37.88,3,44.201.37.88,25.0
MinCPULoad,6000002370000000000,US,44.201.37.88,3,44.201.37.88,56.2
MinCPULoad,6000002400000000000,US,44.201.37.88,3,44.201.37.88,50.0
MinCPULoad,6000002430000000000,US,44.201.37.88,3,44.201.37.88,80.2
MinCPULoad,6000002460000000000,US,44.201.37.88,3,44.201.37.88,10.1
MinCPULoad,6000002490000000000,US,44.201.37.88,3,44.201.37.88,15.1
MinCPULoad,6000002520000000000,US,44.201.37.88,3,44.201.37.88,25.0
MinCPULoad,6000002550000000000,US,44.201.37.88,3,44.201.37.88,56.2
MinCPULoad,6000002580000000000,US,44.201.37.88,3,44.201.37.88,50.0
MinCPULoad,6000002610000000000,US,44.201.37.88,3,44.201.37.88,80.2
MinCPULoad,6000002640000000000,US,44.201.37.88,3,44.201.37.88,10.1
MinCPULoad,6000002670000000000,US,44.201.37.88,3,44.201.37.88,15.1
MinCPULoad,6000002700000000000,US,44.201.37.88,3,44.201.37.88,25.0
MinCPULoad,6000002730000000000,US,44.201.37.88,3,44.201.37.88,56.2
MinCPULoad,6000002760000000000,US,44.201.37.88,3,44.201.37.88,50.0
MinCPULoad,6000002790000000000,US,44.201.37.88,3,44.201.37.88,80.2
MinCPULoad,6000002820000000000,US,44.201.37.88,3,44.201.37.88,10.1
MinCPULoad,6000002850000000000,US,44.201.37.88,3,44.201.37.88,15.1
MinCPULoad,6000002880000000000,US,44.201.37.88,3,44.201.37.88,25.0
MinCPULoad,6000002910000000000,US,44.201.37.88,3,44.201.37.88,56.2
MinCPULoad,6000002940000000000,US,44.201.37.88,3,44.201.37.88,50.0
MinCPULoad,6000002970000000000,US,44.201.37.88,3,44.201.37.88,80.2
MinCPULoad,6000003000000000000,US,44.201.37.88,3,44.201.37.88,10.1
MinCPULoad,6000003030000000000,US,44.201.37.88,3,44.201.37.88,15.1
MinCPULoad,6000003060000000000,US,44.201.37.88,3,44.201.37.88,25.0
MinCPULoad,6000003090000000000,US,44.201.37.88,3,44.201.37.88,56.2
MinCPULoad,6000003120000000000,US,44.201.37.88,3,44.201.37.88,50.0
MinCPULoad,6000003150000000000,US,44.201.37.88,3,44.201.37.88,80.2
MinCPULoad,6000003180000000000,US,44.201.37.88,3,44.201.37.88,10.1
MinCPULoad,6000003210000000000,US,44.201.37.88,3,44.201.37.88,15.1
MinCPULoad,6000003240000000000,US,44.201.37.88,3,44.201.37.88,25.0
MinCPULoad,6000003270000000000,US,44.201.37.88,3,44.201.37.88,56.2
MinCPULoad,6000003300000000000,US,44.201.37.88,3,44.201.37.88,50.0
MinCPULoad,6000003330000000000,US,44.201.37.88,3,44.201.37.88,80.2
MinCPULoad,6000003360000000000,US,44.201.37.88,3,44.201.37.88,10.1
MinCPULoad,6000003390000000000,US,44.201.37.88,3,44.201.37.88,15.1
MinCPULoad,6000003420000000000,US,44.201.37.88,3,44.201.37.88,25.0
MinCPULoad,6000003450000000000,US,44.201.37.88,3,44.201.37.88,56.2
MinCPULoad,6000003480000000000,US,44.201.37.88,3,44.201.37.88,50.0
MinCPULoad,6000003510000000000,US,44.201.37.88,3,44.201.37.88,80.2
MinCPULoad,6000003540000000000,US,44.201.37.88,3,44.201.37.88,10.1
MinCPULoad,6000003570000000000,US,44.201.37.88,3,44.201.37.88,15.1
MinCPULoad,6000003600000000000,US,44.201.37.88,3,44.201.37.88,25.0
MinCPULoad,6000003630000000000,US,44.201.37.88,3,44.201.37.88,56.2
MinCPULoad,6000003660000000000,US,44.201.37.88,3,44.201.37.88,50.0
MinCPULoad,6000003690000000000,US,44.201.37.88,3,44.201.37.88,80.2
MinCPULoad,6000003720000000000,US,44.201.37.88,3,44.201.37.88,10.1
MinCPULoad,6000003750000000000,US,44.201.37.88,3,44.201.37.88,15.1
MinCPULoad,6000003780000000000,US,44.201.37.88,3,44.201.37.88,25.0
MinCPULoad,6000003810000000000,US,44.201.37.88,3,44.201.37.88,56.2
MinCPULoad,6000003840000000000,US,44.201.37.88,3,44.201.37.88,50.0
MinCPULoad,6000003870000000000,US,44.201.37.88,3,44.201.37.88,80.2
MinCPULoad,6000003900000000000,US,44.201.37.88,3,44.201.37.88,10.1
MinCPULoad,6000003930000000000,US,44.201.37.88,3,44.201.37.88,15.1
MinCPULoad,6000003960000000000,US,44.201.37.88,3,44.201.37.88,25.0
MinCPULoad,6000003990000000000,US,44.201.37.88,3,44.201.37.88,56.2
MinCPULoad,6000004020000000000,US,44.201.37.88,3,44.201.37.88,50.0
MinCPULoad,6000004050000000000,US,44.201.37.88,3,44.201.37.88,80.2
MinCPULoad,6000004080000000000,US,44.201.37.88,3,44.201.37.88,10.1
MinCPULoad,6000004110000000000,US,44.201.37.88,3,44.201.37.88,15.1
MinCPULoad,6000004140000000000,US,44.201.37.88,3,44.201.37.88,25.0
MinCPULoad,6000004170000000000,US,44.201.37.88,3,44.201.37.88,56.2
MinCPULoad,6000004200000000000,US,44.201.37.88,3,44.201.37.88,50.0
MinCPULoad,6000004230000000000,US,44.201.37.88,3,44.201.37.88,80.2
MinCPULoad,6000004260000000000,US,44.201.37.88,3,44.201.37.88,10.1
MinCPULoad,6000004290000000000,US,44.201.37.88,3,44.201.37.88,15.1
MinCPULoad,6000004320000000000,US,44.201.37.88,3,44.201.37.88,25.0
MinCPULoad,6000004350000000000,US,44.201.37.88,3,44.201.37.88,56.2
MinCPULoad,6000004380000000000,US,44.201.37.88,3,44.201.37.88,50.0
MinCPULoad,6000004410000000000,US,44.201.37.88,3,44.201.37.88,80.2
MinCPULoad,6000004440000000000,US,44.201.37.88,3,44.201.37.88,10.1
MinCPULoad,6000004470000000000,US,44.201.37.88,3,44.201.37.88,15.1
MinCPULoad,6000004500000000000,US,44.201.37.88,3,44.201.37.88,25.0
MinCPULoad,7000000030000000000,US,44.201.37.88,3,44.201.37.88,56.2
MinCPULoad,7000000060000000000,US,44.201.37.88,3,44.201.37.88,50.0
MinCPULoad,7000000090000000000,US,44.201.37.88,3,44.201.37.88,80.2
MinCPULoad,7000000120000000000,US,44.201.37.88,3,44.201.37.88,10.1
MinCPULoad,7000000150000000000,US,44.201.37.88,3,44.201.37.88,15.1
MinCPULoad,7000000180000000000,US,44.201.37.88,3,44.201.37.88,25.0
MinCPULoad,7000000210000000000,US,44.201.37.88,3,44.201.37.88,56.2
MinCPULoad,7000000240000000000,US,44.201.37.88,3,44.201.37.88,50.0
MinCPULoad,7000000270000000000,US,44.201.37.88,3,44.201.37.88,80.2
MinCPULoad,7000000300000000000,US,44.201.37.88,3,44.201.37.88,10.1
MinCPULoad,7000000330000000000,US,44.201.37.88,3,44.201.37.88,15.1
MinCPULoad,7000000360000000000,US,44.201.37.88,3,44.201.37.88,25.0
MinCPULoad,7000000390000000000,US,44.201.37.88,3,44.201.37.88,56.2
MinCPULoad,7000000420000000000,US,44.201.37.88,3,44.201.37.88,50.0
MinCPULoad,7000000450000000000,US,44.201.37.88,3,44.201.37.88,80.2
MinCPULoad,7000000480000000000,US,44.201.37.88,3,44.201.37.88,10.1
MinCPULoad,7000000510000000000,US,44.201.37.88,3,44.201.37.88,15.1
MinCPULoad,7000000540000000000,US,44.201.37.88,3,44.201.37.88,25.0
MinCPULoad,7000000570000000000,US,44.201.37.88,3,44.201.37.88,56.2
MinCPULoad,7000000600000000000,US,44.201.37.88,3,44.201.37.88,50.0
MinCPULoad,7000000630000000000,US,44.201.37.88,3,44.201.37.88,80.2
MinCPULoad,7000000660000000000,US,44.201.37.88,3,44.201.37.88,10.1
MinCPULoad,7000000690000000000,US,44.201.37.88,3,44.201.37.88,15.1
MinCPULoad,7000000720000000000,US,44.201.37.88,3,44.201.37.88,25.0
MinCPULoad,7000000750000000000,US,44.201.37.88,3,44.201.37.88,56.2
MinCPULoad,7000000780000000000,US,44.201.37.88,3,44.201.37.88,50.0
MinCPULoad,7000000810000000000,US,44.201.37.88,3,44.201.37.88,80.2
MinCPULoad,7000000840000000000,US,44.201.37.88,3,44.201.37.88,10.1
MinCPULoad,7000000870000000000,US,44.201.37.88,3,44.201.37.88,15.1
MinCPULoad,7000000900000000000,US,44.201.37.88,3,44.201.37.88,25.0
MinCPULoad,7000000930000000000,US,44.201.37.88,3,44.201.37.88,56.2
MinCPULoad,7000000960000000000,US,44.201.37.88,3,44.201.37.88,50.0
MinCPULoad,7000000990000000000,US,44.201.37.88,3,44.201.37.88,80.2
MinCPULoad,7000001020000000000,US,44.201.37.88,3,44.201.37.88,10.1
MinCPULoad,7000001050000000000,US,44.201.37.88,3,44.201.37.88,15.1
MinCPULoad,7000001080000000000,US,44.201.37.88,3,44.201.37.88,25.0
MinCPULoad,7000001110000000000,US,44.201.37.88,3,44.201.37.88,56.2
MinCPULoad,7000001140000000000,US,44.201.37.88,3,44.201.37.88,50.0
MinCPULoad,7000001170000000000,US,44.201.37.88,3,44.201.37.88,80.2
MinCPULoad,7000001200000000000,US,44.201.37.88,3,44.201.37.88,10.1
MinCPULoad,7000001230000000000,US,44.201.37.88,3,44.201.37.88,15.1
MinCPULoad,7000001260000000000,US,44.201.37.88,3,44.201.37.88,25.0
MinCPULoad,7000001290000000000,US,44.201.37.88,3,44.201.37.88,56.2
MinCPULoad,7000001320000000000,US,44.201.37.88,3,44.201.37.88,50.0
MinCPULoad,7000001350000000000,US,44.201.37.88,3,44.201.37.88,80.2
MinCPULoad,7000001380000000000,US,44.201.37.88,3,44.201.37.88,10.1
MinCPULoad,7000001410000000000,US,44.201.37.88,3,44.201.37.88,15.1
MinCPULoad,7000001440000000000,US,44.201.37.88,3,44.201.37.88,25.0
MinCPULoad,7000001470000000000,US,44.201.37.88,3,44.201.37.88,56.2
MinCPULoad,7000001500000000000,US,44.201.37.88,3,44.201.37.88,50.0
MinCPULoad,7000001530000000000,US,44.201.37.88,3,44.201.37.88,80.2
MinCPULoad,7000001560000000000,US,44.201.37.88,3,44.201.37.88,10.1
MinCPULoad,7000001590000000000,US,44.201.37.88,3,44.201.37.88,15.1
MinCPULoad,7000001620000000000,US,44.201.37.88,3,44.201.37.88,25.0
MinCPULoad,7000001650000000000,US,44.201.37.88,3,44.201.37.88,56.2
MinCPULoad,7000001680000000000,US,44.201.37.88,3,44.201.37.88,50.0
MinCPULoad,7000001710000000000,US,44.201.37.88,3,44.201.37.88,80.2
MinCPULoad,7000001740000000000,US,44.201.37.88,3,44.201.37.88,10.1
MinCPULoad,7000001770000000000,US,44.201.37.88,3,44.201.37.88,15.1
MinCPULoad,7000001800000000000,US,44.201.37.88,3,44.201.37.88,25.0
MinCPULoad,7000001830000000000,US,44.201.37.88,3,44.201.37.88,56.2
MinCPULoad,7000001860000000000,US,44.201.37.88,3,44.201.37.88,50.0
MinCPULoad,7000001890000000000,US,44.201.37.88,3,44.201.37.88,80.2
MinCPULoad,7000001920000000000,US,44.201.37.88,3,44.201.37.88,10.1
MinCPULoad,7000001950000000000,US,44.201.37.88,3,44.201.37.88,15.1
MinCPULoad,7000001980000000000,US,44.201.37.88,3,44.201.37.88,25.0
MinCPULoad,7000002010000000000,US,44.201.37.88,3,44.201.37.88,56.2
MinCPULoad,7000002040000000000,US,44.201.37.88,3,44.201.37.88,50.0
MinCPULoad,7000002070000000000,US,44.201.37.88,3,44.201.37.88,80.2
MinCPULoad,7000002100000000000,US,44.201.37.88,3,44.201.37.88,10.1
MinCPULoad,7000002130000000000,US,44.201.37.88,3,44.201.37.88,15.1
MinCPULoad,7000002160000000000,US,44.201.37.88,3,44.201.37.88,25.0
MinCPULoad,7000002190000000000,US,44.201.37.88,3,44.201.37.88,56.2
MinCPULoad,7000002220000000000,US,44.201.37.88,3,44.201.37.88,50.0
MinCPULoad,7000002250000000000,US,44.201.37.88,3,44.201.37.88,80.2
MinCPULoad,7000002280000000000,US,44.201.37.88,3,44.201.37.88,10.1
MinCPULoad,7000002310000000000,US,44.201.37.88,3,44.201.37.88,15.1
MinCPULoad,7000002340000000000,US,44.201.37.88,3,44.201.37.88,25.0
MinCPULoad,7000002370000000000,US,44.201.37.88,3,44.201.37.88,56.2
MinCPULoad,7000002400000000000,US,44.201.37.88,3,44.201.37.88,50.0
MinCPULoad,7000002430000000000,US,44.201.37.88,3,44.201.37.88,80.2
MinCPULoad,7000002460000000000,US,44.201.37.88,3,44.201.37.88,10.1
MinCPULoad,7000002490000000000,US,44.201.37.88,3,44.201.37.88,15.1
MinCPULoad,7000002520000000000,US,44.201.37.88,3,44.201.37.88,25.0
MinCPULoad,7000002550000000000,US,44.201.37.88,3,44.201.37.88,56.2
MinCPULoad,7000002580000000000,US,44.201.37.88,3,44.201.37.88,50.0
MinCPULoad,7000002610000000000,US,44.201.37.88,3,44.201.37.88,80.2
MinCPULoad,7000002640000000000,US,44.201.37.88,3,44.201.37.88,10.1
MinCPULoad,7000002670000000000,US,44.201.37.88,3,44.201.37.88,15.1
MinCPULoad,7000002700000000000,US,44.201.37.88,3,44.201.37.88,25.0
MinCPULoad,7000002730000000000,US,44.201.37.88,3,44.201.37.88,56.2
MinCPULoad,7000002760000000000,US,44.201.37.88,3,44.201.37.88,50.0
MinCPULoad,7000002790000000000,US,44.201.37.88,3,44.201.37.88,80.2
MinCPULoad,7000002820000000000,US,44.201.37.88,3,44.201.37.88,10.1
MinCPULoad,7000002850000000000,US,44.201.37.88,3,44.201.37.88,15.1
MinCPULoad,7000002880000000000,US,44.201.37.88,3,44.201.37.88,25.0
MinCPULoad,7000002910000000000,US,44.201.37.88,3,44.201.37.88,56.2
MinCPULoad,7000002940000000000,US,44.201.37.88,3,44.201.37.88,50.0
MinCPULoad,7000002970000000000,US,44.201.37.88,3,44.201.37.88,80.2
MinCPULoad,7000003000000000000,US,44.201.37.88,3,44.201.37.88,10.1
MinCPULoad,7000003030000000000,US,44.201.37.88,3,44.201.37.88,15.1
MinCPULoad,7000003060000000000,US,44.201.37.88,3,44.201.37.88,25.0
MinCPULoad,7000003090000000000,US,44.201.37.88,3,44.201.37.88,56.2
MinCPULoad,7000003120000000000,US,44.201.37.88,3,44.201.37.88,50.0
MinCPULoad,7000003150000000000,US,44.201.37.88,3,44.201.37.88,80.2
MinCPULoad,7000003180000000000,US,44.201.37.88,3,44.201.37.88,10.1
MinCPULoad,7000003210000000000,US,44.201.37.88,3,44.201.37.88,15.1
MinCPULoad,7000003240000000000,US,44.201.37.88,3,44.201.37.88,25.0
MinCPULoad,7000003270000000000,US,44.201.37.88,3,44.201.37.88,56.2
MinCPULoad,7000003300000000000,US,44.201.37.88,3,44.201.37.88,50.0
MinCPULoad,7000003330000000000,US,44.201.37.88,3,44.201.37.88,80.2
MinCPULoad,7000003360000000000,US,44.201.37.88,3,44.201.37.88,10.1
