name,time,cnn_left_conf,cnn_probability,cnn_right_conf,cnn_value,ensembled_left_conf,ensembled_probability,ensembled_right_conf,ensembled_value,nbeats_left_conf,nbeats_probability,nbeats_right_conf,nbeats_value,tft_left_conf,tft_probability,tft_right_conf,tft_value
MinCPULoadPredictions,1645783841252000000,31.2,0.95,35.6,33.2,,,,,2.0,0.95,50.2,25.2,,,,
MinCPULoadPredictions,1645783871252000000,31.2,0.95,35.6,33.2,,,,,,,,,,,,
MinCPULoadPredictions,1645783901252000000,31.2,0.95,35.6,33.2,11.1,0.8,25.6,17.2,2.0,0.95,50.2,25.2,17.2,0.95,19.1,18.0
MinCPULoadPredictions,1645783931252000000,,,,,11.1,0.8,25.6,17.2,2.0,0.95,50.2,25.2,17.2,0.95,19.1,18.0
MinCPULoadPredictions,1645783961252000000,31.2,0.95,35.6,33.2,11.1,0.8,25.6,17.2,2.0,0.95,50.2,25.2,17.2,0.95,19.1,18.0
MinCPULoadPredictions,1645783991252000000,31.2,0.95,35.6,33.2,,,,,2.0,0.95,50.2,25.2,17.2,0.95,19.1,18.0
MinCPULoadPredictions,1645784021252000000,31.2,0.95,35.6,33.2,11.1,0.8,25.6,17.2,2.0,0.95,50.2,25.2,17.2,0.95,19.1,18.0
MinCPULoadPredictions,1645784051252000000,31.2,0.95,35.6,33.2,11.1,0.8,25.6,17.2,2.0,0.95,50.2,25.2,,,,
MinCPULoadPredictions,1645784081252000000,31.2,0.95,35.6,33.2,11.1,0.8,25.6,17.2,2.0,0.95,50.2,25.2,17.2,0.95,19.1,18.0
MinCPULoadPredictions,1645784111252000000,31.2,0.95,35.6,33.2,11.1,0.8,25.6,17.2,2.0,0.95,50.2,25.2,,,,
MinCPULoadPredictions,1645784141252000000,31.2,0.95,35.6,33.2,11.1,0.8,25.6,17.2,,,,,,,,
MinCPULoadPredictions,1645784171252000000,31.2,0.95,35.6,33.2,11.1,0.8,25.6,17.2,2.0,0.95,50.2,25.2,17.2,0.95,19.1,18.0
MinCPULoadPredictions,1645784201252000000,31.2,0.95,35.6,33.2,11.1,0.8,25.6,17.2,,,,,17.2,0.95,19.1,18.0
MinCPULoadPredictions,1645784231252000000,31.2,0.95,35.6,33.2,11.1,0.8,25.6,17.2,2.0,0.95,50.2,25.2,,,,
MinCPULoadPredictions,1645784261252000000,31.2,0.95,35.6,33.2,11.1,0.8,25.6,17.2,2.0,0.95,50.2,25.2,17.2,0.95,19.1,18.0
MinCPULoadPredictions,1645784291252000000,31.2,0.95,35.6,33.2,,,,,2.0,0.95,50.2,25.2,17.2,0.95,19.1,18.0
MinCPULoadPredictions,1645784321252000000,,,,,11.1,0.8,25.6,17.2,2.0,0.95,50.2,25.2,17.2,0.95,19.1,18.0
MinCPULoadPredictions,1645784351252000000,31.2,0.95,35.6,33.2,,,,,,,,,17.2,0.95,19.1,18.0
MinCPULoadPredictions,1645784381252000000,,,,,11.1,0.8,25.6,17.2,2.0,0.95,50.2,25.2,17.2,0.95,19.1,18.0
MinCPULoadPredictions,1645784411252000000,31.2,0.95,35.6,33.2,,,,,2.0,0.95,50.2,25.2,,,,
MinCPULoadPredictions,1645784441252000000,,,,,11.1,0.8,25.6,17.2,,,,,17.2,0.95,19.1,18.0
MinCPULoadPredictions,1645784471252000000,,,,,,,,,,,,,17.2,0.95,19.1,18.0
MinCPULoadPredictions,1645784501252000000,,,,,11.1,0.8,25.6,17.2,,,,,17.2,0.95,19.1,18.0
MinCPULoadPredictions,1645784531252000000,31.2,0.95,35.6,33.2,11.1,0.8,25.6,17.2,,,,,17.2,0.95,19.1,18.0
MinCPULoadPredictions,1645784561252000000,,,,,,,,,,,,,17.2,0.95,19.1,18.0
MinCPULoadPredictions,1645784591252000000,,,,,11.1,0.8,25.6,17.2,,,,,,,,
MinCPULoadPredictions,1645784621252000000,,,,,11.1,0.8,25.6,17.2,2.0,0.95,50.2,25.2,17.2,0.95,19.1,18.0
MinCPULoadPredictions,1645784651252000000,31.2,0.95,35.6,33.2,11.1,0.8,25.6,17.2,,,,,,,,
MinCPULoadPredictions,1645784681252000000,31.2,0.95,35.6,33.2,11.1,0.8,25.6,17.2,2.0,0.95,50.2,25.2,,,,
MinCPULoadPredictions,1645784711252000000,,,,,11.1,0.8,25.6,17.2,,,,,,,,
MinCPULoadPredictions,1645784741252000000,,,,,,,,,2.0,0.95,50.2,25.2,17.2,0.95,19.1,18.0
MinCPULoadPredictions,1645784771252000000,,,,,,,,,2.0,0.95,50.2,25.2,17.2,0.95,19.1,18.0
MinCPULoadPredictions,1645784801252000000,31.2,0.95,35.6,33.2,11.1,0.8,25.6,17.2,2.0,0.95,50.2,25.2,17.2,0.95,19.1,18.0
MinCPULoadPredictions,1645784831252000000,31.2,0.95,35.6,33.2,,,,,2.0,0.95,50.2,25.2,17.2,0.95,19.1,18.0
MinCPULoadPredictions,1645784861252000000,31.2,0.95,35.6,33.2,11.1,0.8,25.6,17.2,,,,,17.2,0.95,19.1,18.0
MinCPULoadPredictions,1645784891252000000,,,,,11.1,0.8,25.6,17.2,2.0,0.95,50.2,25.2,,,,
MinCPULoadPredictions,1645784921252000000,31.2,0.95,35.6,33.2,11.1,0.8,25.6,17.2,2.0,0.95,50.2,25.2,17.2,0.95,19.1,18.0
MinCPULoadPredictions,1645784951252000000,,,,,,,,,,,,,17.2,0.95,19.1,18.0
MinCPULoadPredictions,1645784981252000000,31.2,0.95,35.6,33.2,11.1,0.8,25.6,17.2,2.0,0.95,50.2,25.2,17.2,0.95,19.1,18.0
MinCPULoadPredictions,1645785011252000000,,,,,,,,,,,,,17.2,0.95,19.1,18.0
MinCPULoadPredictions,1645785041252000000,,,,,11.1,0.8,25.6,17.2,,,,,,,,
MinCPULoadPredictions,1645785071252000000,31.2,0.95,35.6,33.2,,,,,2.0,0.95,50.2,25.2,17.2,0.95,19.1,18.0
MinCPULoadPredictions,1645785101252000000,,,,,,,,,2.0,0.95,50.2,25.2,,,,
MinCPULoadPredictions,1645785131252000000,,,,,,,,,,,,,17.2,0.95,19.1,18.0
MinCPULoadPredictions,1645785161252000000,31.2,0.95,35.6,33.2,11.1,0.8,25.6,17.2,2.0,0.95,50.2,25.2,,,,
MinCPULoadPredictions,1645785191252000000,31.2,0.95,35.6,33.2,,,,,2.0,0.95,50.2,25.2,,,,
MinCPULoadPredictions,1645785221252000000,31.2,0.95,35.6,33.2,,,,,,,,,17.2,0.95,19.1,18.0
MinCPULoadPredictions,1645785251252000000,31.2,0.95,35.6,33.2,11.1,0.8,25.6,17.2,,,,,,,,
MinCPULoadPredictions,1645785281252000000,,,,,,,,,2.0,0.95,50.2,25.2,,,,
MinCPULoadPredictions,1645785311252000000,31.2,0.95,35.6,33.2,11.1,0.8,25.6,17.2,2.0,0.95,50.2,25.2,,,,
MinCPULoadPredictions,1645785341252000000,31.2,0.95,35.6,33.2,11.1,0.8,25.6,17.2,2.0,0.95,50.2,25.2,17.2,0.95,19.1,18.0
MinCPULoadPredictions,1645785371252000000,,,,,,,,,2.0,0.95,50.2,25.2,,,,
MinCPULoadPredictions,1645785401252000000,31.2,0.95,35.6,33.2,11.1,0.8,25.6,17.2,,,,,17.2,0.95,19.1,18.0
MinCPULoadPredictions,1645785431252000000,,,,,11.1,0.8,25.6,17.2,2.0,0.95,50.2,25.2,17.2,0.95,19.1,18.0
MinCPULoadPredictions,1645785461252000000,31.2,0.95,35.6,33.2,11.1,0.8,25.6,17.2,2.0,0.95,50.2,25.2,17.2,0.95,19.1,18.0
MinCPULoadPredictions,1645785491252000000,31.2,0.95,35.6,33.2,,,,,2.0,0.95,50.2,25.2,17.2,0.95,19.1,18.0
MinCPULoadPredictions,1645785521252000000,,,,,11.1,0.8,25.6,17.2,,,,,,,,
MinCPULoadPredictions,1645785551252000000,31.2,0.95,35.6,33.2,11.1,0.8,25.6,17.2,2.0,0.95,50.2,25.2,17.2,0.95,19.1,18.0
MinCPULoadPredictions,1645785581252000000,31.2,0.95,35.6,33.2,11.1,0.8,25.6,17.2,2.0,0.95,50.2,25.2,17.2,0.95,19.1,18.0
MinCPULoadPredictions,1645785611252000000,31.2,0.95,35.6,33.2,11.1,0.8,25.6,17.2,2.0,0.95,50.2,25.2,17.2,0.95,19.1,18.0
MinCPULoadPredictions,1645785641252000000,31.2,0.95,35.6,33.2,11.1,0.8,25.6,17.2,,,,,17.2,0.95,19.1,18.0
MinCPULoadPredictions,1645785671252000000,31.2,0.95,35.6,33.2,11.1,0.8,25.6,17.2,2.0,0.95,50.2,25.2,17.2,0.95,19.1,18.0
MinCPULoadPredictions,1645785701252000000,31.2,0.95,35.6,33.2,11.1,0.8,25.6,17.2,2.0,0.95,50.2,25.2,,,,
MinCPULoadPredictions,1645785731252000000,31.2,0.95,35.6,33.2,,,,,2.0,0.95,50.2,25.2,17.2,0.95,19.1,18.0
MinCPULoadPredictions,1645785761252000000,,,,,,,,,2.0,0.95,50.2,25.2,,,,
MinCPULoadPredictions,1645785791252000000,,,,,11.1,0.8,25.6,17.2,2.0,0.95,50.2,25.2,17.2,0.95,19.1,18.0
MinCPULoadPredictions,1645785821252000000,,,,,11.1,0.8,25.6,17.2,,,,,,,,
MinCPULoadPredictions,1645785851252000000,31.2,0.95,35.6,33.2,,,,,,,,,,,,
MinCPULoadPredictions,1645785881252000000,,,,,11.1,0.8,25.6,17.2,,,,,,,,
MinCPULoadPredictions,1645785911252000000,,,,,,,,,2.0,0.95,50.2,25.2,17.2,0.95,19.1,18.0
MinCPULoadPredictions,1645785941252000000,31.2,0.95,35.6,33.2,11.1,0.8,25.6,17.2,2.0,0.95,50.2,25.2,17.2,0.95,19.1,18.0
MinCPULoadPredictions,1645785971252000000,31.2,0.95,35.6,33.2,11.1,0.8,25.6,17.2,2.0,0.95,50.2,25.2,,,,
MinCPULoadPredictions,1645786001252000000,,,,,,,,,2.0,0.95,50.2,25.2,17.2,0.95,19.1,18.0
MinCPULoadPredictions,1645786031252000000,31.2,0.95,35.6,33.2,,,,,2.0,0.95,50.2,25.2,17.2,0.95,19.1,18.0
MinCPULoadPredictions,1645786061252000000,,,,,,,,,2.0,0.95,50.2,25.2,,,,
MinCPULoadPredictions,1645786091252000000,,,,,,,,,,,,,17.2,0.95,19.1,18.0
MinCPULoadPredictions,1645786121252000000,31.2,0.95,35.6,33.2,11.1,0.8,25.6,17.2,,,,,17.2,0.95,19.1,18.0
MinCPULoadPredictions,1645786151252000000,,,,,,,,,2.0,0.95,50.2,25.2,,,,
MinCPULoadPredictions,1645786181252000000,31.2,0.95,35.6,33.2,,,,,,,,,17.2,0.95,19.1,18.0
MinCPULoadPredictions,1645786211252000000,,,,,11.1,0.8,25.6,17.2,2.0,0.95,50.2,25.2,17.2,0.95,19.1,18.0
MinCPULoadPredictions,1645786241252000000,,,,,11.1,0.8,25.6,17.2,2.0,0.95,50.2,25.2,17.2,0.95,19.1,18.0
MinCPULoadPredictions,1645786271252000000,31.2,0.95,35.6,33.2,11.1,0.8,25.6,17.2,2.0,0.95,50.2,25.2,,,,
MinCPULoadPredictions,1645786301252000000,,,,,11.1,0.8,25.6,17.2,2.0,0.95,50.2,25.2,,,,
MinCPULoadPredictions,1645786331252000000,,,,,,,,,2.0,0.95,50.2,25.2,17.2,0.95,19.1,18.0
MinCPULoadPredictions,1645786361252000000,31.2,0.95,35.6,33.2,11.1,0.8,25.6,17.2,2.0,0.95,50.2,25.2,,,,
MinCPULoadPredictions,1645786391252000000,,,,,11.1,0.8,25.6,17.2,2.0,0.95,50.2,25.2,,,,
MinCPULoadPredictions,1645786421252000000,31.2,0.95,35.6,33.2,11.1,0.8,25.6,17.2,2.0,0.95,50.2,25.2,,,,
MinCPULoadPredictions,1645786451252000000,31.2,0.95,35.6,33.2,,,,,,,,,,,,
MinCPULoadPredictions,1645786481252000000,31.2,0.95,35.6,33.2,11.1,0.8,25.6,17.2,2.0,0.95,50.2,25.2,17.2,0.95,19.1,18.0
MinCPULoadPredictions,1645786511252000000,,,,,11.1,0.8,25.6,17.2,2.0,0.95,50.2,25.2,,,,
MinCPULoadPredictions,1645786541252000000,,,,,,,,,2.0,0.95,50.2,25.2,,,,
MinCPULoadPredictions,1645786571252000000,,,,,11.1,0.8,25.6,17.2,,,,,,,,
MinCPULoadPredictions,1645786601252000000,,,,,,,,,2.0,0.95,50.2,25.2,,,,
MinCPULoadPredictions,1645786631252000000,31.2,0.95,35.6,33.2,11.1,0.8,25.6,17.2,2.0,0.95,50.2,25.2,17.2,0.95,19.1,18.0
MinCPULoadPredictions,1645786661252000000,,,,,11.1,0.8,25.6,17.2,,,,,17.2,0.95,19.1,18.0
MinCPULoadPredictions,1645786691252000000,,,,,11.1,0.8,25.6,17.2,,,,,,,,
MinCPULoadPredictions,1645786721252000000,31.2,0.95,35.6,33.2,11.1,0.8,25.6,17.2,2.0,0.95,50.2,25.2,,,,
MinCPULoadPredictions,1645786751252000000,31.2,0.95,35.6,33.2,,,,,,,,,,,,
MinCPULoadPredictions,1645786781252000000,31.2,0.95,35.6,33.2,,,,,,,,,17.2,0.95,19.1,18.0
MinCPULoadPredictions,1645786811252000000,31.2,0.95,35.6,33.2,11.1,0.8,25.6,17.2,2.0,0.95,50.2,25.2,17.2,0.95,19.1,18.0
MinCPULoadPredictions,1645786841252000000,31.2,0.95,35.6,33.2,11.1,0.8,25.6,17.2,,,,,17.2,0.95,19.1,18.0
MinCPULoadPredictions,1645786871252000000,31.2,0.95,35.6,33.2,11.1,0.8,25.6,17.2,2.0,0.95,50.2,25.2,17.2,0.95,19.1,18.0
MinCPULoadPredictions,1645786901252000000,31.2,0.95,35.6,33.2,11.1,0.8,25.6,17.2,2.0,0.95,50.2,25.2,17.2,0.95,19.1,18.0
MinCPULoadPredictions,1645786931252000000,31.2,0.95,35.6,33.2,11.1,0.8,25.6,17.2,,,,,17.2,0.95,19.1,18.0
MinCPULoadPredictions,1645786961252000000,31.2,0.95,35.6,33.2,,,,,2.0,0.95,50.2,25.2,,,,
MinCPULoadPredictions,1645786991252000000,31.2,0.95,35.6,33.2,11.1,0.8,25.6,17.2,2.0,0.95,50.2,25.2,,,,
MinCPULoadPredictions,1645787021252000000,,,,,11.1,0.8,25.6,17.2,2.0,0.95,50.2,25.2,,,,
MinCPULoadPredictions,1645787051252000000,31.2,0.95,35.6,33.2,11.1,0.8,25.6,17.2,2.0,0.95,50.2,25.2,,,,
MinCPULoadPredictions,1645787081252000000,31.2,0.95,35.6,33.2,11.1,0.8,25.6,17.2,2.0,0.95,50.2,25.2,,,,
MinCPULoadPredictions,1645787111252000000,,,,,,,,,,,,,17.2,0.95,19.1,18.0
MinCPULoadPredictions,1645787141252000000,,,,,,,,,,,,,17.2,0.95,19.1,18.0
MinCPULoadPredictions,1645787171252000000,31.2,0.95,35.6,33.2,11.1,0.8,25.6,17.2,2.0,0.95,50.2,25.2,17.2,0.95,19.1,18.0
MinCPULoadPredictions,1645787201252000000,,,,,11.1,0.8,25.6,17.2,,,,,,,,
MinCPULoadPredictions,1645787231252000000,31.2,0.95,35.6,33.2,11.1,0.8,25.6,17.2,2.0,0.95,50.2,25.2,17.2,0.95,19.1,18.0
MinCPULoadPredictions,1645787261252000000,,,,,11.1,0.8,25.6,17.2,2.0,0.95,50.2,25.2,17.2,0.95,19.1,18.0
MinCPULoadPredictions,1645787291252000000,,,,,11.1,0.8,25.6,17.2,,,,,17.2,0.95,19.1,18.0
MinCPULoadPredictions,1645787321252000000,31.2,0.95,35.6,33.2,11.1,0.8,25.6,17.2,2.0,0.95,50.2,25.2,17.2,0.95,19.1,18.0
MinCPULoadPredictions,1645787351252000000,,,,,11.1,0.8,25.6,17.2,,,,,17.2,0.95,19.1,18.0
MinCPULoadPredictions,1645787381252000000,31.2,0.95,35.6,33.2,11.1,0.8,25.6,17.2,2.0,0.95,50.2,25.2,17.2,0.95,19.1,18.0
MinCPULoadPredictions,1645787411252000000,31.2,0.95,35.6,33.2,11.1,0.8,25.6,17.2,,,,,17.2,0.95,19.1,18.0
MinCPULoadPredictions,1645787441252000000,,,,,,,,,2.0,0.95,50.2,25.2,17.2,0.95,19.1,18.0
MinCPULoadPredictions,1645787471252000000,,,,,,,,,2.0,0.95,50.2,25.2,,,,
MinCPULoadPredictions,1645787501252000000,,,,,,,,,2.0,0.95,50.2,25.2,17.2,0.95,19.1,18.0
MinCPULoadPredictions,1645787531252000000,31.2,0.95,35.6,33.2,11.1,0.8,25.6,17.2,2.0,0.95,50.2,25.2,17.2,0.95,19.1,18.0
MinCPULoadPredictions,1645787561252000000,,,,,,,,,2.0,0.95,50.2,25.2,,,,
MinCPULoadPredictions,1645787591252000000,31.2,0.95,35.6,33.2,11.1,0.8,25.6,17.2,2.0,0.95,50.2,25.2,17.2,0.95,19.1,18.0
MinCPULoadPredictions,1645787621252000000,31.2,0.95,35.6,33.2,11.1,0.8,25.6,17.2,2.0,0.95,50.2,25.2,17.2,0.95,19.1,18.0
MinCPULoadPredictions,1645787651252000000,31.2,0.95,35.6,33.2,,,,,2.0,0.95,50.2,25.2,,,,
MinCPULoadPredictions,1645787681252000000,31.2,0.95,35.6,33.2,11.1,0.8,25.6,17.2,2.0,0.95,50.2,25.2,17.2,0.95,19.1,18.0
MinCPULoadPredictions,1645787711252000000,31.2,0.95,35.6,33.2,11.1,0.8,25.6,17.2,2.0,0.95,50.2,25.2,17.2,0.95,19.1,18.0
MinCPULoadPredictions,1645787741252000000,31.2,0.95,35.6,33.2,,,,,,,,,17.2,0.95,19.1,18.0
MinCPULoadPredictions,1645787771252000000,31.2,0.95,35.6,33.2,11.1,0.8,25.6,17.2,2.0,0.95,50.2,25.2,17.2,0.95,19.1,18.0
MinCPULoadPredictions,1645787801252000000,,,,,11.1,0.8,25.6,17.2,,,,,17.2,0.95,19.1,18.0
MinCPULoadPredictions,1645787831252000000,,,,,11.1,0.8,25.6,17.2,,,,,17.2,0.95,19.1,18.0
MinCPULoadPredictions,1645787861252000000,,,,,11.1,0.8,25.6,17.2,2.0,0.95,50.2,25.2,17.2,0.95,19.1,18.0
MinCPULoadPredictions,1645787891252000000,31.2,0.95,35.6,33.2,11.1,0.8,25.6,17.2,2.0,0.95,50.2,25.2,,,,
MinCPULoadPredictions,1645787921252000000,,,,,,,,,,,,,17.2,0.95,19.1,18.0
MinCPULoadPredictions,1645787951252000000,31.2,0.95,35.6,33.2,11.1,0.8,25.6,17.2,2.0,0.95,50.2,25.2,17.2,0.95,19.1,18.0
MinCPULoadPredictions,1645787981252000000,31.2,0.95,35.6,33.2,,,,,,,,,17.2,0.95,19.1,18.0
MinCPULoadPredictions,1645788011252000000,,,,,11.1,0.8,25.6,17.2,2.0,0.95,50.2,25.2,17.2,0.95,19.1,18.0
MinCPULoadPredictions,1645788041252000000,,,,,,,,,,,,,17.2,0.95,19.1,18.0
MinCPULoadPredictions,1645788071252000000,,,,,,,,,2.0,0.95,50.2,25.2,,,,
MinCPULoadPredictions,1645788101252000000,31.2,0.95,35.6,33.2,11.1,0.8,25.6,17.2,2.0,0.95,50.2,25.2,17.2,0.95,19.1,18.0
MinCPULoadPredictions,1645788131252000000,,,,,11.1,0.8,25.6,17.2,2.0,0.95,50.2,25.2,,,,
MinCPULoadPredictions,1645788161252000000,31.2,0.95,35.6,33.2,11.1,0.8,25.6,17.2,2.0,0.95,50.2,25.2,17.2,0.95,19.1,18.0
MinCPULoadPredictions,1645788191252000000,31.2,0.95,35.6,33.2,11.1,0.8,25.6,17.2,,,,,,,,
MinCPULoadPredictions,1645788221252000000,31.2,0.95,35.6,33.2,11.1,0.8,25.6,17.2,,,,,17.2,0.95,19.1,18.0
MinCPULoadPredictions,1645788251252000000,31.2,0.95,35.6,33.2,11.1,0.8,25.6,17.2,2.0,0.95,50.2,25.2,17.2,0.95,19.1,18.0
MinCPULoadPredictions,1645788281252000000,31.2,0.95,35.6,33.2,,,,,2.0,0.95,50.2,25.2,,,,
MinCPULoadPredictions,1645788311252000000,31.2,0.95,35.6,33.2,11.1,0.8,25.6,17.2,,,,,,,,
MinCPULoadPredictions,1645788341252000000,31.2,0.95,35.6,33.2,11.1,0.8,25.6,17.2,2.0,0.95,50.2,25.2,17.2,0.95,19.1,18.0
MinCPULoadPredictions,1645788371252000000,31.2,0.95,35.6,33.2,,,,,2.0,0.95,50.2,25.2,,,,
MinCPULoadPredictions,1645788401252000000,31.2,0.95,35.6,33.2,,,,,2.0,0.95,50.2,25.2,17.2,0.95,19.1,18.0
MinCPULoadPredictions,1645788431252000000,31.2,0.95,35.6,33.2,11.1,0.8,25.6,17.2,2.0,0.95,50.2,25.2,,,,
MinCPULoadPredictions,1645788461252000000,,,,,,,,,2.0,0.95,50.2,25.2,17.2,0.95,19.1,18.0
MinCPULoadPredictions,1645788491252000000,31.2,0.95,35.6,33.2,11.1,0.8,25.6,17.2,2.0,0.95,50.2,25.2,17.2,0.95,19.1,18.0
MinCPULoadPredictions,1645788521252000000,31.2,0.95,35.6,33.2,11.1,0.8,25.6,17.2,2.0,0.95,50.2,25.2,,,,
MinCPULoadPredictions,1645788551252000000,31.2,0.95,35.6,33.2,11.1,0.8,25.6,17.2,2.0,0.95,50.2,25.2,,,,
MinCPULoadPredictions,1645788581252000000,,,,,11.1,0.8,25.6,17.2,2.0,0.95,50.2,25.2,17.2,0.95,19.1,18.0
MinCPULoadPredictions,1645788611252000000,,,,,11.1,0.8,25.6,17.2,2.0,0.95,50.2,25.2,,,,
MinCPULoadPredictions,1645788641252000000,31.2,0.95,35.6,33.2,,,,,,,,,,,,
MinCPULoadPredictions,1645788671252000000,31.2,0.95,35.6,33.2,,,,,,,,,,,,
MinCPULoadPredictions,1645788701252000000,31.2,0.95,35.6,33.2,11.1,0.8,25.6,17.2,2.0,0.95,50.2,25.2,17.2,0.95,19.1,18.0
MinCPULoadPredictions,1645788731252000000,,,,,,,,,,,,,17.2,0.95,19.1,18.0
MinCPULoadPredictions,1645788761252000000,,,,,11.1,0.8,25.6,17.2,,,,,17.2,0.95,19.1,18.0
MinCPULoadPredictions,1645788791252000000,,,,,11.1,0.8,25.6,17.2,2.0,0.95,50.2,25.2,17.2,0.95,19.1,18.0
MinCPULoadPredictions,1645788821252000000,31.2,0.95,35.6,33.2,11.1,0.8,25.6,17.2,2.0,0.95,50.2,25.2,17.2,0.95,19.1,18.0
MinCPULoadPredictions,1645788851252000000,31.2,0.95,35.6,33.2,11.1,0.8,25.6,17.2,2.0,0.95,50.2,25.2,,,,
MinCPULoadPredictions,1645788881252000000,,,,,11.1,0.8,25.6,17.2,2.0,0.95,50.2,25.2,17.2,0.95,19.1,18.0
MinCPULoadPredictions,1645788911252000000,,,,,11.1,0.8,25.6,17.2,,,,,17.2,0.95,19.1,18.0
MinCPULoadPredictions,1645788941252000000,31.2,0.95,35.6,33.2,11.1,0.8,25.6,17.2,2.0,0.95,50.2,25.2,17.2,0.95,19.1,18.0
MinCPULoadPredictions,1645788971252000000,31.2,0.95,35.6,33.2,11.1,0.8,25.6,17.2,2.0,0.95,50.2,25.2,17.2,0.95,19.1,18.0
MinCPULoadPredictions,1645789001252000000,31.2,0.95,35.6,33.2,,,,,2.0,0.95,50.2,25.2,17.2,0.95,19.1,18.0
MinCPULoadPredictions,1645789031252000000,31.2,0.95,35.6,33.2,11.1,0.8,25.6,17.2,2.0,0.95,50.2,25.2,17.2,0.95,19.1,18.0
MinCPULoadPredictions,1645789061252000000,31.2,0.95,35.6,33.2,,,,,,,,,17.2,0.95,19.1,18.0
MinCPULoadPredictions,1645789091252000000,31.2,0.95,35.6,33.2,,,,,2.0,0.95,50.2,25.2,,,,
MinCPULoadPredictions,1645789121252000000,,,,,,,,,,,,,17.2,0.95,19.1,18.0
MinCPULoadPredictions,1645789151252000000,31.2,0.95,35.6,33.2,11.1,0.8,25.6,17.2,,,,,17.2,0.95,19.1,18.0
MinCPULoadPredictions,1645789181252000000,31.2,0.95,35.6,33.2,,,,,,,,,,,,
MinCPULoadPredictions,1645789211252000000,31.2,0.95,35.6,33.2,,,,,,,,,,,,
MinCPULoadPredictions,1645789241252000000,31.2,0.95,35.6,33.2,,,,,2.0,0.95,50.2,25.2,17.2,0.95,19.1,18.0
MinCPULoadPredictions,1645789271252000000,31.2,0.95,35.6,33.2,,,,,2.0,0.95,50.2,25.2,17.2,0.95,19.1,18.0
MinCPULoadPredictions,1645789301252000000,,,,,11.1,0.8,25.6,17.2,2.0,0.95,50.2,25.2,,,,
MinCPULoadPredictions,1645789331252000000,,,,,11.1,0.8,25.6,17.2,2.0,0.95,50.2,25.2,,,,
MinCPULoadPredictions,1645789361252000000,31.2,0.95,35.6,33.2,11.1,0.8,25.6,17.2,2.0,0.95,50.2,25.2,17.2,0.95,19.1,18.0
MinCPULoadPredictions,1645789391252000000,,,,,,,,,2.0,0.95,50.2,25.2,,,,
MinCPULoadPredictions,1645789421252000000,31.2,0.95,35.6,33.2,11.1,0.8,25.6,17.2,,,,,17.2,0.95,19.1,18.0
MinCPULoadPredictions,1645789451252000000,,,,,11.1,0.8,25.6,17.2,,,,,,,,
MinCPULoadPredictions,1645789481252000000,31.2,0.95,35.6,33.2,,,,,,,,,,,,
MinCPULoadPredictions,1645789511252000000,,,,,,,,,2.0,0.95,50.2,25.2,,,,
MinCPULoadPredictions,1645789541252000000,31.2,0.95,35.6,33.2,11.1,0.8,25.6,17.2,2.0,0.95,50.2,25.2,17.2,0.95,19.1,18.0
MinCPULoadPredictions,1645789571252000000,31.2,0.95,35.6,33.2,11.1,0.8,25.6,17.2,,,,,17.2,0.95,19.1,18.0
MinCPULoadPredictions,1645789601252000000,31.2,0.95,35.6,33.2,,,,,,,,,,,,
MinCPULoadPredictions,1645789631252000000,,,,,11.1,0.8,25.6,17.2,,,,,,,,
MinCPULoadPredictions,1645789661252000000,31.2,0.95,35.6,33.2,,,,,2.0,0.95,50.2,25.2,,,,
MinCPULoadPredictions,1645789691252000000,,,,,,,,,2.0,0.95,50.2,25.2,17.2,0.95,19.1,18.0
MinCPULoadPredictions,1645789721252000000,31.2,0.95,35.6,33.2,11.1,0.8,25.6,17.2,2.0,0.95,50.2,25.2,,,,
MinCPULoadPredictions,1645789751252000000,31.2,0.95,35.6,33.2,,,,,,,,,17.2,0.95,19.1,18.0
MinCPULoadPredictions,1645789781252000000,,,,,11.1,0.8,25.6,17.2,2.0,0.95,50.2,25.2,17.2,0.95,19.1,18.0
MinCPULoadPredictions,1645789811252000000,,,,,,,,,,,,,17.2,0.95,19.1,18.0
MinCPULoadPredictions,1645789841252000000,,,,,11.1,0.8,25.6,17.2,2.0,0.95,50.2,25.2,,,,
MinCPULoadPredictions,1645789871252000000,,,,,,,,,,,,,17.2,0.95,19.1,18.0
MinCPULoadPredictions,1645789901252000000,31.2,0.95,35.6,33.2,,,,,,,,,17.2,0.95,19.1,18.0
MinCPULoadPredictions,1645789931252000000,31.2,0.95,35.6,33.2,,,,,,,,,17.2,0.95,19.1,18.0
MinCPULoadPredictions,1645789961252000000,,,,,11.1,0.8,25.6,17.2,,,,,,,,
MinCPULoadPredictions,1645789991252000000,31.2,0.95,35.6,33.2,11.1,0.8,25.6,17.2,2.0,0.95,50.2,25.2,17.2,0.95,19.1,18.0
MinCPULoadPredictions,1645790021252000000,31.2,0.95,35.6,33.2,,,,,,,,,,,,
MinCPULoadPredictions,1645790051252000000,,,,,11.1,0.8,25.6,17.2,2.0,0.95,50.2,25.2,17.2,0.95,19.1,18.0
MinCPULoadPredictions,1645790081252000000,31.2,0.95,35.6,33.2,11.1,0.8,25.6,17.2,2.0,0.95,50.2,25.2,17.2,0.95,19.1,18.0
MinCPULoadPredictions,1645790111252000000,31.2,0.95,35.6,33.2,,,,,,,,,,,,
MinCPULoadPredictions,1645790141252000000,31.2,0.95,35.6,33.2,11.1,0.8,25.6,17.2,2.0,0.95,50.2,25.2,,,,
MinCPULoadPredictions,1645790171252000000,31.2,0.95,35.6,33.2,,,,,2.0,0.95,50.2,25.2,17.2,0.95,19.1,18.0
MinCPULoadPredictions,1645790201252000000,31.2,0.95,35.6,33.2,11.1,0.8,25.6,17.2,2.0,0.95,50.2,25.2,17.2,0.95,19.1,18.0
MinCPULoadPredictions,1645790231252000000,,,,,,,,,,,,,17.2,0.95,19.1,18.0
MinCPULoadPredictions,1645790261252000000,,,,,11.1,0.8,25.6,17.2,2.0,0.95,50.2,25.2,,,,
MinCPULoadPredictions,1645790291252000000,,,,,11.1,0.8,25.6,17.2,,,,,,,,
MinCPULoadPredictions,1645790321252000000,,,,,11.1,0.8,25.6,17.2,2.0,0.95,50.2,25.2,17.2,0.95,19.1,18.0
MinCPULoadPredictions,1645790351252000000,31.2,0.95,35.6,33.2,11.1,0.8,25.6,17.2,,,,,17.2,0.95,19.1,18.0
MinCPULoadPredictions,1645790381252000000,,,,,11.1,0.8,25.6,17.2,,,,,,,,
MinCPULoadPredictions,1645790411252000000,31.2,0.95,35.6,33.2,11.1,0.8,25.6,17.2,2.0,0.95,50.2,25.2,,,,
MinCPULoadPredictions,1645790441252000000,31.2,0.95,35.6,33.2,11.1,0.8,25.6,17.2,2.0,0.95,50.2,25.2,17.2,0.95,19.1,18.0
MinCPULoadPredictions,1645790471252000000,31.2,0.95,35.6,33.2,11.1,0.8,25.6,17.2,2.0,0.95,50.2,25.2,17.2,0.95,19.1,18.0
MinCPULoadPredictions,1645790501252000000,,,,,11.1,0.8,25.6,17.2,2.0,0.95,50.2,25.2,17.2,0.95,19.1,18.0
MinCPULoadPredictions,1645790531252000000,31.2,0.95,35.6,33.2,11.1,0.8,25.6,17.2,2.0,0.95,50.2,25.2,,,,
MinCPULoadPredictions,1645790561252000000,,,,,11.1,0.8,25.6,17.2,,,,,,,,
MinCPULoadPredictions,1645790591252000000,,,,,11.1,0.8,25.6,17.2,,,,,17.2,0.95,19.1,18.0
MinCPULoadPredictions,1645790621252000000,31.2,0.95,35.6,33.2,11.1,0.8,25.6,17.2,,,,,17.2,0.95,19.1,18.0
MinCPULoadPredictions,1645790651252000000,31.2,0.95,35.6,33.2,,,,,2.0,0.95,50.2,25.2,17.2,0.95,19.1,18.0
MinCPULoadPredictions,1645790681252000000,,,,,,,,,2.0,0.95,50.2,25.2,,,,
MinCPULoadPredictions,1645790711252000000,31.2,0.95,35.6,33.2,11.1,0.8,25.6,17.2,2.0,0.95,50.2,25.2,17.2,0.95,19.1,18.0
MinCPULoadPredictions,1645790741252000000,31.2,0.95,35.6,33.2,11.1,0.8,25.6,17.2,,,,,17.2,0.95,19.1,18.0
MinCPULoadPredictions,1645790771252000000,,,,,,,,,,,,,17.2,0.95,19.1,18.0
MinCPULoadPredictions,1645790801252000000,,,,,,,,,2.0,0.95,50.2,25.2,,,,
MinCPULoadPredictions,1645790831252000000,,,,,11.1,0.8,25.6,17.2,,,,,,,,
MinCPULoadPredictions,1645790861252000000,31.2,0.95,35.6,33.2,11.1,0.8,25.6,17.2,2.0,0.95,50.2,25.2,17.2,0.95,19.1,18.0
MinCPULoadPredictions,1645790891252000000,31.2,0.95,35.6,33.2,11.1,0.8,25.6,17.2,2.0,0.95,50.2,25.2,17.2,0.95,19.1,18.0
MinCPULoadPredictions,1645790921252000000,,,,,,,,,,,,,17.2,0.95,19.1,18.0
MinCPULoadPredictions,1645790951252000000,31.2,0.95,35.6,33.2,11.1,0.8,25.6,17.2,2.0,0.95,50.2,25.2,17.2,0.95,19.1,18.0
MinCPULoadPredictions,1645790981252000000,31.2,0.95,35.6,33.2,,,,,,,,,,,,
MinCPULoadPredictions,1645791011252000000,31.2,0.95,35.6,33.2,11.1,0.8,25.6,17.2,2.0,0.95,50.2,25.2,,,,
MinCPULoadPredictions,1645791041252000000,31.2,0.95,35.6,33.2,11.1,0.8,25.6,17.2,,,,,17.2,0.95,19.1,18.0
MinCPULoadPredictions,1645791071252000000,31.2,0.95,35.6,33.2,11.1,0.8,25.6,17.2,,,,,,,,
MinCPULoadPredictions,1645791101252000000,31.2,0.95,35.6,33.2,11.1,0.8,25.6,17.2,,,,,17.2,0.95,19.1,18.0
MinCPULoadPredictions,1645791131252000000,,,,,,,,,2.0,0.95,50.2,25.2,17.2,0.95,19.1,18.0
MinCPULoadPredictions,1645791161252000000,31.2,0.95,35.6,33.2,11.1,0.8,25.6,17.2,2.0,0.95,50.2,25.2,,,,
MinCPULoadPredictions,1645791191252000000,,,,,,,,,2.0,0.95,50.2,25.2,,,,
MinCPULoadPredictions,1645791221252000000,31.2,0.95,35.6,33.2,11.1,0.8,25.6,17.2,2.0,0.95,50.2,25.2,17.2,0.95,19.1,18.0
MinCPULoadPredictions,1645791251252000000,31.2,0.95,35.6,33.2,11.1,0.8,25.6,17.2,2.0,0.95,50.2,25.2,,,,
MinCPULoadPredictions,1645791281252000000,31.2,0.95,35.6,33.2,11.1,0.8,25.6,17.2,2.0,0.95,50.2,25.2,17.2,0.95,19.1,18.0
MinCPULoadPredictions,1645791311252000000,31.2,0.95,35.6,33.2,11.1,0.8,25.6,17.2,2.0,0.95,50.2,25.2,17.2,0.95,19.1,18.0
MinCPULoadPredictions,1645791341252000000,,,,,11.1,0.8,25.6,17.2,,,,,,,,
MinCPULoadPredictions,1645791371252000000,31.2,0.95,35.6,33.2,11.1,0.8,25.6,17.2,2.0,0.95,50.2,25.2,17.2,0.95,19.1,18.0
MinCPULoadPredictions,1645791401252000000,,,,,11.1,0.8,25.6,17.2,,,,,,,,
MinCPULoadPredictions,1645791431252000000,31.2,0.95,35.6,33.2,,,,,,,,,,,,
MinCPULoadPredictions,1645791461252000000,,,,,11.1,0.8,25.6,17.2,2.0,0.95,50.2,25.2,17.2,0.95,19.1,18.0
MinCPULoadPredictions,1645791491252000000,31.2,0.95,35.6,33.2,11.1,0.8,25.6,17.2,2.0,0.95,50.2,25.2,17.2,0.95,19.1,18.0
MinCPULoadPredictions,1645791521252000000,,,,,11.1,0.8,25.6,17.2,2.0,0.95,50.2,25.2,,,,
MinCPULoadPredictions,1645791551252000000,31.2,0.95,35.6,33.2,,,,,,,,,17.2,0.95,19.1,18.0
MinCPULoadPredictions,1645791581252000000,31.2,0.95,35.6,33.2,,,,,2.0,0.95,50.2,25.2,,,,
MinCPULoadPredictions,1645791611252000000,31.2,0.95,35.6,33.2,,,,,,,,,17.2,0.95,19.1,18.0
MinCPULoadPredictions,1645791641252000000,,,,,11.1,0.8,25.6,17.2,,,,,,,,
MinCPULoadPredictions,1645791671252000000,,,,,,,,,,,,,17.2,0.95,19.1,18.0
MinCPULoadPredictions,1645791701252000000,31.2,0.95,35.6,33.2,11.1,0.8,25.6,17.2,2.0,0.95,50.2,25.2,17.2,0.95,19.1,18.0
MinCPULoadPredictions,1645791731252000000,31.2,0.95,35.6,33.2,11.1,0.8,25.6,17.2,2.0,0.95,50.2,25.2,17.2,0.95,19.1,18.0
MinCPULoadPredictions,1645791761252000000,31.2,0.95,35.6,33.2,11.1,0.8,25.6,17.2,2.0,0.95,50.2,25.2,17.2,0.95,19.1,18.0
MinCPULoadPredictions,1645791791252000000,31.2,0.95,35.6,33.2,11.1,0.8,25.6,17.2,2.0,0.95,50.2,25.2,17.2,0.95,19.1,18.0
MinCPULoadPredictions,1645791821252000000,,,,,,,,,,,,,17.2,0.95,19.1,18.0
MinCPULoadPredictions,1645791851252000000,,,,,11.1,0.8,25.6,17.2,,,,,,,,
MinCPULoadPredictions,1645791881252000000,31.2,0.95,35.6,33.2,,,,,,,,,,,,
MinCPULoadPredictions,1645791911252000000,31.2,0.95,35.6,33.2,11.1,0.8,25.6,17.2,,,,,,,,
MinCPULoadPredictions,1645791941252000000,,,,,11.1,0.8,25.6,17.2,,,,,,,,
MinCPULoadPredictions,1645791971252000000,31.2,0.95,35.6,33.2,11.1,0.8,25.6,17.2,2.0,0.95,50.2,25.2,17.2,0.95,19.1,18.0
MinCPULoadPredictions,1645792001252000000,31.2,0.95,35.6,33.2,,,,,,,,,17.2,0.95,19.1,18.0
MinCPULoadPredictions,1645792031252000000,31.2,0.95,35.6,33.2,11.1,0.8,25.6,17.2,2.0,0.95,50.2,25.2,17.2,0.95,19.1,18.0
MinCPULoadPredictions,1645792061252000000,31.2,0.95,35.6,33.2,11.1,0.8,25.6,17.2,2.0,0.95,50.2,25.2,17.2,0.95,19.1,18.0
MinCPULoadPredictions,1645792091252000000,31.2,0.95,35.6,33.2,11.1,0.8,25.6,17.2,2.0,0.95,50.2,25.2,17.2,0.95,19.1,18.0
MinCPULoadPredictions,1645792121252000000,,,,,,,,,2.0,0.95,50.2,25.2,,,,
MinCPULoadPredictions,1645792151252000000,31.2,0.95,35.6,33.2,11.1,0.8,25.6,17.2,2.0,0.95,50.2,25.2,17.2,0.95,19.1,18.0
MinCPULoadPredictions,1645792181252000000,31.2,0.95,35.6,33.2,,,,,,,,,17.2,0.95,19.1,18.0
MinCPULoadPredictions,1645792211252000000,,,,,,,,,2.0,0.95,50.2,25.2,17.2,0.95,19.1,18.0
MinCPULoadPredictions,1645792241252000000,31.2,0.95,35.6,33.2,11.1,0.8,25.6,17.2,,,,,,,,
MinCPULoadPredictions,1645792271252000000,,,,,,,,,2.0,0.95,50.2,25.2,17.2,0.95,19.1,18.0
MinCPULoadPredictions,1645792301252000000,31.2,0.95,35.6,33.2,11.1,0.8,25.6,17.2,2.0,0.95,50.2,25.2,17.2,0.95,19.1,18.0
MinCPULoadPredictions,1645792331252000000,31.2,0.95,35.6,33.2,11.1,0.8,25.6,17.2,2.0,0.95,50.2,25.2,17.2,0.95,19.1,18.0
MinCPULoadPredictions,1645792361252000000,31.2,0.95,35.6,33.2,11.1,0.8,25.6,17.2,2.0,0.95,50.2,25.2,17.2,0.95,19.1,18.0
MinCPULoadPredictions,1645792391252000000,31.2,0.95,35.6,33.2,11.1,0.8,25.6,17.2,2.0,0.95,50.2,25.2,,,,
MinCPULoadPredictions,1645792421252000000,,,,,11.1,0.8,25.6,17.2,,,,,,,,
MinCPULoadPredictions,1645792451252000000,31.2,0.95,35.6,33.2,,,,,,,,,,,,
MinCPULoadPredictions,1645792481252000000,,,,,11.1,0.8,25.6,17.2,,,,,,,,
MinCPULoadPredictions,1645792511252000000,31.2,0.95,35.6,33.2,11.1,0.8,25.6,17.2,2.0,0.95,50.2,25.2,17.2,0.95,19.1,18.0
MinCPULoadPredictions,1645792541252000000,31.2,0.95,35.6,33.2,,,,,,,,,,,,
MinCPULoadPredictions,1645792571252000000,31.2,0.95,35.6,33.2,,,,,2.0,0.95,50.2,25.2,17.2,0.95,19.1,18.0
MinCPULoadPredictions,1645792601252000000,,,,,11.1,0.8,25.6,17.2,,,,,17.2,0.95,19.1,18.0
MinCPULoadPredictions,1645792631252000000,,,,,,,,,,,,,17.2,0.95,19.1,18.0
MinCPULoadPredictions,1645792661252000000,31.2,0.95,35.6,33.2,,,,,2.0,0.95,50.2,25.2,,,,
MinCPULoadPredictions,1645792691252000000,31.2,0.95,35.6,33.2,,,,,2.0,0.95,50.2,25.2,,,,
MinCPULoadPredictions,1645792721252000000,,,,,,,,,2.0,0.95,50.2,25.2,,,,
MinCPULoadPredictions,1645792751252000000,,,,,,,,,,,,,17.2,0.95,19.1,18.0
MinCPULoadPredictions,1645792781252000000,,,,,,,,,,,,,17.2,0.95,19.1,18.0
MinCPULoadPredictions,1645792811252000000,31.2,0.95,35.6,33.2,,,,,,,,,,,,
MinCPULoadPredictions,1645792841252000000,31.2,0.95,35.6,33.2,,,,,,,,,,,,
MinCPULoadPredictions,1645792871252000000,31.2,0.95,35.6,33.2,11.1,0.8,25.6,17.2,2.0,0.95,50.2,25.2,17.2,0.95,19.1,18.0
MinCPULoadPredictions,1645792901252000000,,,,,11.1,0.8,25.6,17.2,,,,,17.2,0.95,19.1,18.0
MinCPULoadPredictions,1645792931252000000,,,,,11.1,0.8,25.6,17.2,,,,,,,,
MinCPULoadPredictions,1645792961252000000,,,,,11.1,0.8,25.6,17.2,2.0,0.95,50.2,25.2,17.2,0.95,19.1,18.0
MinCPULoadPredictions,1645792991252000000,31.2,0.95,35.6,33.2,11.1,0.8,25.6,17.2,2.0,0.95,50.2,25.2,17.2,0.95,19.1,18.0
MinCPULoadPredictions,1645793021252000000,31.2,0.95,35.6,33.2,11.1,0.8,25.6,17.2,2.0,0.95,50.2,25.2,17.2,0.95,19.1,18.0
MinCPULoadPredictions,1645793051252000000,31.2,0.95,35.6,33.2,11.1,0.8,25.6,17.2,2.0,0.95,50.2,25.2,17.2,0.95,19.1,18.0
MinCPULoadPredictions,1645793081252000000,31.2,0.95,35.6,33.2,11.1,0.8,25.6,17.2,2.0,0.95,50.2,25.2,,,,
MinCPULoadPredictions,1645793111252000000,31.2,0.95,35.6,33.2,11.1,0.8,25.6,17.2,2.0,0.95,50.2,25.2,17.2,0.95,19.1,18.0
MinCPULoadPredictions,1645793141252000000,,,,,,,,,2.0,0.95,50.2,25.2,17.2,0.95,19.1,18.0
MinCPULoadPredictions,1645793171252000000,,,,,,,,,,,,,17.2,0.95,19.1,18.0
MinCPULoadPredictions,1645793201252000000,31.2,0.95,35.6,33.2,11.1,0.8,25.6,17.2,,,,,17.2,0.95,19.1,18.0
MinCPULoadPredictions,1645793231252000000,31.2,0.95,35.6,33.2,,,,,,,,,17.2,0.95,19.1,18.0
MinCPULoadPredictions,1645793261252000000,,,,,11.1,0.8,25.6,17.2,,,,,17.2,0.95,19.1,18.0
MinCPULoadPredictions,1645793291252000000,31.2,0.95,35.6,33.2,11.1,0.8,25.6,17.2,,,,,17.2,0.95,19.1,18.0
MinCPULoadPredictions,1645793321252000000,,,,,,,,,2.0,0.95,50.2,25.2,,,,
MinCPULoadPredictions,1645793351252000000,31.2,0.95,35.6,33.2,,,,,2.0,0.95,50.2,25.2,17.2,0.95,19.1,18.0
MinCPULoadPredictions,1645793381252000000,,,,,11.1,0.8,25.6,17.2,2.0,0.95,50.2,25.2,17.2,0.95,19.1,18.0
MinCPULoadPredictions,1645793411252000000,31.2,0.95,35.6,33.2,11.1,0.8,25.6,17.2,,,,,17.2,0.95,19.1,18.0
MinCPULoadPredictions,1645793441252000000,31.2,0.95,35.6,33.2,11.1,0.8,25.6,17.2,,,,,,,,
MinCPULoadPredictions,1645793471252000000,31.2,0.95,35.6,33.2,11.1,0.8,25.6,17.2,2.0,0.95,50.2,25.2,,,,
MinCPULoadPredictions,1645793501252000000,31.2,0.95,35.6,33.2,,,,,,,,,,,,
MinCPULoadPredictions,1645793531252000000,31.2,0.95,35.6,33.2,11.1,0.8,25.6,17.2,2.0,0.95,50.2,25.2,17.2,0.95,19.1,18.0
MinCPULoadPredictions,1645793561252000000,,,,,11.1,0.8,25.6,17.2,,,,,,,,
MinCPULoadPredictions,1645793591252000000,31.2,0.95,35.6,33.2,11.1,0.8,25.6,17.2,2.0,0.95,50.2,25.2,,,,
MinCPULoadPredictions,1645793621252000000,,,,,,,,,2.0,0.95,50.2,25.2,,,,
MinCPULoadPredictions,1645793651252000000,31.2,0.95,35.6,33.2,11.1,0.8,25.6,17.2,2.0,0.95,50.2,25.2,17.2,0.95,19.1,18.0
MinCPULoadPredictions,1645793681252000000,31.2,0.95,35.6,33.2,11.1,0.8,25.6,17.2,2.0,0.95,50.2,25.2,,,,
MinCPULoadPredictions,1645793711252000000,31.2,0.95,35.6,33.2,,,,,2.0,0.95,50.2,25.2,,,,
MinCPULoadPredictions,1645793741252000000,31.2,0.95,35.6,33.2,,,,,2.0,0.95,50.2,25.2,17.2,0.95,19.1,18.0
MinCPULoadPredictions,1645793771252000000,31.2,0.95,35.6,33.2,11.1,0.8,25.6,17.2,,,,,17.2,0.95,19.1,18.0
MinCPULoadPredictions,1645793801252000000,31.2,0.95,35.6,33.2,11.1,0.8,25.6,17.2,,,,,17.2,0.95,19.1,18.0
MinCPULoadPredictions,1645793831252000000,,,,,11.1,0.8,25.6,17.2,,,,,,,,
MinCPULoadPredictions,1645793861252000000,31.2,0.95,35.6,33.2,,,,,2.0,0.95,50.2,25.2,,,,
MinCPULoadPredictions,1645793891252000000,31.2,0.95,35.6,33.2,11.1,0.8,25.6,17.2,,,,,17.2,0.95,19.1,18.0
MinCPULoadPredictions,1645793921252000000,31.2,0.95,35.6,33.2,,,,,,,,,,,,
MinCPULoadPredictions,1645793951252000000,31.2,0.95,35.6,33.2,11.1,0.8,25.6,17.2,2.0,0.95,50.2,25.2,17.2,0.95,19.1,18.0
MinCPULoadPredictions,1645793981252000000,31.2,0.95,35.6,33.2,11.1,0.8,25.6,17.2,2.0,0.95,50.2,25.2,17.2,0.95,19.1,18.0
MinCPULoadPredictions,1645794011252000000,,,,,,,,,,,,,17.2,0.95,19.1,18.0
MinCPULoadPredictions,1645794041252000000,31.2,0.95,35.6,33.2,11.1,0.8,25.6,17.2,2.0,0.95,50.2,25.2,17.2,0.95,19.1,18.0
MinCPULoadPredictions,1645794071252000000,31.2,0.95,35.6,33.2,11.1,0.8,25.6,17.2,2.0,0.95,50.2,25.2,17.2,0.95,19.1,18.0
MinCPULoadPredictions,1645794101252000000,,,,,,,,,,,,,17.2,0.95,19.1,18.0
MinCPULoadPredictions,1645794131252000000,,,,,,,,,,,,,17.2,0.95,19.1,18.0
MinCPULoadPredictions,1645794161252000000,31.2,0.95,35.6,33.2,11.1,0.8,25.6,17.2,2.0,0.95,50.2,25.2,17.2,0.95,19.1,18.0
MinCPULoadPredictions,1645794191252000000,31.2,0.95,35.6,33.2,11.1,0.8,25.6,17.2,2.0,0.95,50.2,25.2,,,,
MinCPULoadPredictions,1645794221252000000,,,,,11.1,0.8,25.6,17.2,2.0,0.95,50.2,25.2,17.2,0.95,19.1,18.0
MinCPULoadPredictions,1645794251252000000,31.2,0.95,35.6,33.2,11.1,0.8,25.6,17.2,2.0,0.95,50.2,25.2,17.2,0.95,19.1,18.0
MinCPULoadPredictions,1645794281252000000,31.2,0.95,35.6,33.2,,,,,2.0,0.95,50.2,25.2,17.2,0.95,19.1,18.0
MinCPULoadPredictions,1645794311252000000,,,,,,,,,,,,,17.2,0.95,19.1,18.0
MinCPULoadPredictions,1645794341252000000,31.2,0.95,35.6,33.2,11.1,0.8,25.6,17.2,2.0,0.95,50.2,25.2,17.2,0.95,19.1,18.0
MinCPULoadPredictions,1645794371252000000,,,,,,,,,2.0,0.95,50.2,25.2,,,,
MinCPULoadPredictions,1645794401252000000,31.2,0.95,35.6,33.2,11.1,0.8,25.6,17.2,2.0,0.95,50.2,25.2,17.2,0.95,19.1,18.0
MinCPULoadPredictions,1645794431252000000,31.2,0.95,35.6,33.2,11.1,0.8,25.6,17.2,,,,,17.2,0.95,19.1,18.0
MinCPULoadPredictions,1645794461252000000,31.2,0.95,35.6,33.2,11.1,0.8,25.6,17.2,,,,,17.2,0.95,19.1,18.0
MinCPULoadPredictions,1645794491252000000,31.2,0.95,35.6,33.2,11.1,0.8,25.6,17.2,,,,,,,,
MinCPULoadPredictions,1645794521252000000,31.2,0.95,35.6,33.2,,,,,,,,,,,,
MinCPULoadPredictions,1645794551252000000,,,,,,,,,2.0,0.95,50.2,25.2,17.2,0.95,19.1,18.0
MinCPULoadPredictions,1645794581252000000,31.2,0.95,35.6,33.2,11.1,0.8,25.6,17.2,,,,,17.2,0.95,19.1,18.0
MinCPULoadPredictions,1645794611252000000,31.2,0.95,35.6,33.2,11.1,0.8,25.6,17.2,2.0,0.95,50.2,25.2,,,,
MinCPULoadPredictions,1645794641252000000,31.2,0.95,35.6,33.2,11.1,0.8,25.6,17.2,2.0,0.95,50.2,25.2,17.2,0.95,19.1,18.0
MinCPULoadPredictions,1645794671252000000,31.2,0.95,35.6,33.2,11.1,0.8,25.6,17.2,2.0,0.95,50.2,25.2,17.2,0.95,19.1,18.0
MinCPULoadPredictions,1645794701252000000,31.2,0.95,35.6,33.2,11.1,0.8,25.6,17.2,2.0,0.95,50.2,25.2,17.2,0.95,19.1,18.0
MinCPULoadPredictions,1645794731252000000,,,,,11.1,0.8,25.6,17.2,2.0,0.95,50.2,25.2,,,,
MinCPULoadPredictions,1645794761252000000,31.2,0.95,35.6,33.2,11.1,0.8,25.6,17.2,2.0,0.95,50.2,25.2,,,,
MinCPULoadPredictions,1645794791252000000,31.2,0.95,35.6,33.2,11.1,0.8,25.6,17.2,2.0,0.95,50.2,25.2,17.2,0.95,19.1,18.0
MinCPULoadPredictions,1645794821252000000,,,,,11.1,0.8,25.6,17.2,,,,,,,,
MinCPULoadPredictions,1645794851252000000,,,,,11.1,0.8,25.6,17.2,2.0,0.95,50.2,25.2,,,,
MinCPULoadPredictions,1645794881252000000,,,,,,,,,2.0,0.95,50.2,25.2,17.2,0.95,19.1,18.0
MinCPULoadPredictions,1645794911252000000,31.2,0.95,35.6,33.2,11.1,0.8,25.6,17.2,2.0,0.95,50.2,25.2,,,,
MinCPULoadPredictions,1645794941252000000,31.2,0.95,35.6,33.2,11.1,0.8,25.6,17.2,2.0,0.95,50.2,25.2,17.2,0.95,19.1,18.0
MinCPULoadPredictions,1645794971252000000,31.2,0.95,35.6,33.2,,,,,,,,,,,,
MinCPULoadPredictions,1645795001252000000,31.2,0.95,35.6,33.2,11.1,0.8,25.6,17.2,,,,,17.2,0.95,19.1,18.0
MinCPULoadPredictions,1645795031252000000,,,,,,,,,,,,,17.2,0.95,19.1,18.0
MinCPULoadPredictions,1645795061252000000,,,,,,,,,,,,,17.2,0.95,19.1,18.0
MinCPULoadPredictions,1645795091252000000,,,,,11.1,0.8,25.6,17.2,2.0,0.95,50.2,25.2,17.2,0.95,19.1,18.0
MinCPULoadPredictions,1645795121252000000,31.2,0.95,35.6,33.2,11.1,0.8,25.6,17.2,2.0,0.95,50.2,25.2,17.2,0.95,19.1,18.0
MinCPULoadPredictions,1645795151252000000,,,,,,,,,2.0,0.95,50.2,25.2,17.2,0.95,19.1,18.0
MinCPULoadPredictions,1645795181252000000,,,,,,,,,2.0,0.95,50.2,25.2,,,,
MinCPULoadPredictions,1645795211252000000,31.2,0.95,35.6,33.2,11.1,0.8,25.6,17.2,,,,,17.2,0.95,19.1,18.0
MinCPULoadPredictions,1645795241252000000,,,,,11.1,0.8,25.6,17.2,2.0,0.95,50.2,25.2,17.2,0.95,19.1,18.0
MinCPULoadPredictions,1645795271252000000,31.2,0.95,35.6,33.2,,,,,2.0,0.95,50.2,25.2,17.2,0.95,19.1,18.0
MinCPULoadPredictions,1645795301252000000,31.2,0.95,35.6,33.2,11.1,0.8,25.6,17.2,2.0,0.95,50.2,25.2,17.2,0.95,19.1,18.0
MinCPULoadPredictions,1645795331252000000,,,,,,,,,2.0,0.95,50.2,25.2,17.2,0.95,19.1,18.0
MinCPULoadPredictions,1645795361252000000,31.2,0.95,35.6,33.2,,,,,,,,,,,,
MinCPULoadPredictions,1645795391252000000,,,,,11.1,0.8,25.6,17.2,,,,,17.2,0.95,19.1,18.0
MinCPULoadPredictions,1645795421252000000,31.2,0.95,35.6,33.2,11.1,0.8,25.6,17.2,,,,,,,,
MinCPULoadPredictions,1645795451252000000,31.2,0.95,35.6,33.2,11.1,0.8,25.6,17.2,,,,,17.2,0.95,19.1,18.0
MinCPULoadPredictions,1645795481252000000,31.2,0.95,35.6,33.2,,,,,,,,,,,,
MinCPULoadPredictions,1645795511252000000,,,,,,,,,,,,,17.2,0.95,19.1,18.0
MinCPULoadPredictions,1645795541252000000,31.2,0.95,35.6,33.2,11.1,0.8,25.6,17.2,2.0,0.95,50.2,25.2,17.2,0.95,19.1,18.0
MinCPULoadPredictions,1645795571252000000,31.2,0.95,35.6,33.2,11.1,0.8,25.6,17.2,2.0,0.95,50.2,25.2,17.2,0.95,19.1,18.0
MinCPULoadPredictions,1645795601252000000,31.2,0.95,35.6,33.2,11.1,0.8,25.6,17.2,2.0,0.95,50.2,25.2,17.2,0.95,19.1,18.0
MinCPULoadPredictions,1645795631252000000,31.2,0.95,35.6,33.2,11.1,0.8,25.6,17.2,2.0,0.95,50.2,25.2,,,,
MinCPULoadPredictions,1645795661252000000,,,,,11.1,0.8,25.6,17.2,2.0,0.95,50.2,25.2,17.2,0.95,19.1,18.0
MinCPULoadPredictions,1645795691252000000,31.2,0.95,35.6,33.2,11.1,0.8,25.6,17.2,2.0,0.95,50.2,25.2,17.2,0.95,19.1,18.0
MinCPULoadPredictions,1645795721252000000,31.2,0.95,35.6,33.2,11.1,0.8,25.6,17.2,2.0,0.95,50.2,25.2,,,,
MinCPULoadPredictions,1645795751252000000,,,,,,,,,,,,,17.2,0.95,19.1,18.0
MinCPULoadPredictions,1645795781252000000,31.2,0.95,35.6,33.2,,,,,2.0,0.95,50.2,25.2,17.2,0.95,19.1,18.0
MinCPULoadPredictions,1645795811252000000,,,,,11.1,0.8,25.6,17.2,,,,,17.2,0.95,19.1,18.0
MinCPULoadPredictions,1645795841252000000,31.2,0.95,35.6,33.2,11.1,0.8,25.6,17.2,2.0,0.95,50.2,25.2,17.2,0.95,19.1,18.0
MinCPULoadPredictions,1645795871252000000,,,,,11.1,0.8,25.6,17.2,2.0,0.95,50.2,25.2,17.2,0.95,19.1,18.0
MinCPULoadPredictions,1645795901252000000,,,,,11.1,0.8,25.6,17.2,2.0,0.95,50.2,25.2,17.2,0.95,19.1,18.0
MinCPULoadPredictions,1645795931252000000,31.2,0.95,35.6,33.2,11.1,0.8,25.6,17.2,,,,,17.2,0.95,19.1,18.0
MinCPULoadPredictions,1645795961252000000,31.2,0.95,35.6,33.2,11.1,0.8,25.6,17.2,2.0,0.95,50.2,25.2,17.2,0.95,19.1,18.0
MinCPULoadPredictions,1645795991252000000,31.2,0.95,35.6,33.2,11.1,0.8,25.6,17.2,2.0,0.95,50.2,25.2,17.2,0.95,19.1,18.0
MinCPULoadPredictions,1645796021252000000,31.2,0.95,35.6,33.2,11.1,0.8,25.6,17.2,2.0,0.95,50.2,25.2,17.2,0.95,19.1,18.0
MinCPULoadPredictions,1645796051252000000,,,,,11.1,0.8,25.6,17.2,,,,,,,,
MinCPULoadPredictions,1645796081252000000,31.2,0.95,35.6,33.2,11.1,0.8,25.6,17.2,2.0,0.95,50.2,25.2,,,,
MinCPULoadPredictions,1645796111252000000,,,,,11.1,0.8,25.6,17.2,,,,,17.2,0.95,19.1,18.0
MinCPULoadPredictions,1645796141252000000,31.2,0.95,35.6,33.2,11.1,0.8,25.6,17.2,2.0,0.95,50.2,25.2,17.2,0.95,19.1,18.0
MinCPULoadPredictions,1645796171252000000,31.2,0.95,35.6,33.2,,,,,,,,,17.2,0.95,19.1,18.0
MinCPULoadPredictions,1645796201252000000,31.2,0.95,35.6,33.2,11.1,0.8,25.6,17.2,2.0,0.95,50.2,25.2,17.2,0.95,19.1,18.0
MinCPULoadPredictions,1645796231252000000,31.2,0.95,35.6,33.2,11.1,0.8,25.6,17.2,,,,,,,,
MinCPULoadPredictions,1645796261252000000,31.2,0.95,35.6,33.2,11.1,0.8,25.6,17.2,,,,,,,,
MinCPULoadPredictions,1645796291252000000,,,,,,,,,2.0,0.95,50.2,25.2,17.2,0.95,19.1,18.0
MinCPULoadPredictions,1645796321252000000,31.2,0.95,35.6,33.2,,,,,2.0,0.95,50.2,25.2,17.2,0.95,19.1,18.0
MinCPULoadPredictions,1645796351252000000,31.2,0.95,35.6,33.2,,,,,,,,,,,,
MinCPULoadPredictions,1645796381252000000,,,,,11.1,0.8,25.6,17.2,2.0,0.95,50.2,25.2,17.2,0.95,19.1,18.0
MinCPULoadPredictions,1645796411252000000,31.2,0.95,35.6,33.2,,,,,2.0,0.95,50.2,25.2,17.2,0.95,19.1,18.0
MinCPULoadPredictions,1645796441252000000,,,,,,,,,,,,,17.2,0.95,19.1,18.0
MinCPULoadPredictions,1645796471252000000,31.2,0.95,35.6,33.2,11.1,0.8,25.6,17.2,2.0,0.95,50.2,25.2,,,,
MinCPULoadPredictions,1645796501252000000,,,,,11.1,0.8,25.6,17.2,,,,,17.2,0.95,19.1,18.0
MinCPULoadPredictions,1645796531252000000,,,,,11.1,0.8,25.6,17.2,,,,,17.2,0.95,19.1,18.0
MinCPULoadPredictions,1645796561252000000,31.2,0.95,35.6,33.2,,,,,2.0,0.95,50.2,25.2,17.2,0.95,19.1,18.0
MinCPULoadPredictions,1645796591252000000,31.2,0.95,35.6,33.2,11.1,0.8,25.6,17.2,2.0,0.95,50.2,25.2,17.2,0.95,19.1,18.0
MinCPULoadPredictions,1645796621252000000,,,,,11.1,0.8,25.6,17.2,,,,,17.2,0.95,19.1,18.0
MinCPULoadPredictions,1645796651252000000,,,,,,,,,2.0,0.95,50.2,25.2,17.2,0.95,19.1,18.0
MinCPULoadPredictions,1645796681252000000,31.2,0.95,35.6,33.2,11.1,0.8,25.6,17.2,2.0,0.95,50.2,25.2,17.2,0.95,19.1,18.0
MinCPULoadPredictions,1645796711252000000,,,,,11.1,0.8,25.6,17.2,2.0,0.95,50.2,25.2,17.2,0.95,19.1,18.0
MinCPULoadPredictions,1645796741252000000,31.2,0.95,35.6,33.2,,,,,2.0,0.95,50.2,25.2,,,,
MinCPULoadPredictions,1645796771252000000,31.2,0.95,35.6,33.2,11.1,0.8,25.6,17.2,,,,,,,,
MinCPULoadPredictions,1645796801252000000,31.2,0.95,35.6,33.2,11.1,0.8,25.6,17.2,,,,,17.2,0.95,19.1,18.0
MinCPULoadPredictions,1645796831252000000,31.2,0.95,35.6,33.2,11.1,0.8,25.6,17.2,2.0,0.95,50.2,25.2,17.2,0.95,19.1,18.0
MinCPULoadPredictions,1645796861252000000,,,,,,,,,2.0,0.95,50.2,25.2,,,,
MinCPULoadPredictions,1645796891252000000,31.2,0.95,35.6,33.2,11.1,0.8,25.6,17.2,2.0,0.95,50.2,25.2,,,,
MinCPULoadPredictions,1645796921252000000,,,,,,,,,2.0,0.95,50.2,25.2,,,,
MinCPULoadPredictions,1645796951252000000,,,,,,,,,2.0,0.95,50.2,25.2,,,,
MinCPULoadPredictions,1645796981252000000,,,,,11.1,0.8,25.6,17.2,,,,,17.2,0.95,19.1,18.0
MinCPULoadPredictions,1645797011252000000,,,,,,,,,,,,,17.2,0.95,19.1,18.0
MinCPULoadPredictions,1645797041252000000,31.2,0.95,35.6,33.2,,,,,2.0,0.95,50.2,25.2,17.2,0.95,19.1,18.0
MinCPULoadPredictions,1645797071252000000,31.2,0.95,35.6,33.2,,,,,,,,,17.2,0.95,19.1,18.0
MinCPULoadPredictions,1645797101252000000,,,,,11.1,0.8,25.6,17.2,2.0,0.95,50.2,25.2,,,,
MinCPULoadPredictions,1645797131252000000,31.2,0.95,35.6,33.2,,,,,,,,,,,,
MinCPULoadPredictions,1645797161252000000,,,,,,,,,,,,,17.2,0.95,19.1,18.0
MinCPULoadPredictions,1645797191252000000,31.2,0.95,35.6,33.2,11.1,0.8,25.6,17.2,2.0,0.95,50.2,25.2,17.2,0.95,19.1,18.0
MinCPULoadPredictions,1645797221252000000,31.2,0.95,35.6,33.2,,,,,2.0,0.95,50.2,25.2,17.2,0.95,19.1,18.0
MinCPULoadPredictions,1645797251252000000,,,,,,,,,2.0,0.95,50.2,25.2,17.2,0.95,19.1,18.0
MinCPULoadPredictions,1645797281252000000,31.2,0.95,35.6,33.2,11.1,0.8,25.6,17.2,2.0,0.95,50.2,25.2,,,,
MinCPULoadPredictions,1645797311252000000,,,,,,,,,2.0,0.95,50.2,25.2,,,,
MinCPULoadPredictions,1645797341252000000,,,,,11.1,0.8,25.6,17.2,,,,,,,,
MinCPULoadPredictions,1645797371252000000,,,,,11.1,0.8,25.6,17.2,2.0,0.95,50.2,25.2,,,,
MinCPULoadPredictions,1645797401252000000,,,,,11.1,0.8,25.6,17.2,2.0,0.95,50.2,25.2,,,,
MinCPULoadPredictions,1645797431252000000,31.2,0.95,35.6,33.2,11.1,0.8,25.6,17.2,2.0,0.95,50.2,25.2,,,,
MinCPULoadPredictions,1645797461252000000,31.2,0.95,35.6,33.2,,,,,,,,,,,,
MinCPULoadPredictions,1645797491252000000,31.2,0.95,35.6,33.2,11.1,0.8,25.6,17.2,2.0,0.95,50.2,25.2,17.2,0.95,19.1,18.0
MinCPULoadPredictions,1645797521252000000,31.2,0.95,35.6,33.2,11.1,0.8,25.6,17.2,2.0,0.95,50.2,25.2,17.2,0.95,19.1,18.0
MinCPULoadPredictions,1645797551252000000,31.2,0.95,35.6,33.2,11.1,0.8,25.6,17.2,,,,,,,,
MinCPULoadPredictions,1645797581252000000,31.2,0.95,35.6,33.2,11.1,0.8,25.6,17.2,2.0,0.95,50.2,25.2,17.2,0.95,19.1,18.0
MinCPULoadPredictions,1645797611252000000,31.2,0.95,35.6,33.2,11.1,0.8,25.6,17.2,2.0,0.95,50.2,25.2,17.2,0.95,19.1,18.0
MinCPULoadPredictions,1645797641252000000,31.2,0.95,35.6,33.2,,,,,2.0,0.95,50.2,25.2,17.2,0.95,19.1,18.0
MinCPULoadPredictions,1645797671252000000,31.2,0.95,35.6,33.2,,,,,,,,,,,,
MinCPULoadPredictions,1645797701252000000,31.2,0.95,35.6,33.2,,,,,,,,,17.2,0.95,19.1,18.0
MinCPULoadPredictions,1645797731252000000,31.2,0.95,35.6,33.2,,,,,2.0,0.95,50.2,25.2,,,,
MinCPULoadPredictions,1645797761252000000,31.2,0.95,35.6,33.2,11.1,0.8,25.6,17.2,2.0,0.95,50.2,25.2,17.2,0.95,19.1,18.0
MinCPULoadPredictions,1645797791252000000,31.2,0.95,35.6,33.2,,,,,,,,,17.2,0.95,19.1,18.0
MinCPULoadPredictions,1645797821252000000,,,,,11.1,0.8,25.6,17.2,,,,,,,,
MinCPULoadPredictions,1645797851252000000,31.2,0.95,35.6,33.2,11.1,0.8,25.6,17.2,,,,,17.2,0.95,19.1,18.0
MinCPULoadPredictions,1645797881252000000,,,,,,,,,2.0,0.95,50.2,25.2,,,,
MinCPULoadPredictions,1645797911252000000,31.2,0.95,35.6,33.2,11.1,0.8,25.6,17.2,,,,,17.2,0.95,19.1,18.0
MinCPULoadPredictions,1645797941252000000,,,,,,,,,2.0,0.95,50.2,25.2,17.2,0.95,19.1,18.0
MinCPULoadPredictions,1645797971252000000,31.2,0.95,35.6,33.2,11.1,0.8,25.6,17.2,,,,,17.2,0.95,19.1,18.0
MinCPULoadPredictions,1645798001252000000,,,,,,,,,2.0,0.95,50.2,25.2,,,,
MinCPULoadPredictions,1645798031252000000,31.2,0.95,35.6,33.2,11.1,0.8,25.6,17.2,,,,,17.2,0.95,19.1,18.0
MinCPULoadPredictions,1645798061252000000,31.2,0.95,35.6,33.2,,,,,2.0,0.95,50.2,25.2,,,,
MinCPULoadPredictions,1645798091252000000,31.2,0.95,35.6,33.2,,,,,,,,,,,,
MinCPULoadPredictions,1645798121252000000,31.2,0.95,35.6,33.2,11.1,0.8,25.6,17.2,2.0,0.95,50.2,25.2,17.2,0.95,19.1,18.0
MinCPULoadPredictions,1645798151252000000,,,,,11.1,0.8,25.6,17.2,,,,,,,,
MinCPULoadPredictions,1645798181252000000,,,,,,,,,2.0,0.95,50.2,25.2,17.2,0.95,19.1,18.0
MinCPULoadPredictions,1645798211252000000,31.2,0.95,35.6,33.2,11.1,0.8,25.6,17.2,2.0,0.95,50.2,25.2,17.2,0.95,19.1,18.0
MinCPULoadPredictions,1645798241252000000,,,,,11.1,0.8,25.6,17.2,,,,,,,,
MinCPULoadPredictions,1645798271252000000,,,,,,,,,,,,,17.2,0.95,19.1,18.0
MinCPULoadPredictions,1645798301252000000,,,,,,,,,2.0,0.95,50.2,25.2,,,,
MinCPULoadPredictions,1645798331252000000,,,,,11.1,0.8,25.6,17.2,2.0,0.95,50.2,25.2,17.2,0.95,19.1,18.0
MinCPULoadPredictions,1645798361252000000,,,,,11.1,0.8,25.6,17.2,,,,,17.2,0.95,19.1,18.0
MinCPULoadPredictions,1645798391252000000,31.2,0.95,35.6,33.2,,,,,2.0,0.95,50.2,25.2,17.2,0.95,19.1,18.0
MinCPULoadPredictions,1645798421252000000,31.2,0.95,35.6,33.2,11.1,0.8,25.6,17.2,,,,,17.2,0.95,19.1,18.0
MinCPULoadPredictions,1645798451252000000,,,,,,,,,,,,,17.2,0.95,19.1,18.0
MinCPULoadPredictions,1645798481252000000,,,,,11.1,0.8,25.6,17.2,,,,,,,,
MinCPULoadPredictions,1645798511252000000,31.2,0.95,35.6,33.2,,,,,2.0,0.95,50.2,25.2,17.2,0.95,19.1,18.0
MinCPULoadPredictions,1645798541252000000,31.2,0.95,35.6,33.2,11.1,0.8,25.6,17.2,2.0,0.95,50.2,25.2,17.2,0.95,19.1,18.0
MinCPULoadPredictions,1645798571252000000,31.2,0.95,35.6,33.2,,,,,,,,,,,,
MinCPULoadPredictions,1645798601252000000,,,,,,,,,2.0,0.95,50.2,25.2,,,,
MinCPULoadPredictions,1645798631252000000,,,,,,,,,2.0,0.95,50.2,25.2,,,,
MinCPULoadPredictions,1645798661252000000,31.2,0.95,35.6,33.2,11.1,0.8,25.6,17.2,2.0,0.95,50.2,25.2,17.2,0.95,19.1,18.0
MinCPULoadPredictions,1645798691252000000,31.2,0.95,35.6,33.2,,,,,,,,,17.2,0.95,19.1,18.0
MinCPULoadPredictions,1645798721252000000,,,,,11.1,0.8,25.6,17.2,2.0,0.95,50.2,25.2,,,,
MinCPULoadPredictions,1645798751252000000,31.2,0.95,35.6,33.2,11.1,0.8,25.6,17.2,2.0,0.95,50.2,25.2,,,,
MinCPULoadPredictions,1645798781252000000,31.2,0.95,35.6,33.2,,,,,2.0,0.95,50.2,25.2,,,,
MinCPULoadPredictions,1645798811252000000,,,,,11.1,0.8,25.6,17.2,,,,,,,,
MinCPULoadPredictions,1645798841252000000,,,,,,,,,2.0,0.95,50.2,25.2,,,,
MinCPULoadPredictions,1645798871252000000,,,,,,,,,2.0,0.95,50.2,25.2,,,,
MinCPULoadPredictions,1645798901252000000,31.2,0.95,35.6,33.2,11.1,0.8,25.6,17.2,2.0,0.95,50.2,25.2,17.2,0.95,19.1,18.0
MinCPULoadPredictions,1645798931252000000,31.2,0.95,35.6,33.2,11.1,0.8,25.6,17.2,2.0,0.95,50.2,25.2,17.2,0.95,19.1,18.0
MinCPULoadPredictions,1645798961252000000,31.2,0.95,35.6,33.2,11.1,0.8,25.6,17.2,2.0,0.95,50.2,25.2,17.2,0.95,19.1,18.0
MinCPULoadPredictions,1645798991252000000,31.2,0.95,35.6,33.2,11.1,0.8,25.6,17.2,2.0,0.95,50.2,25.2,17.2,0.95,19.1,18.0
MinCPULoadPredictions,1645799021252000000,,,,,11.1,0.8,25.6,17.2,,,,,,,,
